mz,p,1H,2H,12C,13C,12Clab,13Clab,14N,15N,14Nlab,15Nlab,16O,17O,18O
972.4777037130799,7.574648587578071e-06,64,0,8,0,5,24,1,0,0,6,21,0,0
972.4840236536999,9.089578305093704e-06,64,0,8,0,4,25,1,0,1,5,21,0,0
972.4903435943199,3.4959916558053314e-06,64,0,8,0,3,26,1,0,2,4,21,0,0
973.4810585481499,0.00014997804203404602,64,0,8,0,4,25,1,0,0,6,21,0,0
973.4873784887699,0.0001384412695698906,64,0,8,0,3,26,1,0,1,5,21,0,0
973.49369842939,3.8455908213858446e-05,64,0,8,0,2,27,1,0,2,4,21,0,0
973.5000183700099,3.6624674489388756e-06,64,0,8,0,1,28,1,0,3,3,21,0,0
974.4844133832199,0.002284280947903194,64,0,8,0,3,26,1,0,0,6,21,0,0
974.4844133832199,1.2976974020129764e-05,64,0,7,1,4,25,1,0,0,6,21,0,0
974.4907333238399,1.1978745249350742e-05,64,0,7,1,3,26,1,0,1,5,21,0,0
974.4907333238399,0.0015228539652687903,64,0,8,0,2,27,1,0,1,5,21,0,0
974.49705326446,0.0002719382080837115,64,0,8,0,1,28,1,0,2,4,21,0,0
974.49705326446,3.327429235930745e-06,64,0,7,1,2,27,1,0,2,4,21,0,0
974.5033732050799,1.2502906118791558e-05,64,0,8,0,0,29,1,0,3,3,21,0,0
975.48144827767,8.345159029234043e-06,64,0,8,0,3,26,0,1,0,6,21,0,0
975.48530354144,6.4722823556900095e-06,64,0,8,0,4,25,1,0,0,6,20,0,1
975.48776821829,0.025127090426935002,64,0,8,0,2,27,1,0,0,6,21,0,0
975.48776821829,5.5634393528226795e-06,64,0,8,0,2,27,0,1,1,5,21,0,0
975.48776821829,0.0001976492966142868,64,0,7,1,3,26,1,0,0,6,21,0,0
975.48863052015,1.8272965269873276e-05,64,0,8,0,3,26,1,0,0,6,20,1,0
975.4906901291099,1.6814241414330416e-05,63,1,8,0,3,26,1,0,0,6,21,0,0
975.4916234820599,5.974414482175479e-06,64,0,8,0,3,26,1,0,1,5,20,0,1
975.4940881589099,0.0001317661977428575,64,0,7,1,2,27,1,0,1,5,21,0,0
975.4940881589099,0.010768753040114945,64,0,8,0,1,28,1,0,1,5,21,0,0
975.4949504607699,1.2181976846582126e-05,64,0,8,0,2,27,1,0,1,5,20,1,0
975.49701006973,1.1209494276220224e-05,63,1,8,0,2,27,1,0,1,5,21,0,0
975.50040809953,0.0009283407793202724,64,0,8,0,0,29,1,0,2,4,21,0,0
975.50040809953,2.352967816836726e-05,64,0,7,1,1,28,1,0,2,4,21,0,0
975.50127040139,2.1753530083182266e-06,64,0,8,0,1,28,1,0,2,4,20,1,0
975.5033300103499,2.0016954064678878e-06,63,1,8,0,1,28,1,0,2,4,21,0,0
976.48480311274,9.1796749321574e-05,64,0,8,0,2,27,0,1,0,6,21,0,0
976.48865837651,9.857783895589534e-05,64,0,8,0,3,26,1,0,0,6,20,0,1
976.49112305336,7.4820238130041644e-06,64,0,6,2,3,26,1,0,0,6,21,0,0
976.49112305336,3.934146399496012e-05,64,0,8,0,1,28,0,1,1,5,21,0,0
976.49112305336,0.1776844251618964,64,0,8,0,1,28,1,0,0,6,21,0,0
976.49112305336,0.0021741422627571437,64,0,7,1,2,27,1,0,0,6,21,0,0
976.49198535522,0.00020100261796860498,64,0,8,0,2,27,1,0,0,6,20,1,0
976.4940449641799,0.0001849566555576336,63,1,8,0,2,27,1,0,0,6,21,0,0
976.49497831713,6.571855930392992e-05,64,0,8,0,2,27,1,0,1,5,20,0,1
976.4974429939799,0.0009317752554673424,64,0,7,1,1,28,1,0,1,5,21,0,0
976.4974429939799,4.988015875336086e-06,64,0,6,2,2,27,1,0,1,5,21,0,0
976.4974429939799,0.03676229486108271,64,0,8,0,0,29,1,0,1,5,21,0,0
976.49744299398,3.391505516806968e-06,64,0,8,0,0,29,0,1,2,4,21,0,0
976.4983052958399,8.614397912940161e-05,64,0,8,0,1,28,1,0,1,5,20,1,0
976.5003649048,7.92671380961282e-05,63,1,8,0,1,28,1,0,1,5,21,0,0
976.50129825775,1.173545701855886e-05,64,0,8,0,1,28,1,0,2,4,20,0,1
976.5037629346,8.032545305753104e-05,64,0,7,1,0,29,1,0,2,4,21,0,0
976.50462523646,7.426205097362356e-06,64,0,8,0,0,29,1,0,2,4,20,1,0
976.50668484542,6.833373973804292e-06,63,1,8,0,0,29,1,0,2,4,21,0,0
977.48815794781,7.942789590545594e-06,64,0,7,1,2,27,0,1,0,6,21,0,0
977.48815794781,0.0006491341559168404,64,0,8,0,1,28,0,1,0,6,21,0,0
977.49201321158,8.529528974653457e-06,64,0,7,1,3,26,1,0,0,6,20,0,1
977.49201321158,0.001084356228514843,64,0,8,0,2,27,1,0,0,6,20,0,1
977.49447788843,3.4040526816623827e-06,64,0,7,1,1,28,0,1,1,5,21,0,0
977.49447788843,0.015374291715211128,64,0,7,1,1,28,1,0,0,6,21,0,0
977.49447788843,0.6065778652078639,64,0,8,0,0,29,1,0,0,6,21,0,0
977.49447788843,0.00013430361846555593,64,0,8,0,0,29,0,1,1,5,21,0,0
977.49447788843,8.230226194304538e-05,64,0,6,2,2,27,1,0,0,6,21,0,0
977.49534019029,1.7391917616610365e-05,64,0,7,1,2,27,1,0,0,6,20,1,0
977.49534019029,0.001421375655635126,64,0,8,0,1,28,1,0,0,6,20,1,0
977.4973997992499,1.6003527459550672e-05,63,1,7,1,2,27,1,0,0,6,21,0,0
977.4973997992499,0.0013079077785861147,63,1,8,0,1,28,1,0,0,6,21,0,0
977.4983331522,5.686352649768954e-06,64,0,7,1,2,27,1,0,1,5,20,0,1
977.4983331522,0.00046472409793493037,64,0,8,0,1,28,1,0,1,5,20,0,1
977.5007978290499,0.003180887941078226,64,0,7,1,0,29,1,0,1,5,21,0,0
977.5007978290499,3.5272397975590664e-05,64,0,6,2,1,28,1,0,1,5,21,0,0
977.50166013091,7.453678978547267e-06,64,0,7,1,1,28,1,0,1,5,20,1,0
977.50166013091,0.0002940777218555487,64,0,8,0,0,29,1,0,1,5,20,1,0
977.50371973987,6.858654625521687e-06,63,1,7,1,1,28,1,0,1,5,21,0,0
977.50371973987,0.0002706016093626494,63,1,8,0,0,29,1,0,1,5,21,0,0
977.50465309282,4.006242223577062e-05,64,0,8,0,0,29,1,0,2,4,20,0,1
977.50711776967,3.0407239634130545e-06,64,0,6,2,0,29,1,0,2,4,21,0,0
978.4890481060299,3.961476446057682e-06,64,0,8,0,2,27,0,1,0,6,20,0,1
978.49151278288,5.616686924742919e-05,64,0,7,1,1,28,0,1,0,6,21,0,0
978.49151278288,0.0022160097046816673,64,0,8,0,0,29,0,1,0,6,21,0,0
978.4923750847399,5.1927088467139e-06,64,0,8,0,1,28,0,1,0,6,20,1,0
978.4929033697999,2.0257683156027797e-06,64,0,8,0,3,26,1,0,0,6,19,0,2
978.4944346937,4.7781768778889765e-06,63,1,8,0,1,28,0,1,0,6,21,0,0
978.49536804665,9.382481872118753e-05,64,0,7,1,2,27,1,0,0,6,20,0,1
978.49536804665,0.00766794761592634,64,0,8,0,1,28,1,0,0,6,20,0,1
978.4962303485099,8.261182008994662e-06,64,0,8,0,2,27,1,0,0,6,19,1,1
978.4978327235,0.05248465102779065,64,0,7,1,0,29,1,0,0,6,21,0,0
978.4978327235,0.0005819945665972456,64,0,6,2,1,28,1,0,0,6,21,0,0
978.4978327235,1.162073156843386e-05,64,0,7,1,0,29,0,1,1,5,21,0,0
978.49828995747,7.981779746540221e-06,63,1,8,0,2,27,1,0,0,6,20,0,1
978.49869502536,0.00012298570314602962,64,0,7,1,1,28,1,0,0,6,20,1,0
978.49869502536,0.0048522824106165515,64,0,8,0,0,29,1,0,0,6,20,1,0
978.4995573272199,5.414384445616352e-06,64,0,8,0,1,28,1,0,0,6,19,2,0
978.50075463432,0.00011316780132110758,63,1,7,1,1,28,1,0,0,6,21,0,0
978.50075463432,0.004464926554483713,63,1,8,0,0,29,1,0,0,6,21,0,0
978.50161693618,1.046252801619655e-05,63,1,8,0,1,28,1,0,0,6,20,1,0
978.50168798727,4.021063659479448e-05,64,0,7,1,1,28,1,0,1,5,20,0,1
978.50168798727,0.0015864719205365147,64,0,8,0,0,29,1,0,1,5,20,0,1
978.5025502891299,3.540506575283411e-06,64,0,8,0,1,28,1,0,1,5,19,1,1
978.5036765451399,4.7384408486258245e-06,62,2,8,0,1,28,1,0,0,6,21,0,0
978.5041526641199,0.0001204126689511565,64,0,6,2,0,29,1,0,1,5,21,0,0
978.5046098980899,3.4207627485172164e-06,63,1,8,0,1,28,1,0,1,5,20,0,1
978.50501496598,2.5445317892282506e-05,64,0,7,1,0,29,1,0,1,5,20,1,0
978.50707457494,2.3414027859539972e-05,63,1,7,1,0,29,1,0,1,5,21,0,0
978.5079368767999,2.164660968868292e-06,63,1,8,0,0,29,1,0,1,5,20,1,0
978.50800792789,3.466434189206484e-06,64,0,7,1,0,29,1,0,2,4,20,0,1
979.4924029411,2.801329772569342e-05,64,0,8,0,1,28,0,1,0,6,20,0,1
979.49486761795,2.126199588917636e-06,64,0,6,2,1,28,0,1,0,6,21,0,0
979.49486761795,0.00019174207087915826,64,0,7,1,0,29,0,1,0,6,21,0,0
979.49572991981,1.7726833649127082e-05,64,0,8,0,0,29,0,1,0,6,20,1,0
979.49625820487,2.2283451471630463e-05,64,0,8,0,2,27,1,0,0,6,19,0,2
979.49778952877,1.6311707272793697e-05,63,1,8,0,0,29,0,1,0,6,21,0,0
979.4987228817199,5.795854701867711e-06,64,0,8,0,0,29,0,1,1,5,20,0,1
979.49872288172,0.026176786688852458,64,0,8,0,0,29,1,0,0,6,20,0,1
979.49872288172,3.5517431124112636e-06,64,0,6,2,2,27,1,0,0,6,20,0,1
979.49872288172,0.0006634755038141075,64,0,7,1,1,28,1,0,0,6,20,0,1
979.4995851835799,5.8418358492176146e-05,64,0,8,0,1,28,1,0,0,6,19,1,1
979.50118755857,0.0019868090376940813,64,0,6,2,0,29,1,0,0,6,21,0,0
979.50118755857,1.258939020032454e-05,64,0,5,3,1,28,1,0,0,6,21,0,0
979.50164479254,5.644258535053404e-05,63,1,8,0,1,28,1,0,0,6,20,0,1
979.50204986043,0.0004198477452226604,64,0,7,1,0,29,1,0,0,6,20,1,0
979.50204986043,4.655629821913269e-06,64,0,6,2,1,28,1,0,0,6,20,1,0
979.5025781454899,9.550050630698729e-06,64,0,8,0,1,28,1,0,1,5,19,0,2
979.5029121622899,1.848358827986305e-05,64,0,8,0,0,29,1,0,0,6,19,2,0
979.50410946939,0.0003863314596824087,63,1,7,1,0,29,1,0,0,6,21,0,0
979.50410946939,4.2839726670125006e-06,63,1,6,2,1,28,1,0,0,6,21,0,0
979.50497177125,3.5716905986326794e-05,63,1,8,0,0,29,1,0,0,6,20,1,0
979.50504282234,0.00013727079389257672,64,0,7,1,0,29,1,0,1,5,20,0,1
979.5059051241999,1.2086556929416e-05,64,0,8,0,0,29,1,0,1,5,19,1,1
979.5070313802099,1.6176056690136725e-05,62,2,8,0,0,29,1,0,0,6,21,0,0
979.50750749919,2.6047014207568497e-06,64,0,5,3,0,29,1,0,1,5,21,0,0
979.50796473316,1.1677776279421053e-05,63,1,8,0,0,29,1,0,1,5,20,0,1
980.49575777617,2.423873734276118e-06,64,0,7,1,1,28,0,1,0,6,20,0,1
980.49575777617,9.563160258081719e-05,64,0,8,0,0,29,0,1,0,6,20,0,1
980.49822245302,7.258405493201715e-06,64,0,6,2,0,29,0,1,0,6,21,0,0
980.49961303994,0.00015757583540652864,64,0,8,0,1,28,1,0,0,6,19,0,2
980.49961303994,1.92809405233152e-06,64,0,7,1,2,27,1,0,0,6,19,0,2
980.50207771679,0.0022649680992275108,64,0,7,1,0,29,1,0,0,6,20,0,1
980.50207771679,2.5115897723479487e-05,64,0,6,2,1,28,1,0,0,6,20,0,1
980.50294001865,5.0546967420704455e-06,64,0,7,1,1,28,1,0,0,6,19,1,1
980.50294001865,0.00019942818933536352,64,0,8,0,0,29,1,0,0,6,19,1,1
980.50454239364,4.297757344248799e-05,64,0,5,3,0,29,1,0,0,6,21,0,0
980.50499962761,4.883741338325814e-06,63,1,7,1,1,28,1,0,0,6,20,0,1
980.50499962761,0.00019268330861044725,63,1,8,0,0,29,1,0,0,6,20,0,1
980.5054046955,1.5893356978255927e-05,64,0,6,2,0,29,1,0,0,6,20,1,0
980.5059329805599,3.260189698066176e-05,64,0,8,0,0,29,1,0,1,5,19,0,2
980.50746430446,1.4624596346008454e-05,63,1,6,2,0,29,1,0,0,6,21,0,0
980.50832660632,3.090434804841385e-06,63,1,7,1,0,29,1,0,0,6,20,1,0
980.50839765741,5.196392632444128e-06,64,0,6,2,0,29,1,0,1,5,20,0,1
981.49911261124,8.274603437701379e-06,64,0,7,1,0,29,0,1,0,6,20,0,1
981.50296787501,1.3634379370058515e-05,64,0,7,1,1,28,1,0,0,6,19,0,2
981.50296787501,0.0005379313001809178,64,0,8,0,0,29,1,0,0,6,19,0,2
981.50543255186,8.574047843532806e-05,64,0,6,2,0,29,1,0,0,6,20,0,1
981.50629485372,1.7255688878102867e-05,64,0,7,1,0,29,1,0,0,6,19,1,1
981.50835446268,1.6672082499802216e-05,63,1,7,1,0,29,1,0,0,6,20,0,1
981.5092878156299,2.820906076563888e-06,64,0,7,1,0,29,1,0,1,5,19,0,2
982.50000276946,1.9652233456366597e-06,64,0,8,0,0,29,0,1,0,6,19,0,2
982.50385803323,2.0508431452042714e-06,64,0,8,0,1,28,1,0,0,6,18,0,3
982.50632271008,4.6544950263304046e-05,64,0,7,1,0,29,1,0,0,6,19,0,2
982.50718501194,3.8933247664888014e-06,64,0,8,0,0,29,1,0,0,6,18,1,2
982.5087873869301,1.8546914368907528e-06,64,0,5,3,0,29,1,0,0,6,20,0,1
982.5092446209,3.959629726750192e-06,63,1,8,0,0,29,1,0,0,6,19,0,2
983.5072128683,7.001154185352639e-06,64,0,8,0,0,29,1,0,0,6,18,0,3
