<?xml version="1.0" encoding="utf-8" standalone="no"?>
<!DOCTYPE svg PUBLIC "-//W3C//DTD SVG 1.1//EN"
  "http://www.w3.org/Graphics/SVG/1.1/DTD/svg11.dtd">
<!-- Created with matplotlib (https://matplotlib.org/) -->
<svg height="180pt" version="1.1" viewBox="0 0 288 180" width="288pt" xmlns="http://www.w3.org/2000/svg" xmlns:xlink="http://www.w3.org/1999/xlink">
 <defs>
  <style type="text/css">
*{stroke-linecap:butt;stroke-linejoin:round;}
  </style>
 </defs>
 <g id="figure_1">
  <g id="patch_1">
   <path d="M 0 180 
L 288 180 
L 288 0 
L 0 0 
z
" style="fill:#ffffff;"/>
  </g>
  <g id="axes_1">
   <g id="patch_2">
    <path d="M 53.026574 135.850051 
L 277.2 135.850051 
L 277.2 10.8 
L 53.026574 10.8 
z
" style="fill:#ffffff;"/>
   </g>
   <g id="line2d_1">
    <path clip-path="url(#p60fe2fa824)" d="M 63.216275 16.484093 
L 91.890811 38.535872 
L 106.228079 49.284584 
L 118.517166 58.226702 
L 129.782162 66.134949 
L 140.023068 73.033636 
L 149.239883 78.968048 
L 157.432608 83.997815 
L 165.625332 88.773195 
L 173.818057 93.271579 
L 180.986691 96.96267 
L 188.155325 100.409233 
L 195.323959 103.596121 
L 202.492593 106.508189 
L 208.637136 108.774033 
L 214.78168 110.817304 
L 220.926223 112.628464 
L 227.070767 114.197976 
L 233.21531 115.516301 
L 239.359853 116.573903 
L 244.480306 117.249193 
L 249.600759 117.731282 
L 254.721212 118.014651 
L 259.841665 118.09378 
L 264.962118 117.96315 
L 267.010299 117.850929 
L 267.010299 117.850929 
" style="fill:none;stroke:#ff3333;stroke-dasharray:5.55,2.4;stroke-dashoffset:0;stroke-width:1.5;"/>
   </g>
   <g id="line2d_2">
    <path clip-path="url(#p60fe2fa824)" d="M 63.216275 129.015962 
L 67.312638 128.48052 
L 71.409 127.746031 
L 75.505362 126.821784 
L 80.625815 125.413779 
L 85.746268 123.741937 
L 90.866721 121.8244 
L 95.987173 119.679312 
L 102.131717 116.830386 
L 108.27626 113.711266 
L 114.420804 110.353304 
L 121.589438 106.175639 
L 129.782162 101.119214 
L 138.998977 95.160081 
L 152.312155 86.254078 
L 172.793966 72.534584 
L 182.010781 66.618901 
L 190.203506 61.616732 
L 197.37214 57.498609 
L 203.516683 54.20065 
L 209.661227 51.149808 
L 215.80577 48.377437 
L 220.926223 46.302467 
L 226.046676 44.460795 
L 231.167129 42.870566 
L 236.287582 41.549922 
L 240.383944 40.6997 
L 244.480306 40.042915 
L 248.576669 39.588856 
L 252.673031 39.346813 
L 256.769393 39.326074 
L 260.865755 39.53593 
L 264.962118 39.98567 
L 267.010299 40.303399 
L 267.010299 40.303399 
" style="fill:none;stroke:#9933ff;stroke-dasharray:5.55,2.4;stroke-dashoffset:0;stroke-width:1.5;"/>
   </g>
   <g id="line2d_3">
    <path clip-path="url(#p60fe2fa824)" d="M 63.216275 130.165957 
L 68.336728 126.868156 
L 73.457181 123.884802 
L 78.577634 121.203121 
L 83.698087 118.810341 
L 88.81854 116.693687 
L 93.938992 114.840387 
L 99.059445 113.237665 
L 104.179898 111.872749 
L 109.300351 110.732865 
L 114.420804 109.80524 
L 119.541257 109.077099 
L 125.6858 108.448664 
L 131.830343 108.067021 
L 137.974887 107.910096 
L 144.11943 107.955817 
L 151.288064 108.235832 
L 158.456698 108.726576 
L 166.649423 109.500498 
L 176.890329 110.710866 
L 190.203506 112.530075 
L 213.757589 115.780458 
L 223.998495 116.947798 
L 232.191219 117.673827 
L 239.359853 118.112842 
L 246.528487 118.331962 
L 252.673031 118.318191 
L 258.817574 118.095039 
L 264.962118 117.640434 
L 267.010299 117.43365 
L 267.010299 117.43365 
" style="fill:none;stroke:#808080;stroke-dasharray:5.55,2.4;stroke-dashoffset:0;stroke-width:1.5;"/>
   </g>
   <g id="matplotlib.axis_1">
    <g id="xtick_1">
     <g id="line2d_4">
      <defs>
       <path d="M 0 0 
L 0 3.5 
" id="m65681a8f7d" style="stroke:#000000;stroke-width:0.8;"/>
      </defs>
      <g>
       <use style="stroke:#000000;stroke-width:0.8;" x="63.216275" xlink:href="#m65681a8f7d" y="135.850051"/>
      </g>
     </g>
     <g id="text_1">
      <!-- $0$ -->
      <defs>
       <path d="M 27.5 71 
C 20.90625 71 14.90625 68.09375 11.203125 63.1875 
C 6.59375 57.015625 4.296875 47.546875 4.296875 34.484375 
C 4.296875 10.671875 12.296875 -2 27.5 -2 
C 42.5 -2 50.703125 10.671875 50.703125 33.890625 
C 50.703125 47.640625 48.5 56.8125 43.796875 63.1875 
C 40.09375 68.1875 34.203125 71 27.5 71 
z
M 27.5 63.1875 
C 37 63.1875 41.703125 53.625 41.703125 34.6875 
C 41.703125 14.65625 37.09375 5.296875 27.296875 5.296875 
C 18 5.296875 13.296875 15.0625 13.296875 34.390625 
C 13.296875 53.71875 18 63.1875 27.5 63.1875 
z
" id="Nimbus_Sans_L_Regular-48"/>
      </defs>
      <g transform="translate(59.892778 151.368035)scale(0.12 -0.12)">
       <use transform="scale(0.996264)" xlink:href="#Nimbus_Sans_L_Regular-48"/>
      </g>
     </g>
    </g>
    <g id="xtick_2">
     <g id="line2d_5">
      <g>
       <use style="stroke:#000000;stroke-width:0.8;" x="111.16781" xlink:href="#m65681a8f7d" y="135.850051"/>
      </g>
     </g>
     <g id="text_2">
      <!-- $20$ -->
      <defs>
       <path d="M 50.59375 8.6875 
L 13.296875 8.6875 
C 14.203125 14.5 17.40625 18.203125 26.09375 23.328125 
L 36.09375 28.734375 
C 46 34.140625 51.09375 41.453125 51.09375 50.171875 
C 51.09375 56.078125 48.703125 61.59375 44.5 65.390625 
C 40.296875 69.1875 35.09375 71 28.40625 71 
C 19.40625 71 12.703125 67.796875 8.796875 61.796875 
C 6.296875 57.984375 5.203125 53.578125 5 46.359375 
L 13.796875 46.359375 
C 14.09375 51.171875 14.703125 54.078125 15.90625 56.375 
C 18.203125 60.6875 22.796875 63.296875 28.09375 63.296875 
C 36.09375 63.296875 42.09375 57.578125 42.09375 49.96875 
C 42.09375 44.359375 38.796875 39.546875 32.5 35.9375 
L 23.296875 30.734375 
C 8.5 22.3125 4.203125 15.609375 3.40625 0 
L 50.59375 0 
z
" id="Nimbus_Sans_L_Regular-50"/>
      </defs>
      <g transform="translate(104.520816 151.368035)scale(0.12 -0.12)">
       <use transform="scale(0.996264)" xlink:href="#Nimbus_Sans_L_Regular-50"/>
       <use transform="translate(55.391677 0)scale(0.996264)" xlink:href="#Nimbus_Sans_L_Regular-48"/>
      </g>
     </g>
    </g>
    <g id="xtick_3">
     <g id="line2d_6">
      <g>
       <use style="stroke:#000000;stroke-width:0.8;" x="159.119345" xlink:href="#m65681a8f7d" y="135.850051"/>
      </g>
     </g>
     <g id="text_3">
      <!-- $40$ -->
      <defs>
       <path d="M 32.703125 17 
L 32.703125 0 
L 41.5 0 
L 41.5 17 
L 52 17 
L 52 24.890625 
L 41.5 24.890625 
L 41.5 70.890625 
L 35 70.890625 
L 2.796875 26.296875 
L 2.796875 17 
z
M 32.703125 24.890625 
L 10.5 24.890625 
L 32.703125 55.890625 
z
" id="Nimbus_Sans_L_Regular-52"/>
      </defs>
      <g transform="translate(152.472351 151.368035)scale(0.12 -0.12)">
       <use transform="scale(0.996264)" xlink:href="#Nimbus_Sans_L_Regular-52"/>
       <use transform="translate(55.391677 0)scale(0.996264)" xlink:href="#Nimbus_Sans_L_Regular-48"/>
      </g>
     </g>
    </g>
    <g id="xtick_4">
     <g id="line2d_7">
      <g>
       <use style="stroke:#000000;stroke-width:0.8;" x="207.07088" xlink:href="#m65681a8f7d" y="135.850051"/>
      </g>
     </g>
     <g id="text_4">
      <!-- $60$ -->
      <defs>
       <path d="M 49.796875 52.375 
C 48.09375 64.09375 40.5 71 29.703125 71 
C 21.90625 71 14.90625 67.1875 10.703125 60.859375 
C 6.296875 53.890625 4.296875 45.109375 4.296875 32.25 
C 4.296875 20.5 6.09375 13 10.296875 6.78125 
C 14.09375 1.09375 20.296875 -2 28.09375 -2 
C 41.59375 -2 51.296875 7.96875 51.296875 21.6875 
C 51.296875 34.703125 42.296875 44 29.59375 44 
C 22.59375 44 17.09375 41.296875 13.296875 36.09375 
C 13.40625 53.484375 19 63.1875 29.09375 63.1875 
C 35.296875 63.1875 39.59375 59.25 41 52.375 
z
M 28.5 36.1875 
C 37 36.1875 42.296875 30.375 42.296875 20.984375 
C 42.296875 12.203125 36.296875 5.796875 28.203125 5.796875 
C 20 5.796875 13.796875 12.5 13.796875 21.484375 
C 13.796875 30.171875 19.796875 36.1875 28.5 36.1875 
z
" id="Nimbus_Sans_L_Regular-54"/>
      </defs>
      <g transform="translate(200.423886 151.368035)scale(0.12 -0.12)">
       <use transform="scale(0.996264)" xlink:href="#Nimbus_Sans_L_Regular-54"/>
       <use transform="translate(55.391677 0)scale(0.996264)" xlink:href="#Nimbus_Sans_L_Regular-48"/>
      </g>
     </g>
    </g>
    <g id="xtick_5">
     <g id="line2d_8">
      <g>
       <use style="stroke:#000000;stroke-width:0.8;" x="255.022415" xlink:href="#m65681a8f7d" y="135.850051"/>
      </g>
     </g>
     <g id="text_5">
      <!-- $80$ -->
      <defs>
       <path d="M 39.09375 37.484375 
C 46.40625 41.890625 48.796875 45.46875 48.796875 52.140625 
C 48.796875 63.1875 40.09375 71 27.5 71 
C 15 71 6.203125 63.1875 6.203125 52.140625 
C 6.203125 45.578125 8.59375 41.984375 15.796875 37.484375 
C 7.703125 33.59375 3.703125 27.71875 3.703125 19.9375 
C 3.703125 6.984375 13.5 -2 27.5 -2 
C 41.5 -2 51.296875 6.984375 51.296875 19.84375 
C 51.296875 27.71875 47.296875 33.59375 39.09375 37.484375 
z
M 27.5 63.1875 
C 35 63.1875 39.796875 58.8125 39.796875 51.9375 
C 39.796875 45.375 34.90625 41 27.5 41 
C 20.09375 41 15.203125 45.375 15.203125 52.046875 
C 15.203125 58.8125 20.09375 63.1875 27.5 63.1875 
z
M 27.5 33.59375 
C 36.296875 33.59375 42.296875 28.015625 42.296875 19.75 
C 42.296875 11.375 36.296875 5.796875 27.296875 5.796875 
C 18.703125 5.796875 12.703125 11.46875 12.703125 19.75 
C 12.703125 28.015625 18.703125 33.59375 27.5 33.59375 
z
" id="Nimbus_Sans_L_Regular-56"/>
      </defs>
      <g transform="translate(248.375421 151.368035)scale(0.12 -0.12)">
       <use transform="scale(0.996264)" xlink:href="#Nimbus_Sans_L_Regular-56"/>
       <use transform="translate(55.391677 0)scale(0.996264)" xlink:href="#Nimbus_Sans_L_Regular-48"/>
      </g>
     </g>
    </g>
    <g id="xtick_6">
     <g id="line2d_9">
      <defs>
       <path d="M 0 0 
L 0 2 
" id="me69c35182b" style="stroke:#000000;stroke-width:0.6;"/>
      </defs>
      <g>
       <use style="stroke:#000000;stroke-width:0.6;" x="75.204159" xlink:href="#me69c35182b" y="135.850051"/>
      </g>
     </g>
    </g>
    <g id="xtick_7">
     <g id="line2d_10">
      <g>
       <use style="stroke:#000000;stroke-width:0.6;" x="87.192043" xlink:href="#me69c35182b" y="135.850051"/>
      </g>
     </g>
    </g>
    <g id="xtick_8">
     <g id="line2d_11">
      <g>
       <use style="stroke:#000000;stroke-width:0.6;" x="99.179926" xlink:href="#me69c35182b" y="135.850051"/>
      </g>
     </g>
    </g>
    <g id="xtick_9">
     <g id="line2d_12">
      <g>
       <use style="stroke:#000000;stroke-width:0.6;" x="123.155694" xlink:href="#me69c35182b" y="135.850051"/>
      </g>
     </g>
    </g>
    <g id="xtick_10">
     <g id="line2d_13">
      <g>
       <use style="stroke:#000000;stroke-width:0.6;" x="135.143578" xlink:href="#me69c35182b" y="135.850051"/>
      </g>
     </g>
    </g>
    <g id="xtick_11">
     <g id="line2d_14">
      <g>
       <use style="stroke:#000000;stroke-width:0.6;" x="147.131461" xlink:href="#me69c35182b" y="135.850051"/>
      </g>
     </g>
    </g>
    <g id="xtick_12">
     <g id="line2d_15">
      <g>
       <use style="stroke:#000000;stroke-width:0.6;" x="171.107229" xlink:href="#me69c35182b" y="135.850051"/>
      </g>
     </g>
    </g>
    <g id="xtick_13">
     <g id="line2d_16">
      <g>
       <use style="stroke:#000000;stroke-width:0.6;" x="183.095113" xlink:href="#me69c35182b" y="135.850051"/>
      </g>
     </g>
    </g>
    <g id="xtick_14">
     <g id="line2d_17">
      <g>
       <use style="stroke:#000000;stroke-width:0.6;" x="195.082996" xlink:href="#me69c35182b" y="135.850051"/>
      </g>
     </g>
    </g>
    <g id="xtick_15">
     <g id="line2d_18">
      <g>
       <use style="stroke:#000000;stroke-width:0.6;" x="219.058764" xlink:href="#me69c35182b" y="135.850051"/>
      </g>
     </g>
    </g>
    <g id="xtick_16">
     <g id="line2d_19">
      <g>
       <use style="stroke:#000000;stroke-width:0.6;" x="231.046648" xlink:href="#me69c35182b" y="135.850051"/>
      </g>
     </g>
    </g>
    <g id="xtick_17">
     <g id="line2d_20">
      <g>
       <use style="stroke:#000000;stroke-width:0.6;" x="243.034531" xlink:href="#me69c35182b" y="135.850051"/>
      </g>
     </g>
    </g>
    <g id="xtick_18">
     <g id="line2d_21">
      <g>
       <use style="stroke:#000000;stroke-width:0.6;" x="267.010299" xlink:href="#me69c35182b" y="135.850051"/>
      </g>
     </g>
    </g>
    <g id="text_6">
     <!-- Time (min) -->
     <defs>
      <path d="M 35.40625 64.796875 
L 59.296875 64.796875 
L 59.296875 73 
L 2.09375 73 
L 2.09375 64.796875 
L 26.09375 64.796875 
L 26.09375 0 
L 35.40625 0 
z
" id="Nimbus_Sans_L_Regular-84"/>
      <path d="M 15 52.46875 
L 6.703125 52.46875 
L 6.703125 0 
L 15 0 
z
M 15 73 
L 6.59375 73 
L 6.59375 62.484375 
L 15 62.484375 
z
" id="Nimbus_Sans_L_Regular-105"/>
      <path d="M 7 52 
L 7 0 
L 15.40625 0 
L 15.40625 32.640625 
C 15.40625 40.578125 20.90625 46.6875 27.703125 46.6875 
C 33.90625 46.6875 37.40625 42.875 37.40625 36.171875 
L 37.40625 0 
L 45.796875 0 
L 45.796875 32.953125 
C 45.796875 40.578125 51.296875 46.6875 58.09375 46.6875 
C 64.203125 46.6875 67.796875 42.78125 67.796875 36.171875 
L 67.796875 0 
L 76.203125 0 
L 76.203125 39.375 
C 76.203125 48.796875 70.796875 54 61 54 
C 54 54 49.796875 51.890625 44.90625 45.984375 
C 41.796875 51.59375 37.59375 54 30.796875 54 
C 23.796875 54 19.203125 51.390625 14.703125 45.09375 
L 14.703125 52 
z
" id="Nimbus_Sans_L_Regular-109"/>
      <path d="M 51.296875 23.1875 
C 51.296875 31.21875 50.703125 36.109375 49.203125 40.078125 
C 45.796875 48.796875 37.796875 54 28 54 
C 13.40625 54 4 42.71875 4 25.296875 
C 4 8.515625 13.09375 -2 27.796875 -2 
C 39.796875 -2 48.09375 4.796875 50.203125 15.90625 
L 41.796875 15.90625 
C 39.5 9.1875 34.796875 5.6875 28.09375 5.6875 
C 22.796875 5.6875 18.296875 8.03125 15.5 12.296875 
C 13.5 15.21875 12.796875 18.140625 12.703125 23.1875 
z
M 12.90625 30 
C 13.59375 39.875 19.5 46.296875 27.90625 46.296875 
C 36.09375 46.296875 42.40625 39.359375 42.40625 30.609375 
C 42.40625 30.40625 42.40625 30.203125 42.296875 30 
z
" id="Nimbus_Sans_L_Regular-101"/>
      <path d="M 23.59375 73 
C 13.59375 59.890625 7.296875 41.6875 7.296875 25.984375 
C 7.296875 10.1875 13.59375 -8.015625 23.59375 -21.109375 
L 29.09375 -21.109375 
C 20.296875 -6.8125 15.40625 9.984375 15.40625 25.984375 
C 15.40625 41.890625 20.296875 58.796875 29.09375 73 
z
" id="Nimbus_Sans_L_Regular-40"/>
      <path d="M 7 52 
L 7 0 
L 15.40625 0 
L 15.40625 28.671875 
C 15.40625 39.671875 21 46.6875 29.59375 46.6875 
C 36.203125 46.6875 40.40625 42.6875 40.40625 36.375 
L 40.40625 0 
L 48.703125 0 
L 48.703125 39.671875 
C 48.703125 48.390625 42.203125 54 32.09375 54 
C 24.296875 54 19.296875 50.984375 14.703125 43.6875 
L 14.703125 52 
z
" id="Nimbus_Sans_L_Regular-110"/>
      <path d="M 9.296875 -21.109375 
C 19.296875 -8.015625 25.59375 10.1875 25.59375 25.890625 
C 25.59375 41.6875 19.296875 59.890625 9.296875 73 
L 3.796875 73 
C 12.59375 58.6875 17.5 41.890625 17.5 25.890625 
C 17.5 9.984375 12.59375 -6.90625 3.796875 -21.109375 
z
" id="Nimbus_Sans_L_Regular-41"/>
     </defs>
     <g transform="translate(136.558647 166.653625)scale(0.12 -0.12)">
      <use transform="scale(0.996264)" xlink:href="#Nimbus_Sans_L_Regular-84"/>
      <use transform="translate(60.871631 0)scale(0.996264)" xlink:href="#Nimbus_Sans_L_Regular-105"/>
      <use transform="translate(82.988415 0)scale(0.996264)" xlink:href="#Nimbus_Sans_L_Regular-109"/>
      <use transform="translate(165.976845 0)scale(0.996264)" xlink:href="#Nimbus_Sans_L_Regular-101"/>
      <use transform="translate(249.063692 0)scale(0.996264)" xlink:href="#Nimbus_Sans_L_Regular-40"/>
      <use transform="translate(282.238922 0)scale(0.996264)" xlink:href="#Nimbus_Sans_L_Regular-109"/>
      <use transform="translate(365.227352 0)scale(0.996264)" xlink:href="#Nimbus_Sans_L_Regular-105"/>
      <use transform="translate(387.344136 0)scale(0.996264)" xlink:href="#Nimbus_Sans_L_Regular-110"/>
      <use transform="translate(442.735813 0)scale(0.996264)" xlink:href="#Nimbus_Sans_L_Regular-41"/>
     </g>
    </g>
   </g>
   <g id="matplotlib.axis_2">
    <g id="ytick_1">
     <g id="line2d_22">
      <defs>
       <path d="M 0 0 
L -3.5 0 
" id="me56636f8bb" style="stroke:#000000;stroke-width:0.8;"/>
      </defs>
      <g>
       <use style="stroke:#000000;stroke-width:0.8;" x="53.026574" xlink:href="#me56636f8bb" y="129.044321"/>
      </g>
     </g>
     <g id="text_7">
      <!-- $0$ -->
      <g transform="translate(39.37958 133.303313)scale(0.12 -0.12)">
       <use transform="scale(0.996264)" xlink:href="#Nimbus_Sans_L_Regular-48"/>
      </g>
     </g>
    </g>
    <g id="ytick_2">
     <g id="line2d_23">
      <g>
       <use style="stroke:#000000;stroke-width:0.8;" x="53.026574" xlink:href="#me56636f8bb" y="106.732255"/>
      </g>
     </g>
     <g id="text_8">
      <!-- $20$ -->
      <g transform="translate(32.732585 110.991247)scale(0.12 -0.12)">
       <use transform="scale(0.996264)" xlink:href="#Nimbus_Sans_L_Regular-50"/>
       <use transform="translate(55.391677 0)scale(0.996264)" xlink:href="#Nimbus_Sans_L_Regular-48"/>
      </g>
     </g>
    </g>
    <g id="ytick_3">
     <g id="line2d_24">
      <g>
       <use style="stroke:#000000;stroke-width:0.8;" x="53.026574" xlink:href="#me56636f8bb" y="84.42019"/>
      </g>
     </g>
     <g id="text_9">
      <!-- $40$ -->
      <g transform="translate(32.732585 88.679182)scale(0.12 -0.12)">
       <use transform="scale(0.996264)" xlink:href="#Nimbus_Sans_L_Regular-52"/>
       <use transform="translate(55.391677 0)scale(0.996264)" xlink:href="#Nimbus_Sans_L_Regular-48"/>
      </g>
     </g>
    </g>
    <g id="ytick_4">
     <g id="line2d_25">
      <g>
       <use style="stroke:#000000;stroke-width:0.8;" x="53.026574" xlink:href="#me56636f8bb" y="62.108124"/>
      </g>
     </g>
     <g id="text_10">
      <!-- $60$ -->
      <g transform="translate(32.732585 66.367116)scale(0.12 -0.12)">
       <use transform="scale(0.996264)" xlink:href="#Nimbus_Sans_L_Regular-54"/>
       <use transform="translate(55.391677 0)scale(0.996264)" xlink:href="#Nimbus_Sans_L_Regular-48"/>
      </g>
     </g>
    </g>
    <g id="ytick_5">
     <g id="line2d_26">
      <g>
       <use style="stroke:#000000;stroke-width:0.8;" x="53.026574" xlink:href="#me56636f8bb" y="39.796058"/>
      </g>
     </g>
     <g id="text_11">
      <!-- $80$ -->
      <g transform="translate(32.732585 44.055051)scale(0.12 -0.12)">
       <use transform="scale(0.996264)" xlink:href="#Nimbus_Sans_L_Regular-56"/>
       <use transform="translate(55.391677 0)scale(0.996264)" xlink:href="#Nimbus_Sans_L_Regular-48"/>
      </g>
     </g>
    </g>
    <g id="ytick_6">
     <g id="line2d_27">
      <g>
       <use style="stroke:#000000;stroke-width:0.8;" x="53.026574" xlink:href="#me56636f8bb" y="17.483993"/>
      </g>
     </g>
     <g id="text_12">
      <!-- $100$ -->
      <defs>
       <path d="M 25.90625 50.5 
L 25.90625 0 
L 34.703125 0 
L 34.703125 70.890625 
L 28.90625 70.890625 
C 25.796875 60 23.796875 58.5 10.203125 56.796875 
L 10.203125 50.5 
z
" id="Nimbus_Sans_L_Regular-49"/>
      </defs>
      <g transform="translate(26.08559 21.742985)scale(0.12 -0.12)">
       <use transform="scale(0.996264)" xlink:href="#Nimbus_Sans_L_Regular-49"/>
       <use transform="translate(55.391677 0)scale(0.996264)" xlink:href="#Nimbus_Sans_L_Regular-48"/>
       <use transform="translate(110.783354 0)scale(0.996264)" xlink:href="#Nimbus_Sans_L_Regular-48"/>
      </g>
     </g>
    </g>
    <g id="ytick_7">
     <g id="line2d_28">
      <defs>
       <path d="M 0 0 
L -2 0 
" id="m58611f9b87" style="stroke:#000000;stroke-width:0.6;"/>
      </defs>
      <g>
       <use style="stroke:#000000;stroke-width:0.6;" x="53.026574" xlink:href="#m58611f9b87" y="134.622337"/>
      </g>
     </g>
    </g>
    <g id="ytick_8">
     <g id="line2d_29">
      <g>
       <use style="stroke:#000000;stroke-width:0.6;" x="53.026574" xlink:href="#m58611f9b87" y="123.466304"/>
      </g>
     </g>
    </g>
    <g id="ytick_9">
     <g id="line2d_30">
      <g>
       <use style="stroke:#000000;stroke-width:0.6;" x="53.026574" xlink:href="#m58611f9b87" y="117.888288"/>
      </g>
     </g>
    </g>
    <g id="ytick_10">
     <g id="line2d_31">
      <g>
       <use style="stroke:#000000;stroke-width:0.6;" x="53.026574" xlink:href="#m58611f9b87" y="112.310272"/>
      </g>
     </g>
    </g>
    <g id="ytick_11">
     <g id="line2d_32">
      <g>
       <use style="stroke:#000000;stroke-width:0.6;" x="53.026574" xlink:href="#m58611f9b87" y="101.154239"/>
      </g>
     </g>
    </g>
    <g id="ytick_12">
     <g id="line2d_33">
      <g>
       <use style="stroke:#000000;stroke-width:0.6;" x="53.026574" xlink:href="#m58611f9b87" y="95.576222"/>
      </g>
     </g>
    </g>
    <g id="ytick_13">
     <g id="line2d_34">
      <g>
       <use style="stroke:#000000;stroke-width:0.6;" x="53.026574" xlink:href="#m58611f9b87" y="89.998206"/>
      </g>
     </g>
    </g>
    <g id="ytick_14">
     <g id="line2d_35">
      <g>
       <use style="stroke:#000000;stroke-width:0.6;" x="53.026574" xlink:href="#m58611f9b87" y="78.842173"/>
      </g>
     </g>
    </g>
    <g id="ytick_15">
     <g id="line2d_36">
      <g>
       <use style="stroke:#000000;stroke-width:0.6;" x="53.026574" xlink:href="#m58611f9b87" y="73.264157"/>
      </g>
     </g>
    </g>
    <g id="ytick_16">
     <g id="line2d_37">
      <g>
       <use style="stroke:#000000;stroke-width:0.6;" x="53.026574" xlink:href="#m58611f9b87" y="67.68614"/>
      </g>
     </g>
    </g>
    <g id="ytick_17">
     <g id="line2d_38">
      <g>
       <use style="stroke:#000000;stroke-width:0.6;" x="53.026574" xlink:href="#m58611f9b87" y="56.530108"/>
      </g>
     </g>
    </g>
    <g id="ytick_18">
     <g id="line2d_39">
      <g>
       <use style="stroke:#000000;stroke-width:0.6;" x="53.026574" xlink:href="#m58611f9b87" y="50.952091"/>
      </g>
     </g>
    </g>
    <g id="ytick_19">
     <g id="line2d_40">
      <g>
       <use style="stroke:#000000;stroke-width:0.6;" x="53.026574" xlink:href="#m58611f9b87" y="45.374075"/>
      </g>
     </g>
    </g>
    <g id="ytick_20">
     <g id="line2d_41">
      <g>
       <use style="stroke:#000000;stroke-width:0.6;" x="53.026574" xlink:href="#m58611f9b87" y="34.218042"/>
      </g>
     </g>
    </g>
    <g id="ytick_21">
     <g id="line2d_42">
      <g>
       <use style="stroke:#000000;stroke-width:0.6;" x="53.026574" xlink:href="#m58611f9b87" y="28.640026"/>
      </g>
     </g>
    </g>
    <g id="ytick_22">
     <g id="line2d_43">
      <g>
       <use style="stroke:#000000;stroke-width:0.6;" x="53.026574" xlink:href="#m58611f9b87" y="23.062009"/>
      </g>
     </g>
    </g>
    <g id="ytick_23">
     <g id="line2d_44">
      <g>
       <use style="stroke:#000000;stroke-width:0.6;" x="53.026574" xlink:href="#m58611f9b87" y="11.905976"/>
      </g>
     </g>
    </g>
    <g id="text_13">
     <!-- rel. abundance (\%) -->
     <defs>
      <path d="M 6.90625 52 
L 6.90625 0 
L 15.296875 0 
L 15.296875 26.984375 
C 15.296875 34.421875 17.203125 39.28125 21.203125 42.15625 
C 23.796875 44.046875 26.296875 44.640625 32.09375 44.734375 
L 32.09375 53.1875 
C 30.703125 53.890625 30 54 28.90625 54 
C 23.5 54 19.40625 50.796875 14.59375 42.96875 
L 14.59375 52 
z
" id="Nimbus_Sans_L_Regular-114"/>
      <path d="M 15.203125 73 
L 6.796875 73 
L 6.796875 0 
L 15.203125 0 
z
" id="Nimbus_Sans_L_Regular-108"/>
      <path d="M 19.09375 10.390625 
L 8.703125 10.390625 
L 8.703125 0 
L 19.09375 0 
z
" id="Nimbus_Sans_L_Regular-46"/>
      <path d="M 53.5 5.1875 
C 52.59375 5 52.203125 5 51.703125 5 
C 48.796875 5 47.203125 6.484375 47.203125 9.078125 
L 47.203125 39.71875 
C 47.203125 48.984375 40.40625 54 27.5 54 
C 19.90625 54 13.59375 51.796875 10.09375 47.890625 
C 7.703125 45.203125 6.703125 42.21875 6.5 37.03125 
L 14.90625 37.03125 
C 15.59375 43.40625 19.40625 46.296875 27.203125 46.296875 
C 34.703125 46.296875 38.90625 43.5 38.90625 38.53125 
L 38.90625 36.34375 
C 38.90625 32.859375 36.796875 31.359375 30.203125 30.5625 
C 18.40625 29.078125 16.59375 28.671875 13.40625 27.390625 
C 7.296875 24.890625 4.203125 20.21875 4.203125 13.453125 
C 4.203125 4 10.796875 -2 21.40625 -2 
C 28 -2 33.296875 0.296875 39.203125 5.6875 
C 39.796875 0.390625 42.40625 -2 47.796875 -2 
C 49.5 -2 50.796875 -1.8125 53.5 -1.109375 
z
M 38.90625 16.734375 
C 38.90625 13.953125 38.09375 12.265625 35.59375 9.96875 
C 32.203125 6.890625 28.09375 5.296875 23.203125 5.296875 
C 16.703125 5.296875 12.90625 8.375 12.90625 13.65625 
C 12.90625 19.125 16.59375 21.90625 25.5 23.203125 
C 34.296875 24.40625 36.09375 24.796875 38.90625 26.09375 
z
" id="Nimbus_Sans_L_Regular-97"/>
      <path d="M 5.40625 73 
L 5.40625 0.296875 
L 12.90625 0.296875 
L 12.90625 6.984375 
C 16.90625 0.890625 22.203125 -2 29.5 -2 
C 43.296875 -2 52.296875 9.28125 52.296875 26.59375 
C 52.296875 43.5 43.703125 54 29.90625 54 
C 22.703125 54 17.59375 51.296875 13.703125 45.390625 
L 13.703125 73 
z
M 28.296875 46.1875 
C 37.59375 46.1875 43.59375 38.125 43.59375 25.6875 
C 43.59375 13.859375 37.40625 5.796875 28.296875 5.796875 
C 19.5 5.796875 13.703125 13.75 13.703125 25.984375 
C 13.703125 38.234375 19.5 46.1875 28.296875 46.1875 
z
" id="Nimbus_Sans_L_Regular-98"/>
      <path d="M 48.203125 0.296875 
L 48.203125 52 
L 39.90625 52 
L 39.90625 22.71875 
C 39.90625 12.1875 34.296875 5.296875 25.59375 5.296875 
C 19 5.296875 14.796875 9.234375 14.796875 15.4375 
L 14.796875 52 
L 6.5 52 
L 6.5 12.1875 
C 6.5 3.59375 13 -2 23.203125 -2 
C 30.90625 -2 35.796875 0.6875 40.703125 7.5625 
L 40.703125 0.296875 
z
" id="Nimbus_Sans_L_Regular-117"/>
      <path d="M 49.5 73 
L 41.203125 73 
L 41.203125 45.890625 
C 37.703125 51.1875 32.09375 54 25.09375 54 
C 11.5 54 2.59375 43.109375 2.59375 26.484375 
C 2.59375 8.875 11.296875 -2 25.40625 -2 
C 32.59375 -2 37.59375 0.6875 42.09375 7.1875 
L 42.09375 0.296875 
L 49.5 0.296875 
z
M 26.5 46.1875 
C 35.5 46.1875 41.203125 38.234375 41.203125 25.796875 
C 41.203125 13.75 35.40625 5.796875 26.59375 5.796875 
C 17.40625 5.796875 11.296875 13.859375 11.296875 25.984375 
C 11.296875 38.125 17.40625 46.1875 26.5 46.1875 
z
" id="Nimbus_Sans_L_Regular-100"/>
      <path d="M 47.09375 34.953125 
C 46.703125 40.015625 45.59375 43.296875 43.59375 46.1875 
C 40 51.09375 33.703125 54 26.40625 54 
C 12.296875 54 3.09375 42.8125 3.09375 25.5 
C 3.09375 8.671875 12.09375 -2 26.296875 -2 
C 38.796875 -2 46.703125 5.5 47.703125 18.234375 
L 39.296875 18.234375 
C 37.90625 9.875 33.59375 5.6875 26.5 5.6875 
C 17.296875 5.6875 11.796875 13.15625 11.796875 25.5 
C 11.796875 38.53125 17.203125 46.296875 26.296875 46.296875 
C 33.296875 46.296875 37.703125 42.203125 38.703125 34.953125 
z
" id="Nimbus_Sans_L_Regular-99"/>
      <path d="M 19.90625 69 
C 10.59375 69 2.90625 61.296875 2.90625 52 
C 2.90625 42.6875 10.59375 34.984375 20 34.984375 
C 29.296875 34.984375 37 42.6875 37 51.796875 
C 37 61.40625 29.5 69 19.90625 69 
z
M 19.90625 61.984375 
C 25.59375 61.984375 30.09375 57.53125 30.09375 51.890625 
C 30.09375 46.453125 25.5 42 20 42 
C 14.40625 42 9.796875 46.546875 9.796875 52 
C 9.796875 57.53125 14.40625 61.984375 19.90625 61.984375 
z
M 60.90625 71.390625 
L 21.40625 -2.109375 
L 28 -2.109375 
L 67.5 71.390625 
z
M 68.796875 32 
C 59.5 32 51.796875 24.296875 51.796875 15.046875 
C 51.796875 5.6875 59.5 -2 68.90625 -2 
C 78.09375 -2 85.90625 5.6875 85.90625 14.84375 
C 85.90625 24.390625 78.40625 32 68.796875 32 
z
M 68.796875 25 
C 74.5 25 79 20.515625 79 14.84375 
C 79 9.46875 74.40625 5 68.90625 5 
C 63.296875 5 58.703125 9.46875 58.703125 15.046875 
C 58.703125 20.515625 63.296875 25 68.796875 25 
z
" id="Nimbus_Sans_L_Regular-37"/>
     </defs>
     <g transform="translate(19.539216 124.097907)rotate(-90)scale(0.12 -0.12)">
      <use transform="scale(0.996264)" xlink:href="#Nimbus_Sans_L_Regular-114"/>
      <use transform="translate(33.17523 0)scale(0.996264)" xlink:href="#Nimbus_Sans_L_Regular-101"/>
      <use transform="translate(88.566907 0)scale(0.996264)" xlink:href="#Nimbus_Sans_L_Regular-108"/>
      <use transform="translate(110.683691 0)scale(0.996264)" xlink:href="#Nimbus_Sans_L_Regular-46"/>
      <use transform="translate(172.648512 0)scale(0.996264)" xlink:href="#Nimbus_Sans_L_Regular-97"/>
      <use transform="translate(228.040189 0)scale(0.996264)" xlink:href="#Nimbus_Sans_L_Regular-98"/>
      <use transform="translate(281.439855 0)scale(0.996264)" xlink:href="#Nimbus_Sans_L_Regular-117"/>
      <use transform="translate(336.831532 0)scale(0.996264)" xlink:href="#Nimbus_Sans_L_Regular-110"/>
      <use transform="translate(392.223209 0)scale(0.996264)" xlink:href="#Nimbus_Sans_L_Regular-100"/>
      <use transform="translate(447.614886 0)scale(0.996264)" xlink:href="#Nimbus_Sans_L_Regular-97"/>
      <use transform="translate(503.006563 0)scale(0.996264)" xlink:href="#Nimbus_Sans_L_Regular-110"/>
      <use transform="translate(558.39824 0)scale(0.996264)" xlink:href="#Nimbus_Sans_L_Regular-99"/>
      <use transform="translate(608.21144 0)scale(0.996264)" xlink:href="#Nimbus_Sans_L_Regular-101"/>
      <use transform="translate(691.298287 0)scale(0.996264)" xlink:href="#Nimbus_Sans_L_Regular-40"/>
      <use transform="translate(724.473517 0)scale(0.996264)" xlink:href="#Nimbus_Sans_L_Regular-37"/>
      <use transform="translate(813.040423 0)scale(0.996264)" xlink:href="#Nimbus_Sans_L_Regular-41"/>
     </g>
    </g>
   </g>
   <g id="patch_3">
    <path d="M 53.026574 135.850051 
L 53.026574 10.8 
" style="fill:none;stroke:#000000;stroke-linecap:square;stroke-linejoin:miter;stroke-width:0.8;"/>
   </g>
   <g id="patch_4">
    <path d="M 53.026574 135.850051 
L 277.2 135.850051 
" style="fill:none;stroke:#000000;stroke-linecap:square;stroke-linejoin:miter;stroke-width:0.8;"/>
   </g>
   <g id="line2d_45">
    <path clip-path="url(#p60fe2fa824)" d="M 75.204159 26.182977 
L 87.192043 31.889796 
L 99.179926 47.107319 
L 111.16781 48.696726 
L 123.155694 60.344576 
L 135.143578 66.668459 
L 147.131461 76.120143 
L 63.216275 17.483993 
" style="fill:none;"/>
    <defs>
     <path d="M 0 2.5 
C 0.663008 2.5 1.29895 2.236584 1.767767 1.767767 
C 2.236584 1.29895 2.5 0.663008 2.5 0 
C 2.5 -0.663008 2.236584 -1.29895 1.767767 -1.767767 
C 1.29895 -2.236584 0.663008 -2.5 0 -2.5 
C -0.663008 -2.5 -1.29895 -2.236584 -1.767767 -1.767767 
C -2.236584 -1.29895 -2.5 -0.663008 -2.5 0 
C -2.5 0.663008 -2.236584 1.29895 -1.767767 1.767767 
C -1.29895 2.236584 -0.663008 2.5 0 2.5 
z
" id="m2577126869" style="stroke:#000000;"/>
    </defs>
    <g clip-path="url(#p60fe2fa824)">
     <use style="fill:#ff3333;stroke:#000000;" x="75.204159" xlink:href="#m2577126869" y="26.182977"/>
     <use style="fill:#ff3333;stroke:#000000;" x="87.192043" xlink:href="#m2577126869" y="31.889796"/>
     <use style="fill:#ff3333;stroke:#000000;" x="99.179926" xlink:href="#m2577126869" y="47.107319"/>
     <use style="fill:#ff3333;stroke:#000000;" x="111.16781" xlink:href="#m2577126869" y="48.696726"/>
     <use style="fill:#ff3333;stroke:#000000;" x="123.155694" xlink:href="#m2577126869" y="60.344576"/>
     <use style="fill:#ff3333;stroke:#000000;" x="135.143578" xlink:href="#m2577126869" y="66.668459"/>
     <use style="fill:#ff3333;stroke:#000000;" x="147.131461" xlink:href="#m2577126869" y="76.120143"/>
     <use style="fill:#ff3333;stroke:#000000;" x="63.216275" xlink:href="#m2577126869" y="17.483993"/>
    </g>
   </g>
   <g id="line2d_46">
    <path clip-path="url(#p60fe2fa824)" d="M 75.204159 27.264648 
L 135.143578 77.930163 
L 171.107229 97.190423 
L 219.058764 108.0715 
L 267.010299 118.924171 
" style="fill:none;"/>
    <defs>
     <path d="M 0 2.5 
C 0.663008 2.5 1.29895 2.236584 1.767767 1.767767 
C 2.236584 1.29895 2.5 0.663008 2.5 0 
C 2.5 -0.663008 2.236584 -1.29895 1.767767 -1.767767 
C 1.29895 -2.236584 0.663008 -2.5 0 -2.5 
C -0.663008 -2.5 -1.29895 -2.236584 -1.767767 -1.767767 
C -2.236584 -1.29895 -2.5 -0.663008 -2.5 0 
C -2.5 0.663008 -2.236584 1.29895 -1.767767 1.767767 
C -1.29895 2.236584 -0.663008 2.5 0 2.5 
z
" id="m108376ed47" style="stroke:#ff3333;"/>
    </defs>
    <g clip-path="url(#p60fe2fa824)">
     <use style="fill:#ffffff;fill-opacity:0.7;stroke:#ff3333;" x="75.204159" xlink:href="#m108376ed47" y="27.264648"/>
     <use style="fill:#ffffff;fill-opacity:0.7;stroke:#ff3333;" x="135.143578" xlink:href="#m108376ed47" y="77.930163"/>
     <use style="fill:#ffffff;fill-opacity:0.7;stroke:#ff3333;" x="171.107229" xlink:href="#m108376ed47" y="97.190423"/>
     <use style="fill:#ffffff;fill-opacity:0.7;stroke:#ff3333;" x="219.058764" xlink:href="#m108376ed47" y="108.0715"/>
     <use style="fill:#ffffff;fill-opacity:0.7;stroke:#ff3333;" x="267.010299" xlink:href="#m108376ed47" y="118.924171"/>
    </g>
   </g>
   <g id="line2d_47">
    <path clip-path="url(#p60fe2fa824)" d="M 75.204159 126.771376 
L 87.192043 124.716056 
L 99.179926 114.54328 
L 111.16781 115.904833 
L 123.155694 107.219883 
L 135.143578 101.999599 
L 147.131461 92.221516 
L 63.216275 129.044321 
" style="fill:none;"/>
    <defs>
     <path d="M 0 2.5 
C 0.663008 2.5 1.29895 2.236584 1.767767 1.767767 
C 2.236584 1.29895 2.5 0.663008 2.5 0 
C 2.5 -0.663008 2.236584 -1.29895 1.767767 -1.767767 
C 1.29895 -2.236584 0.663008 -2.5 0 -2.5 
C -0.663008 -2.5 -1.29895 -2.236584 -1.767767 -1.767767 
C -2.236584 -1.29895 -2.5 -0.663008 -2.5 0 
C -2.5 0.663008 -2.236584 1.29895 -1.767767 1.767767 
C -1.29895 2.236584 -0.663008 2.5 0 2.5 
z
" id="m0b33c03f07" style="stroke:#000000;"/>
    </defs>
    <g clip-path="url(#p60fe2fa824)">
     <use style="fill:#9933ff;stroke:#000000;" x="75.204159" xlink:href="#m0b33c03f07" y="126.771376"/>
     <use style="fill:#9933ff;stroke:#000000;" x="87.192043" xlink:href="#m0b33c03f07" y="124.716056"/>
     <use style="fill:#9933ff;stroke:#000000;" x="99.179926" xlink:href="#m0b33c03f07" y="114.54328"/>
     <use style="fill:#9933ff;stroke:#000000;" x="111.16781" xlink:href="#m0b33c03f07" y="115.904833"/>
     <use style="fill:#9933ff;stroke:#000000;" x="123.155694" xlink:href="#m0b33c03f07" y="107.219883"/>
     <use style="fill:#9933ff;stroke:#000000;" x="135.143578" xlink:href="#m0b33c03f07" y="101.999599"/>
     <use style="fill:#9933ff;stroke:#000000;" x="147.131461" xlink:href="#m0b33c03f07" y="92.221516"/>
     <use style="fill:#9933ff;stroke:#000000;" x="63.216275" xlink:href="#m0b33c03f07" y="129.044321"/>
    </g>
   </g>
   <g id="line2d_48">
    <path clip-path="url(#p60fe2fa824)" d="M 75.204159 124.983786 
L 135.143578 90.189462 
L 171.107229 67.526463 
L 219.058764 50.574443 
L 267.010299 39.442808 
" style="fill:none;"/>
    <defs>
     <path d="M 0 2.5 
C 0.663008 2.5 1.29895 2.236584 1.767767 1.767767 
C 2.236584 1.29895 2.5 0.663008 2.5 0 
C 2.5 -0.663008 2.236584 -1.29895 1.767767 -1.767767 
C 1.29895 -2.236584 0.663008 -2.5 0 -2.5 
C -0.663008 -2.5 -1.29895 -2.236584 -1.767767 -1.767767 
C -2.236584 -1.29895 -2.5 -0.663008 -2.5 0 
C -2.5 0.663008 -2.236584 1.29895 -1.767767 1.767767 
C -1.29895 2.236584 -0.663008 2.5 0 2.5 
z
" id="m48955b9a3d" style="stroke:#9933ff;"/>
    </defs>
    <g clip-path="url(#p60fe2fa824)">
     <use style="fill:#ffffff;fill-opacity:0.7;stroke:#9933ff;" x="75.204159" xlink:href="#m48955b9a3d" y="124.983786"/>
     <use style="fill:#ffffff;fill-opacity:0.7;stroke:#9933ff;" x="135.143578" xlink:href="#m48955b9a3d" y="90.189462"/>
     <use style="fill:#ffffff;fill-opacity:0.7;stroke:#9933ff;" x="171.107229" xlink:href="#m48955b9a3d" y="67.526463"/>
     <use style="fill:#ffffff;fill-opacity:0.7;stroke:#9933ff;" x="219.058764" xlink:href="#m48955b9a3d" y="50.574443"/>
     <use style="fill:#ffffff;fill-opacity:0.7;stroke:#9933ff;" x="267.010299" xlink:href="#m48955b9a3d" y="39.442808"/>
    </g>
   </g>
   <g id="line2d_49">
    <path clip-path="url(#p60fe2fa824)" d="M 75.204159 122.618282 
L 87.192043 118.966782 
L 99.179926 113.922035 
L 111.16781 110.971075 
L 123.155694 108.008175 
L 135.143578 106.904576 
L 147.131461 107.230975 
L 63.216275 129.044321 
" style="fill:none;"/>
    <defs>
     <path d="M 0 2.5 
C 0.663008 2.5 1.29895 2.236584 1.767767 1.767767 
C 2.236584 1.29895 2.5 0.663008 2.5 0 
C 2.5 -0.663008 2.236584 -1.29895 1.767767 -1.767767 
C 1.29895 -2.236584 0.663008 -2.5 0 -2.5 
C -0.663008 -2.5 -1.29895 -2.236584 -1.767767 -1.767767 
C -2.236584 -1.29895 -2.5 -0.663008 -2.5 0 
C -2.5 0.663008 -2.236584 1.29895 -1.767767 1.767767 
C -1.29895 2.236584 -0.663008 2.5 0 2.5 
z
" id="m2c0a9c1af5" style="stroke:#000000;"/>
    </defs>
    <g clip-path="url(#p60fe2fa824)">
     <use style="fill:#808080;stroke:#000000;" x="75.204159" xlink:href="#m2c0a9c1af5" y="122.618282"/>
     <use style="fill:#808080;stroke:#000000;" x="87.192043" xlink:href="#m2c0a9c1af5" y="118.966782"/>
     <use style="fill:#808080;stroke:#000000;" x="99.179926" xlink:href="#m2c0a9c1af5" y="113.922035"/>
     <use style="fill:#808080;stroke:#000000;" x="111.16781" xlink:href="#m2c0a9c1af5" y="110.971075"/>
     <use style="fill:#808080;stroke:#000000;" x="123.155694" xlink:href="#m2c0a9c1af5" y="108.008175"/>
     <use style="fill:#808080;stroke:#000000;" x="135.143578" xlink:href="#m2c0a9c1af5" y="106.904576"/>
     <use style="fill:#808080;stroke:#000000;" x="147.131461" xlink:href="#m2c0a9c1af5" y="107.230975"/>
     <use style="fill:#808080;stroke:#000000;" x="63.216275" xlink:href="#m2c0a9c1af5" y="129.044321"/>
    </g>
   </g>
   <g id="line2d_50">
    <path clip-path="url(#p60fe2fa824)" d="M 75.204159 123.3242 
L 135.143578 107.453009 
L 171.107229 110.855748 
L 219.058764 116.926691 
L 267.010299 117.205655 
" style="fill:none;"/>
    <defs>
     <path d="M 0 2.5 
C 0.663008 2.5 1.29895 2.236584 1.767767 1.767767 
C 2.236584 1.29895 2.5 0.663008 2.5 0 
C 2.5 -0.663008 2.236584 -1.29895 1.767767 -1.767767 
C 1.29895 -2.236584 0.663008 -2.5 0 -2.5 
C -0.663008 -2.5 -1.29895 -2.236584 -1.767767 -1.767767 
C -2.236584 -1.29895 -2.5 -0.663008 -2.5 0 
C -2.5 0.663008 -2.236584 1.29895 -1.767767 1.767767 
C -1.29895 2.236584 -0.663008 2.5 0 2.5 
z
" id="m7ceec0eb22" style="stroke:#808080;"/>
    </defs>
    <g clip-path="url(#p60fe2fa824)">
     <use style="fill:#ffffff;fill-opacity:0.7;stroke:#808080;" x="75.204159" xlink:href="#m7ceec0eb22" y="123.3242"/>
     <use style="fill:#ffffff;fill-opacity:0.7;stroke:#808080;" x="135.143578" xlink:href="#m7ceec0eb22" y="107.453009"/>
     <use style="fill:#ffffff;fill-opacity:0.7;stroke:#808080;" x="171.107229" xlink:href="#m7ceec0eb22" y="110.855748"/>
     <use style="fill:#ffffff;fill-opacity:0.7;stroke:#808080;" x="219.058764" xlink:href="#m7ceec0eb22" y="116.926691"/>
     <use style="fill:#ffffff;fill-opacity:0.7;stroke:#808080;" x="267.010299" xlink:href="#m7ceec0eb22" y="117.205655"/>
    </g>
   </g>
  </g>
 </g>
 <defs>
  <clipPath id="p60fe2fa824">
   <rect height="125.050051" width="224.173426" x="53.026574" y="10.8"/>
  </clipPath>
 </defs>
</svg>
