Relative abundance (%) of muropeptides,,,,,
,t = 5 min,t = 30 min,t = 45 min,t = 65 min,t = 85 min
Peakb,(0.35)a,-0.41,-0.47,-0.53,-0.65
A Tri,28.2,27.8,29.6,28.5,23.8
B Tetra,34.6,36.9,38.6,36.2,44.2
C Tri-Tri (3→3),7.2,6.3,5.9,6.2,5
D Tetra-Tri (4→3),7.9,7.2,6.1,6.8,5.6
E Tri-Tetra (3→3),8.5,8.3,7.1,8.9,6.4
F Tetra-Tetra (4→3),13.6,13.4,12.8,13.4,14.9
a Optical density at 600 nm of the bacterial cultures.,,,,,
