,5 min,30 min,45 min,65 min,85 min
A,29.22 ,28.81 ,30.52 ,29.54 ,24.73 
B,34.98 ,37.27 ,38.97 ,36.58 ,44.65 
C,7.05 ,6.22 ,5.70 ,6.00 ,4.91 
D,7.55 ,6.94 ,5.82 ,6.56 ,5.38 
E,8.26 ,7.99 ,6.79 ,8.56 ,6.16 
F,12.94 ,12.76 ,12.21 ,12.75 ,14.17 
