\relax 
\providecommand\zref@newlabel[2]{}
\providecommand\hyper@newdestlabel[2]{}
\bibstyle{vancouver-elife}
\providecommand\HyperFirstAtBeginDocument{\AtBeginDocument}
\HyperFirstAtBeginDocument{\ifx\hyper@anchor\@undefined
\global\let\oldcontentsline\contentsline
\gdef\contentsline#1#2#3#4{\oldcontentsline{#1}{#2}{#3}}
\global\let\oldnewlabel\newlabel
\gdef\newlabel#1#2{\newlabelxx{#1}#2}
\gdef\newlabelxx#1#2#3#4#5#6{\oldnewlabel{#1}{{#2}{#3}}}
\AtEndDocument{\ifx\hyper@anchor\@undefined
\let\contentsline\oldcontentsline
\let\newlabel\oldnewlabel
\fi}
\fi}
\global\let\hyper@last\relax 
\gdef\HyperFirstAtBeginDocument#1{#1}
\providecommand\HyField@AuxAddToFields[1]{}
\providecommand\HyField@AuxAddToCoFields[2]{}
\citation{Vollmer2008}
\citation{Mengin-Lecreulx1982}
\citation{Mengin-Lecreulx1982}
\providecommand \oddpage@label [2]{}
\babel@aux{english}{}
\@writefile{toc}{\contentsline {section}{Introduction}{1}{section*.1}\protected@file@percent }
\citation{Barreteau2008}
\citation{Biarrotte-Sorin2006}
\citation{Zapun2008}
\citation{Mainardi2008}
\citation{Mainardi2005,Hugonnet2016}
\citation{Magnet2008}
\citation{Glauner1988,Vollmer2008}
\citation{Hugonnet2016}
\citation{Hugonnet2016}
\citation{Hugonnet2016}
\citation{Sauvage2008}
\citation{Magnet2008}
\citation{Hugonnet2016,Mainardi2002}
\citation{Singh2012,Voedts2021}
\citation{Voedts2021}
\citation{DenBlaauwen2008}
\citation{Vollmer2001}
\citation{Holtje1996}
\citation{Typas2011}
\citation{Meroueh2006,Dmitriev2003}
\citation{Kern2008}
\citation{Vollmer2001}
\citation{Charpentier2002}
\citation{Goodell1985a,Johnson2013}
\citation{DeJonge1989}
\citation{Hugonnet2016,Voedts2021}
\citation{Datsenko2000}
\citation{Magnet2007}
\@writefile{lof}{\contentsline {figure}{\numberline {1}{\ignorespaces Structure and biosynthesis of \emph  {E. coli} peptidoglycan}}{4}{figure.caption.2}\protected@file@percent }
\providecommand*\caption@xref[2]{\@setref\relax\@undefined{#1}}
\newlabel{pg_label:intro:fig:pg_struc}{{1}{4}{Structure and biosynthesis of \emph {E. coli} peptidoglycan}{figure.caption.2}{}}
\@writefile{toc}{\contentsline {section}{Materials and Methods}{4}{section*.5}\protected@file@percent }
\newlabel{7:pg_label:matmet}{{}{4}{Materials and Methods}{section*.5}{}}
\newlabel{sec:orga1cfdfb}{{}{4}{}{section*.5}{}}
\newlabel{sec:org89f514e}{{}{4}{}{section*.5}{}}
\@writefile{losuppfigure}{\contentsline {suppfigure}{\numberline {1}{\ignorespaces Synthesis and recycling of peptidoglycan in \emph  {E. coli}}}{5}{suppfigure.caption.3}\protected@file@percent }
\newlabel{pg_label:intro:sfig:pg_metabolism}{{1}{5}{Synthesis and recycling of peptidoglycan in \emph {E. coli}}{suppfigure.caption.3}{}}
\@writefile{losuppfigure}{\contentsline {suppfigure}{\numberline {2}{\ignorespaces Acceptor donor radioactive ratio (ADRR) as a function of the number of glycan strands inserted at the same time in the peptidoglycan layer}}{5}{suppfigure.caption.4}\protected@file@percent }
\newlabel{pg_label:intro:sfig:adrr_calcs}{{2}{5}{Acceptor donor radioactive ratio (ADRR) as a function of the number of glycan strands inserted at the same time in the peptidoglycan layer}{suppfigure.caption.4}{}}
\citation{Johnson2013}
\citation{Datsenko2000}
\citation{Magnet2007,Magnet2008,MontonSilva2018,More2019}
\citation{Arbeloa2004}
\citation{Glauner1988}
\citation{Glauner1988}
\newlabel{sec:org6b24faf}{{}{6}{}{section*.5}{}}
\newlabel{sec:orgd696241}{{}{6}{}{section*.5}{}}
\newlabel{sec:orgc169e88}{{}{6}{}{section*.5}{}}
\newlabel{sec:org5b580e5}{{}{6}{}{section*.5}{}}
\citation{Adusumilli2017}
\citation{Langella2021}
\citation{Lacki2017}
\citation{Wang2012}
\citation{Meija2016}
\@writefile{lot}{\contentsline {table}{\numberline {1}{\ignorespaces Mass and relative abundance of H, C, N, and O isotopes used for isotopic cluster simulations}}{7}{table.caption.6}\protected@file@percent }
\newlabel{pg_label:matmet:tbl:isotopes}{{1}{7}{Mass and relative abundance of H, C, N, and O isotopes used for isotopic cluster simulations}{table.caption.6}{}}
\newlabel{sec:org9980684}{{}{7}{}{section*.5}{}}
\newlabel{sec:orga706079}{{}{7}{}{section*.5}{}}
\newlabel{sec:org74c87d7}{{}{7}{}{table.caption.6}{}}
\citation{Roberts2017}
\citation{Lacki2017}
\@writefile{lof}{\contentsline {figure}{\numberline {2}{\ignorespaces Calculation of the relative abundance of isotopologues}}{9}{figure.caption.7}\protected@file@percent }
\newlabel{pg_label:matmet:fig:isotopo_calc}{{2}{9}{Calculation of the relative abundance of isotopologues}{figure.caption.7}{}}
\newlabel{sec:org7868314}{{}{10}{}{figure.caption.7}{}}
\newlabel{pg_label:matmet:eq:mu}{{1}{10}{}{equation.8}{}}
\newlabel{pg_label:matmet:eq:sigma}{{2}{10}{}{equation.9}{}}
\newlabel{sec:org098ea4e}{{}{10}{}{figure.caption.10}{}}
\newlabel{pg_label:matmet:eq:pg_t1}{{3}{10}{}{equation.11}{}}
\newlabel{pg_label:matmet:eq:pg_t2}{{4}{10}{}{equation.12}{}}
\@writefile{lof}{\contentsline {figure}{\numberline {3}{\ignorespaces Shaping mass spectra}}{11}{figure.caption.10}\protected@file@percent }
\newlabel{pg_label:matmet:fig:peak_shaping}{{3}{11}{Shaping mass spectra}{figure.caption.10}{}}
\@writefile{losupptable}{\contentsline {supptable}{\numberline {1}{\ignorespaces Muropeptide composition of the peptidoglycan of strains BW25113 $\Delta 6ldt$ and M1.5}}{12}{supptable.caption.15}\protected@file@percent }
\newlabel{pg_label:results:stbl:murop_comp}{{1}{12}{Muropeptide composition of the peptidoglycan of strains BW25113 $\Delta 6ldt$ and M1.5}{supptable.caption.15}{}}
\newlabel{sec:orgf6da436}{{}{12}{}{equation.12}{}}
\newlabel{pg_label:matmet:eq:pg_t3}{{5}{12}{}{equation.13}{}}
\@writefile{toc}{\contentsline {section}{Results}{12}{section*.14}\protected@file@percent }
\newlabel{7:pg_label:results}{{}{12}{Results}{section*.14}{}}
\newlabel{sec:org3c6f98e}{{}{12}{}{section*.14}{}}
\newlabel{sec:org85273ce}{{}{13}{}{supptable.caption.15}{}}
\@writefile{lof}{\contentsline {figure}{\numberline {4}{\ignorespaces Mass spectra of the unlabeled and uniformly labeled disaccharide-tripeptide monomers}}{13}{figure.caption.16}\protected@file@percent }
\newlabel{pg_label:results:fig:tri_sim}{{4}{13}{Mass spectra of the unlabeled and uniformly labeled disaccharide-tripeptide monomers}{figure.caption.16}{}}
\newlabel{sec:org9792e78}{{}{13}{}{suppfigure.caption.17}{}}
\@writefile{losuppfigure}{\contentsline {suppfigure}{\numberline {3}{\ignorespaces Mass spectra of the unlabeled and uniformly labeled disaccharide-tripeptide monomers}}{14}{suppfigure.caption.17}\protected@file@percent }
\newlabel{pg_label:results:sfig:tetra_sim}{{3}{14}{Mass spectra of the unlabeled and uniformly labeled disaccharide-tripeptide monomers}{suppfigure.caption.17}{}}
\@writefile{lot}{\contentsline {table}{\numberline {2}{\ignorespaces Tandem mass spectrometry analysis of isotopologues of the GlcNAc-MurNAc-tetrapeptide}}{15}{table.caption.18}\protected@file@percent }
\newlabel{pg_label:results:tbl:ms2_tetra}{{2}{15}{Tandem mass spectrometry analysis of isotopologues of the GlcNAc-MurNAc-tetrapeptide}{table.caption.18}{}}
\citation{Johnson2013}
\citation{Johnson2013}
\citation{Mengin-Lecreulx1996}
\citation{Mengin-Lecreulx1982}
\newlabel{sec:org63b0ee4}{{}{16}{}{table.caption.18}{}}
\newlabel{sec:org062509b}{{}{16}{}{suppfigure.caption.19}{}}
\newlabel{sec:org0025597}{{}{16}{}{supptable.caption.21}{}}
\@writefile{losuppfigure}{\contentsline {suppfigure}{\numberline {4}{\ignorespaces Simulated spectra of the Tetra$\rightarrow $Tetra Dimer}}{17}{suppfigure.caption.19}\protected@file@percent }
\newlabel{pg_label:results:sfig:tettet_sim}{{4}{17}{Simulated spectra of the Tetra$\rightarrow $Tetra Dimer}{suppfigure.caption.19}{}}
\@writefile{losupptable}{\contentsline {supptable}{\numberline {2}{\ignorespaces Generation time for growth of BW25113 derivatives in M9 minimal medium\relax }}{17}{supptable.caption.21}\protected@file@percent }
\newlabel{pg_label:results:stbl:gen_time}{{2}{17}{Generation time for growth of BW25113 derivatives in M9 minimal medium\relax }{supptable.caption.21}{}}
\@writefile{lof}{\contentsline {figure}{\numberline {5}{\ignorespaces Labeling experiment M1.5}}{18}{figure.caption.20}\protected@file@percent }
\newlabel{pg_label:results:fig:exp3}{{5}{18}{Labeling experiment M1.5}{figure.caption.20}{}}
\@writefile{lof}{\contentsline {figure}{\numberline {6}{\ignorespaces Mass spectra of muropeptide monomers after medium switch}}{19}{figure.caption.22}\protected@file@percent }
\newlabel{pg_label:results:fig:mono_ms}{{6}{19}{Mass spectra of muropeptide monomers after medium switch}{figure.caption.22}{}}
\citation{Johnson2013}
\citation{Templin1999}
\citation{Magnet2008}
\@writefile{losuppfigure}{\contentsline {suppfigure}{\numberline {5}{\ignorespaces Mass spectra of muropeptide monomers M1.5 \emph  {vs} M1.5 $\Delta ampG$}}{21}{suppfigure.caption.23}\protected@file@percent }
\newlabel{pg_label:results:sfig:dampg}{{5}{21}{Mass spectra of muropeptide monomers M1.5 \emph {vs} M1.5 $\Delta ampG$}{suppfigure.caption.23}{}}
\newlabel{sec:org300ad4e}{{}{21}{}{suppfigure.caption.24}{}}
\@writefile{losuppfigure}{\contentsline {suppfigure}{\numberline {6}{\ignorespaces Simulated spectra of hybrid monomers\relax }}{22}{suppfigure.caption.24}\protected@file@percent }
\newlabel{pg_label:results:sfig:mono_hybrids_sim}{{6}{22}{Simulated spectra of hybrid monomers\relax }{suppfigure.caption.24}{}}
\newlabel{sec:org52b7cce}{{}{22}{}{figure.caption.25}{}}
\@writefile{lof}{\contentsline {figure}{\numberline {7}{\ignorespaces \textbf  {Kinetic analysis of the proportion of isotopologue monomers in the peptidoglycan of strain M1.5.} (\textbf  {A}) and (\textbf  {C}), mass spectra of disaccharide-tripeptide and disaccharide-tetrapeptide from bacteria collected at 5, 30, 45, 65, and 85 min after the medium switch. (\textbf  {B}) and (\textbf  {D}), kinetic analysis of the ratios of isotopologues calculated from relative ion current intensities for the disaccharide-tripeptide and disaccharide-tetrapeptide, respectively. The upper panels show the evolution of the relative abundance of uniformly labeled and unlabeled monomers. The lower panels present the evolution of the relative abundance of hybrids relative to the complete set of monomers. The open and solid symbols are the results from two biological repeats. See Supplementary Data for the complete assignment of hybrid structures.\relax }}{23}{figure.caption.25}\protected@file@percent }
\newlabel{pg_label:results:fig:mono_tc}{{7}{23}{\textbf {Kinetic analysis of the proportion of isotopologue monomers in the peptidoglycan of strain M1.5.} (\textbf {A}) and (\textbf {C}), mass spectra of disaccharide-tripeptide and disaccharide-tetrapeptide from bacteria collected at 5, 30, 45, 65, and 85 min after the medium switch. (\textbf {B}) and (\textbf {D}), kinetic analysis of the ratios of isotopologues calculated from relative ion current intensities for the disaccharide-tripeptide and disaccharide-tetrapeptide, respectively. The upper panels show the evolution of the relative abundance of uniformly labeled and unlabeled monomers. The lower panels present the evolution of the relative abundance of hybrids relative to the complete set of monomers. The open and solid symbols are the results from two biological repeats. See Supplementary Data for the complete assignment of hybrid structures.\relax }{figure.caption.25}{}}
\newlabel{sec:orgf558906}{{}{24}{}{suppfigure.caption.31}{}}
\@writefile{lof}{\contentsline {figure}{\numberline {8}{\ignorespaces Structure of Tri\(\rightarrow \)Tri isotopologues in the peptidoglycan of strain M1.5 grown in the absence of $\beta $-lactams.}}{25}{figure.caption.26}\protected@file@percent }
\newlabel{pg_label:results:fig:tritri_ms}{{8}{25}{Structure of Tri\(\rightarrow \)Tri isotopologues in the peptidoglycan of strain M1.5 grown in the absence of $\beta $-lactams}{figure.caption.26}{}}
\@writefile{losuppfigure}{\contentsline {suppfigure}{\numberline {7}{\ignorespaces \textbf  {Structure of Tetra\(\rightarrow \)Tri isotopologues in the peptidoglycan of strain M1.5 grown in the absence of $\beta $-lactams.}\relax }}{26}{suppfigure.caption.27}\protected@file@percent }
\newlabel{pg_label:results:sfig:tettri_ms}{{7}{26}{\textbf {Structure of Tetra\(\rightarrow \)Tri isotopologues in the peptidoglycan of strain M1.5 grown in the absence of $\beta $-lactams.}\relax }{suppfigure.caption.27}{}}
\@writefile{losuppfigure}{\contentsline {suppfigure}{\numberline {8}{\ignorespaces \textbf  {Structure of Tri\(\rightarrow \)Tetra isotopologues in the peptidoglycan of strain M1.5 grown in the absence of $\beta $-lactams.}\relax }}{27}{suppfigure.caption.28}\protected@file@percent }
\newlabel{pg_label:results:sfig:tritet_ms}{{8}{27}{\textbf {Structure of Tri\(\rightarrow \)Tetra isotopologues in the peptidoglycan of strain M1.5 grown in the absence of $\beta $-lactams.}\relax }{suppfigure.caption.28}{}}
\@writefile{losuppfigure}{\contentsline {suppfigure}{\numberline {9}{\ignorespaces \textbf  {Structure of Tetra\(\rightarrow \)Tetra isotopologues in the peptidoglycan of strain M1.5 grown in the absence of $\beta $-lactams.}\relax }}{28}{suppfigure.caption.29}\protected@file@percent }
\newlabel{pg_label:results:sfig:tettet_ms}{{9}{28}{\textbf {Structure of Tetra\(\rightarrow \)Tetra isotopologues in the peptidoglycan of strain M1.5 grown in the absence of $\beta $-lactams.}\relax }{suppfigure.caption.29}{}}
\@writefile{lof}{\contentsline {figure}{\numberline {9}{\ignorespaces \textbf  {Mode of cross-linking of \emph  {de novo} synthesized peptidoglycan subunits in \emph  {E. coli} M1.5 grown in the absence of \(\beta \)-lactam.} For each dimer (\textbf  {A}, \textbf  {B}, \textbf  {C}, and \textbf  {D}), the relative abundance (rel. abundance) was calculated for isotopologues originating from cross-liking of (i) two pre-existing stems (old\(\rightarrow \)old; red), (ii) a new donor stem (\emph  {i.e}. a stem synthesized after the medium switch) and a pre-existing acceptor stem (new\(\rightarrow \)old; grey), and (iii) two new stems (new\(\rightarrow \)new; purple). The calculations take into account the contribution of \emph  {de novo} synthesized stems originating from recycled moieties and from the labeled UDP-MurNAc-pentapeptide pool as described in Figure \ref  {pg_label:results:fig:tritri_ms} and in Supplementary Fig. S\ref  {pg_label:results:sfig:tettri_ms}, S\ref  {pg_label:results:sfig:tritet_ms}, and S\ref  {pg_label:results:sfig:tettet_ms} for the Tri\(\rightarrow \)Tri, Tetra\(\rightarrow \)Tri, Tri\(\rightarrow \)Tetra, and Tetra\(\rightarrow \)Tetra dimers, respectively. The open and closed symbols correspond to data from two independent experiments.\relax }}{29}{figure.caption.30}\protected@file@percent }
\newlabel{pg_label:results:fig:dimers_tc}{{9}{29}{\textbf {Mode of cross-linking of \emph {de novo} synthesized peptidoglycan subunits in \emph {E. coli} M1.5 grown in the absence of \(\beta \)-lactam.} For each dimer (\textbf {A}, \textbf {B}, \textbf {C}, and \textbf {D}), the relative abundance (rel. abundance) was calculated for isotopologues originating from cross-liking of (i) two pre-existing stems (old\(\rightarrow \)old; red), (ii) a new donor stem (\emph {i.e}. a stem synthesized after the medium switch) and a pre-existing acceptor stem (new\(\rightarrow \)old; grey), and (iii) two new stems (new\(\rightarrow \)new; purple). The calculations take into account the contribution of \emph {de novo} synthesized stems originating from recycled moieties and from the labeled UDP-MurNAc-pentapeptide pool as described in Figure \ref {pg_label:results:fig:tritri_ms} and in Supplementary Fig. S\ref {pg_label:results:sfig:tettri_ms}, S\ref {pg_label:results:sfig:tritet_ms}, and S\ref {pg_label:results:sfig:tettet_ms} for the Tri\(\rightarrow \)Tri, Tetra\(\rightarrow \)Tri, Tri\(\rightarrow \)Tetra, and Tetra\(\rightarrow \)Tetra dimers, respectively. The open and closed symbols correspond to data from two independent experiments.\relax }{figure.caption.30}{}}
\@writefile{losuppfigure}{\contentsline {suppfigure}{\numberline {10}{\ignorespaces Interconversions of muropeptides in PG}}{30}{suppfigure.caption.31}\protected@file@percent }
\newlabel{pg_label:results:sfig:pg_interconv}{{10}{30}{Interconversions of muropeptides in PG}{suppfigure.caption.31}{}}
\@writefile{lof}{\contentsline {figure}{\numberline {10}{\ignorespaces \textbf  {Mode of insertion of peptidoglycan subunits in the absence of \textsc  {l,d}-transpeptidases and impact of the inhibition of PBPs by aztreonam and mecillinam.} (\textbf  {A}) Muropeptide \emph  {rp}HPLC profile of PG from \emph  {E. coli} strain \(\Delta 6ldt\) grown in the absence of \(\beta \)-lactam or in the presence of aztreonam (AZT) or mecillinam (MEC). Kinetic data were collected for fully labeled (red), fully unlabeled (purple) tetrapeptide monomers (Tetra) (\textbf  {B}) and hybrids (\textbf  {C}) as defined in Figure \ref  {pg_label:results:fig:mono_ms}. For the Tetra\(\rightarrow \)Tetra dimer (\textbf  {D}), the relative abundance (rel. abundance) was calculated for isotopologues originating from cross-liking of (i) two pre-existing stems (old\(\rightarrow \)old; red), (ii) a new donor stem (\emph  {i.e}. a stem synthesized after the medium switch) and a pre-existing acceptor stem (new\(\rightarrow \)old; grey), and (iii) two new stems (new\(\rightarrow \)new; purple); see also Supp. Fig. \ref  {pg_label:results:sfig:tettet_ms}. The calculations take into account the contribution of \emph  {de novo} synthesized stems originating from recycled moieties and from the labeled UDP-MurNAc-pentapeptide pool. The open and closed symbols correspond to data from two independent experiments.\relax }}{31}{figure.caption.32}\protected@file@percent }
\newlabel{pg_label:results:fig:d6_tc}{{10}{31}{\textbf {Mode of insertion of peptidoglycan subunits in the absence of \textsc {l,d}-transpeptidases and impact of the inhibition of PBPs by aztreonam and mecillinam.} (\textbf {A}) Muropeptide \emph {rp}HPLC profile of PG from \emph {E. coli} strain \(\Delta 6ldt\) grown in the absence of \(\beta \)-lactam or in the presence of aztreonam (AZT) or mecillinam (MEC). Kinetic data were collected for fully labeled (red), fully unlabeled (purple) tetrapeptide monomers (Tetra) (\textbf {B}) and hybrids (\textbf {C}) as defined in Figure \ref {pg_label:results:fig:mono_ms}. For the Tetra\(\rightarrow \)Tetra dimer (\textbf {D}), the relative abundance (rel. abundance) was calculated for isotopologues originating from cross-liking of (i) two pre-existing stems (old\(\rightarrow \)old; red), (ii) a new donor stem (\emph {i.e}. a stem synthesized after the medium switch) and a pre-existing acceptor stem (new\(\rightarrow \)old; grey), and (iii) two new stems (new\(\rightarrow \)new; purple); see also Supp. Fig. \ref {pg_label:results:sfig:tettet_ms}. The calculations take into account the contribution of \emph {de novo} synthesized stems originating from recycled moieties and from the labeled UDP-MurNAc-pentapeptide pool. The open and closed symbols correspond to data from two independent experiments.\relax }{figure.caption.32}{}}
\citation{DeJonge1989}
\citation{DePedro1997}
\citation{Mainardi2005}
\citation{DePedro1997}
\citation{Burman1984a}
\newlabel{sec:orgc6ba2d3}{{}{32}{}{figure.caption.32}{}}
\newlabel{sec:orga00df94}{{}{32}{}{figure.caption.32}{}}
\@writefile{toc}{\contentsline {section}{Discussion}{32}{section*.34}\protected@file@percent }
\newlabel{7:pg_label:discussion}{{}{32}{Discussion}{section*.34}{}}
\newlabel{sec:orga0e01d5}{{}{32}{}{section*.34}{}}
\@writefile{lof}{\contentsline {figure}{\numberline {11}{\ignorespaces \textbf  {Mode of insertion of peptidoglycan subunits in conditions in which YcbB is the only functional transpeptidase following inhibitions of the \textsc  {d,d}-transpeptidase activity of PBPs by ampicillin.} (\textbf  {A}) Muropeptide \emph  {rp}HPLC profile of PG from \emph  {E. coli} strain M1.5 grown in the presence of ampicillin (16 \IeC {\textmu }g/ml). (\textbf  {B}) Kinetic data were collected for neo-synthesized (new, red) and pre-existing (old, purple) monomers. (\textbf  {C}) Kinetic data were also collected for dimers originating from cross-linking of (i) two pre-existing stems (old\(\rightarrow \)old; red), (ii) a new donor stem (\emph  {i.e}. a stem synthesized after the medium switch) and a pre-existing acceptor stem (new\(\rightarrow \)old; grey), and (iii) two new stems (new\(\rightarrow \)new; purple). The calculations take into account the contribution of \emph  {de novo} synthesized stems originating from recycled moieties and from the labeled UDP-MurNAc-pentapeptide pool. The open and closed symbols correspond to data from two independent experiments. Rel. abundance, relative abundance of isotopologues. Disaccharide-peptide subunits contained a tripeptide (Tri), a tetrapeptide (Tetra), or a pentapeptide (Penta) stem.\relax }}{33}{figure.caption.33}\protected@file@percent }
\newlabel{pg_label:results:fig:m15amp_tc}{{11}{33}{\textbf {Mode of insertion of peptidoglycan subunits in conditions in which YcbB is the only functional transpeptidase following inhibitions of the \textsc {d,d}-transpeptidase activity of PBPs by ampicillin.} (\textbf {A}) Muropeptide \emph {rp}HPLC profile of PG from \emph {E. coli} strain M1.5 grown in the presence of ampicillin (16 µg/ml). (\textbf {B}) Kinetic data were collected for neo-synthesized (new, red) and pre-existing (old, purple) monomers. (\textbf {C}) Kinetic data were also collected for dimers originating from cross-linking of (i) two pre-existing stems (old\(\rightarrow \)old; red), (ii) a new donor stem (\emph {i.e}. a stem synthesized after the medium switch) and a pre-existing acceptor stem (new\(\rightarrow \)old; grey), and (iii) two new stems (new\(\rightarrow \)new; purple). The calculations take into account the contribution of \emph {de novo} synthesized stems originating from recycled moieties and from the labeled UDP-MurNAc-pentapeptide pool. The open and closed symbols correspond to data from two independent experiments. Rel. abundance, relative abundance of isotopologues. Disaccharide-peptide subunits contained a tripeptide (Tri), a tetrapeptide (Tetra), or a pentapeptide (Penta) stem.\relax }{figure.caption.33}{}}
\citation{DeJonge1989}
\citation{Botta1981,AngelDePedro1981}
\citation{Burman1984a}
\citation{Uehara2008,Cho2016}
\citation{DeJonge1989}
\citation{DeJonge1989}
\citation{Uehara2008}
\citation{DeJonge1989}
\newlabel{sec:org2b83d5d}{{}{34}{}{section*.34}{}}
\citation{Hugonnet2016,Voedts2021}
\citation{Uehara2008,Cho2014}
\citation{Voedts2021}
\citation{Voedts2021}
\citation{Voedts2021}
\@writefile{losuppfigure}{\contentsline {suppfigure}{\numberline {11}{\ignorespaces Acceptor to donor ratio of neo-synthesized stems (ADRNS) of \emph  {E. coli} $\Delta 6ldt$}}{35}{suppfigure.caption.35}\protected@file@percent }
\newlabel{pg_label:discussion:sfig:adrns}{{11}{35}{Acceptor to donor ratio of neo-synthesized stems (ADRNS) of \emph {E. coli} $\Delta 6ldt$}{suppfigure.caption.35}{}}
\newlabel{sec:org8703278}{{}{35}{}{suppfigure.caption.35}{}}
\newlabel{sec:org88c4e9d}{{}{35}{}{suppfigure.caption.35}{}}
\citation{Goodell1985}
\citation{Jacobs1994}
\citation{Cho2014}
\newlabel{sec:orgb63113f}{{}{36}{}{suppfigure.caption.35}{}}
\@writefile{losuppfigure}{\contentsline {suppfigure}{\numberline {12}{\ignorespaces Loss of fully labeled disaccharide-peptide subunits from pepitdoglycan}}{37}{suppfigure.caption.36}\protected@file@percent }
\newlabel{pg_label:discussion:sfig:recycling}{{12}{37}{Loss of fully labeled disaccharide-peptide subunits from pepitdoglycan}{suppfigure.caption.36}{}}
\citation{Burman1984a,Glauner1990,Goodell1985,Goodell1985a}
\citation{Wientjes1985}
\citation{Mengin-Lecreulx1982}
\citation{Wientjes1985}
\citation{Glauner1990}
\citation{Burman1984a}
\citation{Burman1983}
\citation{Verwer1980}
\citation{Burman1983}
\citation{Wientjes1985}
\citation{Desmarais2014}
\citation{Glauner1988}
\citation{Glauner1990}
\citation{Glauner1990}
\newlabel{sec:orgf3115b3}{{}{38}{}{suppfigure.caption.36}{}}
\bibdata{../../bibliography/library}
\bibcite{Adusumilli2017}{{1}{2017}{{Adusumilli and Mallick}}{{Adusumilli, Ravali and Mallick, Parag}}}
\bibcite{Arbeloa2004}{{2}{2004}{{Arbeloa et~al.}}{{Arbeloa, Ana and Hugonnet, Jean-Emmanuel and Sentilhes, Anne-Charlotte and Josseaume, Nathalie and Dubost, Lionnel and Monsempes, Christelle and Blanot, Didier and Brouard, Jean-Paul and Arthur, Michel}}}
\bibcite{Barreteau2008}{{3}{2008}{{Barreteau et~al.}}{{Barreteau, Helene and Kova{\v {c}}, Andreja and Boniface, Audrey and Sova, Matej and Gobec, Stanislav and {Didier Blanot}, {\&}}}}
\bibcite{Biarrotte-Sorin2006}{{4}{2006}{{Biarrotte-Sorin et~al.}}{{Biarrotte-Sorin, Sabrina and Hugonnet, Jean-Emmanuel and Delfosse, Vanessa and Mainardi, Jean-Luc and Gutmann, Laurent and Arthur, Michel and Mayer, Claudine}}}
\@writefile{losuppfigure}{\contentsline {suppfigure}{\numberline {13}{\ignorespaces Comparing radioactive DAP labeling and \textsuperscript  {13}C/\textsuperscript  {15}N-labeling}}{39}{suppfigure.caption.37}\protected@file@percent }
\newlabel{pg_label:discussion:sfig:new_vs_hyb}{{13}{39}{Comparing radioactive DAP labeling and \textsuperscript {13}C/\textsuperscript {15}N-labeling}{suppfigure.caption.37}{}}
\bibcite{Botta1981}{{5}{1981}{{Botta and Park}}{{Botta, G A and Park, James T}}}
\bibcite{Burman1984a}{{6}{1984}{{Burman and Park}}{{Burman, L. G. and Park, J. T.}}}
\bibcite{Burman1983}{{7}{1983}{{Burman et~al.}}{{Burman, Lars G and Raichler, Judith and Park, James T}}}
\bibcite{Charpentier2002}{{8}{2002}{{Charpentier et~al.}}{{Charpentier, Xavier and Chalut, Christian and R{\'{e}}my, Marie H{\'{e}}l{\`{e}}ne and Masson, Jean Michel}}}
\bibcite{Cho2014}{{9}{2014}{{Cho et~al.}}{{Cho, Hongbaek and Uehara, Tsuyoshi and Bernhardt, Thomas G.}}}
\bibcite{Cho2016}{{10}{2016}{{Cho et~al.}}{{Cho, Hongbaek and Wivagg, Carl N and Kapoor, Mrinal and Barry, Zachary and Rohs, Patricia D. A. and Suh, Hyunsuk and Marto, Jarrod A and Garner, Ethan C and Bernhardt, Thomas G}}}
\bibcite{Datsenko2000}{{11}{2000}{{Datsenko and Wanner}}{{Datsenko, Kirill A and Wanner, Barry L}}}
\bibcite{DenBlaauwen2008}{{12}{2008}{{{Den Blaauwen} et~al.}}{{{Den Blaauwen}, Tanneke and de Pedro, Miguel A. and Nguyen-Dist{\`{e}}che, Martine and Ayala, Juan A}}}
\bibcite{Desmarais2014}{{13}{2014}{{Desmarais et~al.}}{{Desmarais, Samantha M. and Cava, Felipe and de Pedro, Miguel A. and Huang, Kerwyn Casey}}}
\bibcite{Dmitriev2003}{{14}{2003}{{Dmitriev et~al.}}{{Dmitriev, Boris A. and Toukach, Filip V. and Schaper, Klaus-Jurgen and Holst, Otto and Rietschel, Ernst T. and Ehlers, Stefan}}}
\bibcite{Glauner1990}{{15}{1990}{{Glauner and Holtje}}{{Glauner, B and Holtje, J V}}}
\bibcite{Glauner1988}{{16}{1988}{{Glauner}}{{Glauner, Bernd}}}
\bibcite{Goodell1985a}{{17}{1985}{{Goodell}}{{Goodell, E W}}}
\bibcite{Goodell1985}{{18}{1985}{{Goodell and Schwarz}}{{Goodell, E. W. and Schwarz, Uli}}}
\bibcite{Holtje1996}{{19}{1996}{{Holtje}}{{Holtje, J.-V.}}}
\bibcite{Hugonnet2016}{{20}{2016}{{Hugonnet et~al.}}{{Hugonnet, Jean Emmanuel and Mengin-Lecreulx, Dominique and Monton, Alejandro and den Blaauwen, Tanneke and Carbonnelle, Etienne and Veckerl{\'{e}}, Carole and Yves, V. Brun and van Nieuwenhze, Michael and Bouchier, Christiane and Tu, Kuyek and Rice, Louis B. and Arthur, Michel}}}
\bibcite{Jacobs1994}{{21}{1994}{{Jacobs et~al.}}{{Jacobs, Christine and Huang, L.J. and Bartowsky, Eveline and Normark, Staffan and Park, J.T.}}}
\bibcite{Johnson2013}{{22}{2013}{{Johnson et~al.}}{{Johnson, Jarrod W. and Fisher, Jed F. and Mobashery, Shahriar}}}
\bibcite{DeJonge1989}{{23}{1989}{{de~Jonge et~al.}}{{de Jonge, B L and Wientjes, Frans B and Jurida, I and Driehuis, Frank and Wouters, J T and Nanninga, N}}}
\bibcite{Kern2008}{{24}{2008}{{Kern et~al.}}{{Kern, Thomas and Hediger, Sabine and M{\"{u}}ller, Patrick and Giustini, C{\'{e}}cile and Joris, Bernard and Bougault, Catherine and Vollmer, Waldemar and Simorre, Jean-Pierre}}}
\bibcite{Lacki2017}{{25}{2017}{{Lacki et~al.}}{{Lacki, Mateusz K. and Startek, Micha{\l } and Valkenborg, Dirk and Gambin, Anna}}}
\bibcite{Langella2021}{{26}{2021}{{Langella and Rusconi}}{{Langella, Olivier and Rusconi, Filippo}}}
\bibcite{Magnet2007}{{27}{2007}{{Magnet et~al.}}{{Magnet, Sophie and Bellais, Samuel and Dubost, Lionel and Fourgeaud, Martine and Mainardi, Jean-Luc and Petit-Frere, Sebastien and Marie, Arul and Mengin-Lecreulx, Dominique and Arthur, Michel and Gutmann, Laurent}}}
\bibcite{Magnet2008}{{28}{2008}{{Magnet et~al.}}{{Magnet, Sophie and Dubost, Lionel and Marie, Arul and Arthur, Michel and Gutmann, Laurent}}}
\bibcite{Mainardi2005}{{29}{2005}{{Mainardi et~al.}}{{Mainardi, Jean-Luc and Fourgeaud, Martine and Hugonnet, Jean-Emmanuel and Dubost, Lionel and Brouard, Jean-Paul and Ouazzani, Jamal and Rice, Louis B and Gutmann, Laurent and Arthur, Michel}}}
\bibcite{Mainardi2002}{{30}{2002}{{Mainardi et~al.}}{{Mainardi, Jean-Luc and Morel, V{\'{e}}ronique and Fourgeaud, Martine and Cremniter, Julie and Blanot, Didier and Legrand, Raymond and Fr{\'{e}}hel, Claude and Arthur, Michel and van Heijenoort, Jean and Gutmann, Laurent}}}
\bibcite{Mainardi2008}{{31}{2008}{{Mainardi et~al.}}{{Mainardi, Jean-Luc and Villet, R{\'{e}}gis and Bugg, Timothy D and Mayer, Claudine and Arthur, Michel}}}
\bibcite{Meija2016}{{32}{2016}{{Meija et~al.}}{{Meija, Juris and Coplen, Tyler B. and Berglund, Michael and Brand, Willi A. and {De Bi{\`{e}}vre}, Paul and Gr{\"{o}}ning, Manfred and Holden, Norman E. and Irrgeher, Johanna and Loss, Robert D. and Walczyk, Thomas and Prohaska, Thomas}}}
\bibcite{Mengin-Lecreulx1982}{{33}{1982}{{Mengin-Lecreulx et~al.}}{{Mengin-Lecreulx, Dominique and Flouret, Bernard and van Heijenoort, J}}}
\bibcite{Mengin-Lecreulx1996}{{34}{1996}{{Mengin-Lecreulx et~al.}}{{Mengin-Lecreulx, Dominique and van Heijenoort, J and Park, James T.}}}
\bibcite{Meroueh2006}{{35}{2006}{{Meroueh et~al.}}{{Meroueh, Samy O and Bencze, Krisztina Z and Hesek, Dusan and Lee, Mijoon and Fisher, Jed F and Stemmler, Timothy L and Mobashery, Shahriar}}}
\bibcite{MontonSilva2018}{{36}{2018}{{{Mont{\'{o}}n Silva} et~al.}}{{{Mont{\'{o}}n Silva}, Alejandro and Otten, Christian and Biboy, Jacob and Breukink, Eefjan and VanNieuwenhze, Michael and Vollmer, Waldemar and den Blaauwen, Tanneke}}}
\bibcite{More2019}{{37}{2019}{{Mor{\`{e}} et~al.}}{{Mor{\`{e}}, Niccol{\`{o}} and Martorana, Alessandra M and Biboy, Jacob and Otten, Christian and Winkle, Matthias and Serrano, Carlos K Gurnani and Silva, Alejandro Mont{\'{o}}n and Atkinson, Lisa and Yau, Hamish and Breukink, Eefjan and {Den Blaauwen}, Tanneke and Vollmer, Waldemar and Polissi, Alessandra}}}
\bibcite{DePedro1997}{{38}{1997}{{de~Pedro et~al.}}{{de Pedro, M A and Quintela, Jos{\'{e}} Carlos and H{\"{o}}ltje, J V and Schwarz, Heinz}}}
\bibcite{AngelDePedro1981}{{39}{1981}{{de~Pedro and Schwarz}}{{de Pedro, M. A. and Schwarz, U.}}}
\bibcite{Roberts2017}{{40}{2017}{{Roberts and Fitzpatrick}}{{Roberts, Kenneth M. and Fitzpatrick, Paul F.}}}
\bibcite{Sauvage2008}{{41}{2008}{{Sauvage et~al.}}{{Sauvage, Eric and Kerff, Fr{\'{e}}d{\'{e}}ric and Terrak, Mohammed and Ayala, Juan A. and Charlier, Paulette and M, Terrak and TD, Bugg}}}
\bibcite{Singh2012}{{42}{2012}{{Singh et~al.}}{{Singh, Santosh Kumar and SaiSree, L. and Amrutha, Ravi N. and Reddy, Manjula}}}
\bibcite{Templin1999}{{43}{1999}{{Templin et~al.}}{{Templin, Markus F. and Ursinus, Astrid and H{\"{o}}ltje, Joachim Volker}}}
\bibcite{Typas2011}{{44}{2011}{{Typas et~al.}}{{Typas, Athanasios and Banzhaf, Manuel and Gross, Carol A and Vollmer, Waldemar}}}
\bibcite{Uehara2008}{{45}{2008}{{Uehara and Park}}{{Uehara, Tsuyoshi and Park, James T}}}
\bibcite{Verwer1980}{{46}{1980}{{Verwer and Nanninga}}{{Verwer, R. W.H. and Nanninga, N.}}}
\bibcite{Voedts2021}{{47}{2021}{{Voedts et~al.}}{{Voedts, Henri and Dorch{\^{e}}ne, Delphine and Lodge, Adam and Vollmer, Waldemar and Arthur, Michel and Hugonnet, Jean-Emmanuel}}}
\bibcite{Vollmer2008}{{48}{2008}{{Vollmer and Bertsche}}{{Vollmer, Waldemar and Bertsche, Ute}}}
\bibcite{Vollmer2001}{{49}{2001}{{Vollmer and H{\"{o}}ltje}}{{Vollmer, Waldemar and H{\"{o}}ltje, Joachim Volker}}}
\bibcite{Wang2012}{{50}{2012}{{Wang et~al.}}{{Wang, M. and Audi, G. and Wapstra, A.H. and Kondev, F.G. and MacCormick, M. and Xu, X. and Pfeiffer, B.}}}
\bibcite{Wientjes1985}{{51}{1985}{{Wientjes et~al.}}{{Wientjes, F. B. and Pas, E. and Taschner, P. E.M. and Woldringh, C. L.}}}
\bibcite{Zapun2008}{{52}{2008}{{Zapun et~al.}}{{Zapun, Andr{\'{e}} and Contreras-Martel, Carlos and Vernet, Thierry}}}
\newlabel{LastPage}{{}{43}{}{page.43}{}}
\xdef\lastpage@lastpage{43}
\xdef\lastpage@lastpageHy{43}
