PWD /media/kantundpeterpan/fast2/confinement/thesis/7_pg_labeling/bioarxiv_elife
INPUT /etc/texmf/web2c/texmf.cnf
INPUT /usr/share/texmf/web2c/texmf.cnf
INPUT /usr/share/texlive/texmf-dist/web2c/texmf.cnf
INPUT /var/lib/texmf/web2c/pdftex/pdflatex.fmt
INPUT pg_label_elife.tex
OUTPUT pg_label_elife.log
INPUT elife.cls
INPUT elife.cls
INPUT /usr/share/texlive/texmf-dist/tex/generic/babel/babel.sty
INPUT /usr/share/texlive/texmf-dist/tex/generic/babel/babel.sty
INPUT /usr/share/texlive/texmf-dist/tex/generic/babel/switch.def
INPUT /usr/share/texlive/texmf-dist/tex/generic/babel-english/english.ldf
INPUT /usr/share/texlive/texmf-dist/tex/generic/babel-english/english.ldf
INPUT /usr/share/texlive/texmf-dist/tex/generic/babel/babel.def
INPUT /usr/share/texlive/texmf-dist/tex/generic/babel/txtbabel.def
INPUT /usr/share/texlive/texmf-dist/tex/latex/tools/calc.sty
INPUT /usr/share/texlive/texmf-dist/tex/latex/tools/calc.sty
INPUT /usr/share/texlive/texmf-dist/tex/latex/etoolbox/etoolbox.sty
INPUT /usr/share/texlive/texmf-dist/tex/latex/etoolbox/etoolbox.sty
INPUT /usr/share/texlive/texmf-dist/tex/latex/regexpatch/regexpatch.sty
INPUT /usr/share/texlive/texmf-dist/tex/latex/regexpatch/regexpatch.sty
INPUT /home/kantundpeterpan/texmf/tex/latex/l3kernel/expl3.sty
INPUT /home/kantundpeterpan/texmf/tex/latex/l3kernel/expl3.sty
INPUT /home/kantundpeterpan/texmf/tex/latex/l3kernel/expl3-code.tex
INPUT /dev/null
INPUT /usr/share/texlive/texmf-dist/fonts/map/fontname/texfonts.map
INPUT /usr/share/texlive/texmf-dist/fonts/tfm/public/cm/cmr10.tfm
INPUT /usr/share/texlive/texmf-dist/fonts/tfm/public/cm/cmr10.tfm
INPUT /usr/share/texlive/texmf-dist/fonts/tfm/public/cm/cmr10.tfm
INPUT /usr/share/texlive/texmf-dist/fonts/tfm/public/cm/cmr10.tfm
INPUT /usr/share/texlive/texmf-dist/fonts/tfm/public/cm/cmr10.tfm
INPUT /usr/share/texlive/texmf-dist/fonts/tfm/public/cm/cmr10.tfm
INPUT /usr/share/texlive/texmf-dist/fonts/tfm/public/cm/cmr10.tfm
INPUT /usr/share/texlive/texmf-dist/fonts/tfm/public/cm/cmr10.tfm
INPUT /usr/share/texlive/texmf-dist/fonts/tfm/public/cm/cmr10.tfm
INPUT /usr/share/texlive/texmf-dist/fonts/tfm/public/cm/cmr10.tfm
INPUT /usr/share/texlive/texmf-dist/fonts/tfm/public/cm/cmr10.tfm
INPUT /usr/share/texlive/texmf-dist/fonts/tfm/public/cm/cmr10.tfm
INPUT /usr/share/texlive/texmf-dist/fonts/tfm/public/cm/cmr10.tfm
INPUT /usr/share/texlive/texmf-dist/tex/generic/unicode-data/UnicodeData.txt
INPUT /usr/share/texlive/texmf-dist/tex/generic/unicode-data/UnicodeData.txt
INPUT /home/kantundpeterpan/texmf/tex/latex/l3kernel/l3deprecation.def
INPUT /home/kantundpeterpan/texmf/tex/latex/l3kernel/l3deprecation.def
INPUT /home/kantundpeterpan/texmf/tex/latex/l3backend/l3backend-pdftex.def
INPUT /home/kantundpeterpan/texmf/tex/latex/l3backend/l3backend-pdftex.def
INPUT /home/kantundpeterpan/texmf/tex/latex/l3packages/xparse/xparse.sty
INPUT /home/kantundpeterpan/texmf/tex/latex/l3packages/xparse/xparse.sty
INPUT /home/kantundpeterpan/texmf/tex/latex/l3packages/xparse/xparse-2018-04-12.sty
INPUT /home/kantundpeterpan/texmf/tex/latex/l3packages/xparse/xparse-2018-04-12.sty
INPUT /usr/share/texlive/texmf-dist/tex/generic/ifxetex/ifxetex.sty
INPUT /usr/share/texlive/texmf-dist/tex/generic/ifxetex/ifxetex.sty
INPUT /usr/share/texlive/texmf-dist/tex/generic/oberdiek/ifluatex.sty
INPUT /usr/share/texlive/texmf-dist/tex/generic/oberdiek/ifluatex.sty
INPUT /usr/share/texlive/texmf-dist/tex/latex/extsizes/extarticle.cls
INPUT /usr/share/texlive/texmf-dist/tex/latex/extsizes/extarticle.cls
INPUT /usr/share/texlive/texmf-dist/tex/latex/extsizes/size9.clo
INPUT /usr/share/texlive/texmf-dist/tex/latex/extsizes/size9.clo
INPUT /usr/share/texlive/texmf-dist/fonts/tfm/public/cm/cmr9.tfm
INPUT /usr/share/texlive/texmf-dist/tex/latex/base/exscale.sty
INPUT /usr/share/texlive/texmf-dist/tex/latex/base/exscale.sty
INPUT /usr/share/texlive/texmf-dist/tex/latex/amsmath/amsmath.sty
INPUT /usr/share/texlive/texmf-dist/tex/latex/amsmath/amsmath.sty
INPUT /usr/share/texlive/texmf-dist/tex/latex/amsmath/amstext.sty
INPUT /usr/share/texlive/texmf-dist/tex/latex/amsmath/amstext.sty
INPUT /usr/share/texlive/texmf-dist/tex/latex/amsmath/amsgen.sty
INPUT /usr/share/texlive/texmf-dist/tex/latex/amsmath/amsgen.sty
INPUT /usr/share/texlive/texmf-dist/tex/latex/amsmath/amsbsy.sty
INPUT /usr/share/texlive/texmf-dist/tex/latex/amsmath/amsbsy.sty
INPUT /usr/share/texlive/texmf-dist/tex/latex/amsmath/amsopn.sty
INPUT /usr/share/texlive/texmf-dist/tex/latex/amsmath/amsopn.sty
INPUT /usr/share/texlive/texmf-dist/tex/latex/mdframed/mdframed.sty
INPUT /usr/share/texlive/texmf-dist/tex/latex/mdframed/mdframed.sty
INPUT /usr/share/texlive/texmf-dist/tex/latex/oberdiek/kvoptions.sty
INPUT /usr/share/texlive/texmf-dist/tex/latex/oberdiek/kvoptions.sty
INPUT /usr/share/texlive/texmf-dist/tex/latex/graphics/keyval.sty
INPUT /usr/share/texlive/texmf-dist/tex/latex/graphics/keyval.sty
INPUT /usr/share/texlive/texmf-dist/tex/generic/oberdiek/ltxcmds.sty
INPUT /usr/share/texlive/texmf-dist/tex/generic/oberdiek/ltxcmds.sty
INPUT /usr/share/texlive/texmf-dist/tex/generic/oberdiek/kvsetkeys.sty
INPUT /usr/share/texlive/texmf-dist/tex/generic/oberdiek/kvsetkeys.sty
INPUT /usr/share/texlive/texmf-dist/tex/generic/oberdiek/infwarerr.sty
INPUT /usr/share/texlive/texmf-dist/tex/generic/oberdiek/infwarerr.sty
INPUT /usr/share/texlive/texmf-dist/tex/generic/oberdiek/etexcmds.sty
INPUT /usr/share/texlive/texmf-dist/tex/generic/oberdiek/etexcmds.sty
INPUT /usr/share/texlive/texmf-dist/tex/latex/oberdiek/zref-abspage.sty
INPUT /usr/share/texlive/texmf-dist/tex/latex/oberdiek/zref-abspage.sty
INPUT /usr/share/texlive/texmf-dist/tex/latex/oberdiek/zref-base.sty
INPUT /usr/share/texlive/texmf-dist/tex/latex/oberdiek/zref-base.sty
INPUT /usr/share/texlive/texmf-dist/tex/generic/oberdiek/kvdefinekeys.sty
INPUT /usr/share/texlive/texmf-dist/tex/generic/oberdiek/kvdefinekeys.sty
INPUT /usr/share/texlive/texmf-dist/tex/generic/oberdiek/pdftexcmds.sty
INPUT /usr/share/texlive/texmf-dist/tex/generic/oberdiek/pdftexcmds.sty
INPUT /usr/share/texlive/texmf-dist/tex/generic/oberdiek/ifpdf.sty
INPUT /usr/share/texlive/texmf-dist/tex/generic/oberdiek/ifpdf.sty
INPUT /usr/share/texlive/texmf-dist/tex/latex/oberdiek/auxhook.sty
INPUT /usr/share/texlive/texmf-dist/tex/latex/oberdiek/auxhook.sty
INPUT /usr/share/texlive/texmf-dist/tex/generic/oberdiek/atbegshi.sty
INPUT /usr/share/texlive/texmf-dist/tex/generic/oberdiek/atbegshi.sty
INPUT /usr/share/texlive/texmf-dist/tex/latex/needspace/needspace.sty
INPUT /usr/share/texlive/texmf-dist/tex/latex/needspace/needspace.sty
INPUT /usr/share/texlive/texmf-dist/tex/latex/graphics/color.sty
INPUT /usr/share/texlive/texmf-dist/tex/latex/graphics/color.sty
INPUT /usr/share/texlive/texmf-dist/tex/latex/graphics-cfg/color.cfg
INPUT /usr/share/texlive/texmf-dist/tex/latex/graphics-cfg/color.cfg
INPUT /usr/share/texlive/texmf-dist/tex/latex/graphics-def/pdftex.def
INPUT /usr/share/texlive/texmf-dist/tex/latex/graphics-def/pdftex.def
INPUT /usr/share/texlive/texmf-dist/tex/latex/mdframed/md-frame-0.mdf
INPUT /usr/share/texlive/texmf-dist/tex/latex/mdframed/md-frame-0.mdf
INPUT /usr/share/texlive/texmf-dist/tex/latex/lineno/lineno.sty
INPUT /usr/share/texlive/texmf-dist/tex/latex/lineno/lineno.sty
INPUT /usr/share/texlive/texmf-dist/tex/latex/base/fontenc.sty
INPUT /usr/share/texlive/texmf-dist/tex/latex/base/fontenc.sty
INPUT /usr/share/texlive/texmf-dist/tex/latex/base/t1enc.def
INPUT /usr/share/texlive/texmf-dist/tex/latex/base/t1enc.def
INPUT /usr/share/texlive/texmf-dist/fonts/tfm/jknappen/ec/ecrm0900.tfm
INPUT /usr/share/texlive/texmf-dist/tex/latex/base/inputenc.sty
INPUT /usr/share/texlive/texmf-dist/tex/latex/base/inputenc.sty
INPUT /home/kantundpeterpan/texmf/tex/latex/stix/stix.sty
INPUT /home/kantundpeterpan/texmf/tex/latex/stix/stix.sty
INPUT /usr/share/texlive/texmf-dist/tex/latex/base/textcomp.sty
INPUT /usr/share/texlive/texmf-dist/tex/latex/base/textcomp.sty
INPUT /usr/share/texlive/texmf-dist/tex/latex/base/ts1enc.def
INPUT /usr/share/texlive/texmf-dist/tex/latex/base/ts1enc.def
INPUT /usr/share/texlive/texmf-dist/tex/latex/base/ts1enc.dfu
INPUT /usr/share/texlive/texmf-dist/tex/latex/base/ts1enc.dfu
INPUT /home/kantundpeterpan/texmf/tex/latex/opensans/opensans.sty
INPUT /home/kantundpeterpan/texmf/tex/latex/opensans/opensans.sty
INPUT /usr/share/texlive/texmf-dist/tex/latex/fontaxes/fontaxes.sty
INPUT /usr/share/texlive/texmf-dist/tex/latex/fontaxes/fontaxes.sty
INPUT /usr/share/texlive/texmf-dist/tex/latex/xkeyval/xkeyval.sty
INPUT /usr/share/texlive/texmf-dist/tex/latex/xkeyval/xkeyval.sty
INPUT /usr/share/texlive/texmf-dist/tex/generic/xkeyval/xkeyval.tex
INPUT /usr/share/texlive/texmf-dist/tex/generic/xkeyval/xkvutils.tex
INPUT /usr/share/texlive/texmf-dist/tex/latex/microtype/microtype.sty
INPUT /usr/share/texlive/texmf-dist/tex/latex/microtype/microtype.sty
INPUT /usr/share/texlive/texmf-dist/tex/latex/microtype/microtype-pdftex.def
INPUT /usr/share/texlive/texmf-dist/tex/latex/microtype/microtype-pdftex.def
INPUT /usr/share/texlive/texmf-dist/tex/latex/microtype/microtype.cfg
INPUT /usr/share/texlive/texmf-dist/tex/latex/microtype/microtype.cfg
INPUT /usr/share/texlive/texmf-dist/tex/latex/microtype/microtype.cfg
INPUT /usr/share/texlive/texmf-dist/tex/latex/graphics/graphicx.sty
INPUT /usr/share/texlive/texmf-dist/tex/latex/graphics/graphicx.sty
INPUT /usr/share/texlive/texmf-dist/tex/latex/graphics/graphics.sty
INPUT /usr/share/texlive/texmf-dist/tex/latex/graphics/graphics.sty
INPUT /usr/share/texlive/texmf-dist/tex/latex/graphics/trig.sty
INPUT /usr/share/texlive/texmf-dist/tex/latex/graphics/trig.sty
INPUT /usr/share/texlive/texmf-dist/tex/latex/graphics-cfg/graphics.cfg
INPUT /usr/share/texlive/texmf-dist/tex/latex/graphics-cfg/graphics.cfg
INPUT /usr/share/texlive/texmf-dist/tex/latex/xcolor/xcolor.sty
INPUT /usr/share/texlive/texmf-dist/tex/latex/xcolor/xcolor.sty
INPUT /usr/share/texlive/texmf-dist/tex/latex/graphics-cfg/color.cfg
INPUT /usr/share/texlive/texmf-dist/tex/latex/graphics-cfg/color.cfg
INPUT /usr/share/texlive/texmf-dist/tex/latex/booktabs/booktabs.sty
INPUT /usr/share/texlive/texmf-dist/tex/latex/booktabs/booktabs.sty
INPUT /usr/share/texlive/texmf-dist/tex/latex/preprint/authblk.sty
INPUT /usr/share/texlive/texmf-dist/tex/latex/preprint/authblk.sty
INPUT /usr/share/texlive/texmf-dist/tex/latex/geometry/geometry.sty
INPUT /usr/share/texlive/texmf-dist/tex/latex/geometry/geometry.sty
INPUT /usr/share/texlive/texmf-dist/tex/generic/oberdiek/ifvtex.sty
INPUT /usr/share/texlive/texmf-dist/tex/generic/oberdiek/ifvtex.sty
INPUT /usr/share/texlive/texmf-dist/tex/latex/changepage/changepage.sty
INPUT /usr/share/texlive/texmf-dist/tex/latex/changepage/changepage.sty
INPUT /usr/share/texlive/texmf-dist/tex/latex/silence/silence.sty
INPUT /usr/share/texlive/texmf-dist/tex/latex/silence/silence.sty
INPUT /usr/share/texlive/texmf-dist/tex/latex/caption/caption.sty
INPUT /usr/share/texlive/texmf-dist/tex/latex/caption/caption.sty
INPUT /usr/share/texlive/texmf-dist/tex/latex/caption/caption3.sty
INPUT /usr/share/texlive/texmf-dist/tex/latex/caption/caption3.sty
INPUT /usr/share/texlive/texmf-dist/tex/latex/natbib/natbib.sty
INPUT /usr/share/texlive/texmf-dist/tex/latex/natbib/natbib.sty
INPUT vancouver-elife.bst
INPUT /usr/share/texlive/texmf-dist/tex/latex/fancyhdr/fancyhdr.sty
INPUT /usr/share/texlive/texmf-dist/tex/latex/fancyhdr/fancyhdr.sty
INPUT /usr/share/texlive/texmf-dist/tex/latex/lastpage/lastpage.sty
INPUT /usr/share/texlive/texmf-dist/tex/latex/lastpage/lastpage.sty
INPUT /usr/share/texlive/texmf-dist/tex/latex/titlesec/titlesec.sty
INPUT /usr/share/texlive/texmf-dist/tex/latex/titlesec/titlesec.sty
INPUT /usr/share/texlive/texmf-dist/tex/latex/enumitem/enumitem.sty
INPUT /usr/share/texlive/texmf-dist/tex/latex/enumitem/enumitem.sty
INPUT /usr/share/texlive/texmf-dist/tex/generic/oberdiek/alphalph.sty
INPUT /usr/share/texlive/texmf-dist/tex/generic/oberdiek/alphalph.sty
INPUT /usr/share/texlive/texmf-dist/tex/generic/oberdiek/intcalc.sty
INPUT /usr/share/texlive/texmf-dist/tex/generic/oberdiek/intcalc.sty
INPUT /usr/share/texlive/texmf-dist/tex/latex/caption/newfloat.sty
INPUT /usr/share/texlive/texmf-dist/tex/latex/caption/newfloat.sty
INPUT /usr/share/texlive/texmf-dist/tex/latex/wrapfig/wrapfig.sty
INPUT /usr/share/texlive/texmf-dist/tex/latex/wrapfig/wrapfig.sty
INPUT /usr/share/texlive/texmf-dist/tex/latex/newfile/newfile.sty
INPUT /usr/share/texlive/texmf-dist/tex/latex/newfile/newfile.sty
INPUT /usr/share/texlive/texmf-dist/tex/latex/tools/verbatim.sty
INPUT /usr/share/texlive/texmf-dist/tex/latex/tools/verbatim.sty
OUTPUT pg_label_elife.suppinfo
INPUT /usr/share/texlive/texmf-dist/tex/latex/hyperref/hyperref.sty
INPUT /usr/share/texlive/texmf-dist/tex/latex/hyperref/hyperref.sty
INPUT /usr/share/texlive/texmf-dist/tex/generic/oberdiek/hobsub-hyperref.sty
INPUT /usr/share/texlive/texmf-dist/tex/generic/oberdiek/hobsub-hyperref.sty
INPUT /usr/share/texlive/texmf-dist/tex/generic/oberdiek/hobsub-hyperref.sty
INPUT /usr/share/texlive/texmf-dist/tex/generic/oberdiek/hobsub-generic.sty
INPUT /usr/share/texlive/texmf-dist/tex/generic/oberdiek/hobsub-generic.sty
INPUT /usr/share/texlive/texmf-dist/tex/latex/hyperref/pd1enc.def
INPUT /usr/share/texlive/texmf-dist/tex/latex/hyperref/pd1enc.def
INPUT /usr/share/texlive/texmf-dist/tex/latex/latexconfig/hyperref.cfg
INPUT /usr/share/texlive/texmf-dist/tex/latex/latexconfig/hyperref.cfg
INPUT /usr/share/texlive/texmf-dist/tex/latex/url/url.sty
INPUT /usr/share/texlive/texmf-dist/tex/latex/url/url.sty
INPUT /usr/share/texlive/texmf-dist/tex/latex/hyperref/hpdftex.def
INPUT /usr/share/texlive/texmf-dist/tex/latex/hyperref/hpdftex.def
INPUT /usr/share/texlive/texmf-dist/tex/latex/oberdiek/rerunfilecheck.sty
INPUT /usr/share/texlive/texmf-dist/tex/latex/oberdiek/rerunfilecheck.sty
INPUT /usr/share/texlive/texmf-dist/tex/latex/lipsum/lipsum.sty
INPUT /usr/share/texlive/texmf-dist/tex/latex/lipsum/lipsum.sty
INPUT /usr/share/texlive/texmf-dist/tex/latex/lipsum/lipsum.ltd.tex
INPUT /usr/share/texlive/texmf-dist/tex/latex/lipsum/lipsum.ltd.tex
INPUT mhchem.sty
INPUT mhchem.sty
INPUT /home/kantundpeterpan/texmf/tex/latex/l3packages/l3keys2e/l3keys2e.sty
INPUT /home/kantundpeterpan/texmf/tex/latex/l3packages/l3keys2e/l3keys2e.sty
INPUT chemgreek.sty
INPUT chemgreek.sty
INPUT /home/kantundpeterpan/texmf/tex/latex/siunitx/siunitx.sty
INPUT /home/kantundpeterpan/texmf/tex/latex/siunitx/siunitx.sty
INPUT /usr/share/texlive/texmf-dist/tex/latex/translations/translations.sty
INPUT /usr/share/texlive/texmf-dist/tex/latex/translations/translations.sty
INPUT /usr/share/texlive/texmf-dist/tex/latex/translations/translations.sty
INPUT /usr/share/texlive/texmf-dist/tex/latex/koma-script/scrlfile.sty
INPUT /usr/share/texlive/texmf-dist/tex/latex/koma-script/scrlfile.sty
INPUT /usr/share/texlive/texmf-dist/tex/latex/tools/array.sty
INPUT /usr/share/texlive/texmf-dist/tex/latex/tools/array.sty
INPUT /usr/share/texlive/texmf-dist/tex/latex/adjustbox/adjustbox.sty
INPUT /usr/share/texlive/texmf-dist/tex/latex/adjustbox/adjustbox.sty
INPUT /usr/share/texlive/texmf-dist/tex/latex/adjustbox/adjcalc.sty
INPUT /usr/share/texlive/texmf-dist/tex/latex/adjustbox/adjcalc.sty
INPUT /usr/share/texlive/texmf-dist/tex/latex/adjustbox/trimclip.sty
INPUT /usr/share/texlive/texmf-dist/tex/latex/adjustbox/trimclip.sty
INPUT /usr/share/texlive/texmf-dist/tex/latex/collectbox/collectbox.sty
INPUT /usr/share/texlive/texmf-dist/tex/latex/collectbox/collectbox.sty
INPUT /usr/share/texlive/texmf-dist/tex/latex/adjustbox/tc-pdftex.def
INPUT /usr/share/texlive/texmf-dist/tex/latex/adjustbox/tc-pdftex.def
INPUT /usr/share/texlive/texmf-dist/tex/latex/ifoddpage/ifoddpage.sty
INPUT /usr/share/texlive/texmf-dist/tex/latex/ifoddpage/ifoddpage.sty
INPUT /usr/share/texlive/texmf-dist/tex/latex/ifoddpage/ifoddpage.sty
INPUT /usr/share/texlive/texmf-dist/tex/latex/varwidth/varwidth.sty
INPUT /usr/share/texlive/texmf-dist/tex/latex/varwidth/varwidth.sty
INPUT /usr/share/texlive/texmf-dist/tex/latex/varwidth/varwidth.sty
INPUT /usr/share/texlive/texmf-dist/tex/latex/base/fontenc.sty
INPUT /usr/share/texlive/texmf-dist/tex/latex/base/fontenc.sty
INPUT /usr/share/texlive/texmf-dist/tex/latex/base/t1enc.def
INPUT /usr/share/texlive/texmf-dist/tex/latex/base/t1enc.def
INPUT /usr/share/texlive/texmf-dist/tex/latex/psnfss/helvet.sty
INPUT /usr/share/texlive/texmf-dist/tex/latex/psnfss/helvet.sty
INPUT /home/kantundpeterpan/texmf/tex/latex/opensans/T1opensans-TLF.fd
INPUT /home/kantundpeterpan/texmf/tex/latex/opensans/T1opensans-TLF.fd
INPUT /home/kantundpeterpan/texmf/fonts/tfm/ascender/opensans/OpenSans-Regular-T1-TLF.tfm
INPUT /usr/share/texlive/texmf-dist/tex/latex/psnfss/t1phv.fd
INPUT /usr/share/texlive/texmf-dist/tex/latex/psnfss/t1phv.fd
INPUT /usr/share/texlive/texmf-dist/fonts/tfm/adobe/helvetic/phvr8t.tfm
INPUT /usr/share/texlive/texmf-dist/tex/latex/multirow/multirow.sty
INPUT /usr/share/texlive/texmf-dist/tex/latex/multirow/multirow.sty
INPUT pg_label_elife.aux
INPUT pg_label_elife.aux
OUTPUT pg_label_elife.aux
INPUT /usr/share/texlive/texmf-dist/tex/latex/base/ts1cmr.fd
INPUT /usr/share/texlive/texmf-dist/tex/latex/base/ts1cmr.fd
INPUT /home/kantundpeterpan/texmf/tex/latex/stix/ls1stix.fd
INPUT /home/kantundpeterpan/texmf/tex/latex/stix/ls1stix.fd
INPUT /home/kantundpeterpan/texmf/tex/latex/stix/ls2stix.fd
INPUT /home/kantundpeterpan/texmf/tex/latex/stix/ls2stix.fd
INPUT /usr/share/texlive/texmf-dist/tex/context/base/mkii/supp-pdf.mkii
INPUT /usr/share/texlive/texmf-dist/tex/context/base/mkii/supp-pdf.mkii
INPUT /usr/share/texlive/texmf-dist/tex/latex/oberdiek/epstopdf-base.sty
INPUT /usr/share/texlive/texmf-dist/tex/latex/oberdiek/epstopdf-base.sty
INPUT /usr/share/texlive/texmf-dist/tex/latex/oberdiek/grfext.sty
INPUT /usr/share/texlive/texmf-dist/tex/latex/oberdiek/grfext.sty
INPUT /usr/share/texlive/texmf-dist/tex/latex/latexconfig/epstopdf-sys.cfg
INPUT /usr/share/texlive/texmf-dist/tex/latex/latexconfig/epstopdf-sys.cfg
INPUT /usr/share/texlive/texmf-dist/tex/latex/hyperref/nameref.sty
INPUT /usr/share/texlive/texmf-dist/tex/latex/hyperref/nameref.sty
INPUT /usr/share/texlive/texmf-dist/tex/generic/oberdiek/gettitlestring.sty
INPUT /usr/share/texlive/texmf-dist/tex/generic/oberdiek/gettitlestring.sty
INPUT pg_label_elife.out
INPUT pg_label_elife.out
INPUT pg_label_elife.out
INPUT pg_label_elife.out
OUTPUT pg_label_elife.pdf
INPUT ./pg_label_elife.out
INPUT ./pg_label_elife.out
OUTPUT pg_label_elife.out
INPUT /usr/share/texlive/texmf-dist/tex/latex/translations/translations-basic-dictionary-english.trsl
INPUT /usr/share/texlive/texmf-dist/tex/latex/translations/translations-basic-dictionary-english.trsl
INPUT /home/kantundpeterpan/texmf/fonts/tfm/ascender/opensans/OpenSans-Bold-T1-TLF.tfm
INPUT /home/kantundpeterpan/texmf/fonts/tfm/ascender/opensans/OpenSans-Bold-T1-TLF.tfm
INPUT /home/kantundpeterpan/texmf/fonts/tfm/ascender/opensans/OpenSans-Regular-T1-TLF.tfm
INPUT /home/kantundpeterpan/texmf/fonts/tfm/ascender/opensans/OpenSans-Regular-T1-TLF.tfm
INPUT /usr/share/texmf/tex/latex/lm/t1lmss.fd
INPUT /usr/share/texmf/tex/latex/lm/t1lmss.fd
INPUT /usr/share/texmf/fonts/tfm/public/lm/ec-lmss8.tfm
INPUT /home/kantundpeterpan/texmf/fonts/tfm/ascender/opensans/OpenSans-Bold-T1-TLF.tfm
INPUT /home/kantundpeterpan/texmf/fonts/tfm/public/stix/stix-mathrm.tfm
INPUT /home/kantundpeterpan/texmf/fonts/tfm/public/stix/stix-mathrm.tfm
INPUT /home/kantundpeterpan/texmf/fonts/tfm/public/stix/stix-mathrm.tfm
INPUT /home/kantundpeterpan/texmf/fonts/tfm/public/stix/stix-mathit.tfm
INPUT /home/kantundpeterpan/texmf/fonts/tfm/public/stix/stix-mathit.tfm
INPUT /home/kantundpeterpan/texmf/fonts/tfm/public/stix/stix-mathit.tfm
INPUT /home/kantundpeterpan/texmf/tex/latex/stix/ls1stixscr.fd
INPUT /home/kantundpeterpan/texmf/tex/latex/stix/ls1stixscr.fd
INPUT /home/kantundpeterpan/texmf/fonts/tfm/public/stix/stix-mathscr.tfm
INPUT /home/kantundpeterpan/texmf/fonts/tfm/public/stix/stix-mathscr.tfm
INPUT /home/kantundpeterpan/texmf/fonts/tfm/public/stix/stix-mathscr.tfm
INPUT /home/kantundpeterpan/texmf/tex/latex/stix/ls2stixex.fd
INPUT /home/kantundpeterpan/texmf/tex/latex/stix/ls2stixex.fd
INPUT /home/kantundpeterpan/texmf/fonts/tfm/public/stix/stix-mathex.tfm
INPUT /home/kantundpeterpan/texmf/fonts/tfm/public/stix/stix-mathex.tfm
INPUT /home/kantundpeterpan/texmf/fonts/tfm/public/stix/stix-mathex.tfm
INPUT /home/kantundpeterpan/texmf/fonts/tfm/public/stix/stix-mathrm-bold.tfm
INPUT /home/kantundpeterpan/texmf/fonts/tfm/public/stix/stix-mathrm-bold.tfm
INPUT /home/kantundpeterpan/texmf/fonts/tfm/public/stix/stix-mathrm-bold.tfm
INPUT /home/kantundpeterpan/texmf/tex/latex/stix/ls1stixfrak.fd
INPUT /home/kantundpeterpan/texmf/tex/latex/stix/ls1stixfrak.fd
INPUT /home/kantundpeterpan/texmf/fonts/tfm/public/stix/stix-mathfrak.tfm
INPUT /home/kantundpeterpan/texmf/fonts/tfm/public/stix/stix-mathfrak.tfm
INPUT /home/kantundpeterpan/texmf/fonts/tfm/public/stix/stix-mathfrak.tfm
INPUT /home/kantundpeterpan/texmf/tex/latex/stix/ls1stixbb.fd
INPUT /home/kantundpeterpan/texmf/tex/latex/stix/ls1stixbb.fd
INPUT /home/kantundpeterpan/texmf/fonts/tfm/public/stix/stix-mathbb.tfm
INPUT /home/kantundpeterpan/texmf/fonts/tfm/public/stix/stix-mathbb.tfm
INPUT /home/kantundpeterpan/texmf/fonts/tfm/public/stix/stix-mathbb.tfm
INPUT /home/kantundpeterpan/texmf/fonts/tfm/public/stix/stix-mathbbit.tfm
INPUT /home/kantundpeterpan/texmf/fonts/tfm/public/stix/stix-mathbbit.tfm
INPUT /home/kantundpeterpan/texmf/fonts/tfm/public/stix/stix-mathbbit.tfm
INPUT /home/kantundpeterpan/texmf/tex/latex/stix/ls2stixcal.fd
INPUT /home/kantundpeterpan/texmf/tex/latex/stix/ls2stixcal.fd
INPUT /home/kantundpeterpan/texmf/fonts/tfm/public/stix/stix-mathcal.tfm
INPUT /home/kantundpeterpan/texmf/fonts/tfm/public/stix/stix-mathcal.tfm
INPUT /home/kantundpeterpan/texmf/fonts/tfm/public/stix/stix-mathcal.tfm
INPUT /home/kantundpeterpan/texmf/tex/latex/stix/ls1stixsf.fd
INPUT /home/kantundpeterpan/texmf/tex/latex/stix/ls1stixsf.fd
INPUT /home/kantundpeterpan/texmf/fonts/tfm/public/stix/stix-mathsf.tfm
INPUT /home/kantundpeterpan/texmf/fonts/tfm/public/stix/stix-mathsf.tfm
INPUT /home/kantundpeterpan/texmf/fonts/tfm/public/stix/stix-mathsf.tfm
INPUT /home/kantundpeterpan/texmf/fonts/tfm/public/stix/stix-mathsfit.tfm
INPUT /home/kantundpeterpan/texmf/fonts/tfm/public/stix/stix-mathsfit.tfm
INPUT /home/kantundpeterpan/texmf/fonts/tfm/public/stix/stix-mathsfit.tfm
INPUT /home/kantundpeterpan/texmf/tex/latex/stix/ls2stixtt.fd
INPUT /home/kantundpeterpan/texmf/tex/latex/stix/ls2stixtt.fd
INPUT /home/kantundpeterpan/texmf/fonts/tfm/public/stix/stix-mathtt.tfm
INPUT /home/kantundpeterpan/texmf/fonts/tfm/public/stix/stix-mathtt.tfm
INPUT /home/kantundpeterpan/texmf/fonts/tfm/public/stix/stix-mathtt.tfm
INPUT /home/kantundpeterpan/texmf/fonts/tfm/ascender/opensans/OpenSans-Bold-T1-TLF.tfm
INPUT /home/kantundpeterpan/texmf/fonts/tfm/ascender/opensans/OpenSans-Regular-T1-TLF.tfm
INPUT /home/kantundpeterpan/texmf/fonts/tfm/ascender/opensans/OpenSans-Regular-T1-TLF.tfm
INPUT /home/kantundpeterpan/texmf/fonts/tfm/ascender/opensans/OpenSans-Regular-T1-TLF.tfm
INPUT /home/kantundpeterpan/texmf/fonts/tfm/ascender/opensans/OpenSans-Bold-T1-TLF.tfm
INPUT /usr/share/texmf/fonts/tfm/public/lm/ec-lmss8.tfm
INPUT /home/kantundpeterpan/texmf/fonts/tfm/public/stix/stix-mathrm.tfm
INPUT /home/kantundpeterpan/texmf/fonts/tfm/public/stix/stix-mathrm.tfm
INPUT /home/kantundpeterpan/texmf/fonts/tfm/public/stix/stix-mathit.tfm
INPUT /home/kantundpeterpan/texmf/fonts/tfm/public/stix/stix-mathit.tfm
INPUT /home/kantundpeterpan/texmf/fonts/tfm/public/stix/stix-mathscr.tfm
INPUT /home/kantundpeterpan/texmf/fonts/tfm/public/stix/stix-mathscr.tfm
INPUT /home/kantundpeterpan/texmf/fonts/tfm/public/stix/stix-mathex.tfm
INPUT /home/kantundpeterpan/texmf/fonts/tfm/public/stix/stix-mathex.tfm
INPUT /home/kantundpeterpan/texmf/fonts/tfm/public/stix/stix-mathrm-bold.tfm
INPUT /home/kantundpeterpan/texmf/fonts/tfm/public/stix/stix-mathrm-bold.tfm
INPUT /home/kantundpeterpan/texmf/fonts/tfm/public/stix/stix-mathfrak.tfm
INPUT /home/kantundpeterpan/texmf/fonts/tfm/public/stix/stix-mathfrak.tfm
INPUT /home/kantundpeterpan/texmf/fonts/tfm/public/stix/stix-mathbb.tfm
INPUT /home/kantundpeterpan/texmf/fonts/tfm/public/stix/stix-mathbb.tfm
INPUT /home/kantundpeterpan/texmf/fonts/tfm/public/stix/stix-mathbbit.tfm
INPUT /home/kantundpeterpan/texmf/fonts/tfm/public/stix/stix-mathbbit.tfm
INPUT /home/kantundpeterpan/texmf/fonts/tfm/public/stix/stix-mathcal.tfm
INPUT /home/kantundpeterpan/texmf/fonts/tfm/public/stix/stix-mathcal.tfm
INPUT /home/kantundpeterpan/texmf/fonts/tfm/public/stix/stix-mathsf.tfm
INPUT /home/kantundpeterpan/texmf/fonts/tfm/public/stix/stix-mathsf.tfm
INPUT /home/kantundpeterpan/texmf/fonts/tfm/public/stix/stix-mathsfit.tfm
INPUT /home/kantundpeterpan/texmf/fonts/tfm/public/stix/stix-mathsfit.tfm
INPUT /home/kantundpeterpan/texmf/fonts/tfm/public/stix/stix-mathtt.tfm
INPUT /home/kantundpeterpan/texmf/fonts/tfm/public/stix/stix-mathtt.tfm
INPUT /usr/share/texlive/texmf-dist/fonts/tfm/adobe/helvetic/phvrc8t.tfm
INPUT /home/kantundpeterpan/texmf/fonts/tfm/public/stix/stix-mathrm.tfm
INPUT /home/kantundpeterpan/texmf/fonts/tfm/public/stix/stix-mathit.tfm
INPUT /home/kantundpeterpan/texmf/fonts/tfm/public/stix/stix-mathscr.tfm
INPUT /home/kantundpeterpan/texmf/fonts/tfm/public/stix/stix-mathex.tfm
INPUT /home/kantundpeterpan/texmf/fonts/tfm/public/stix/stix-mathrm-bold.tfm
INPUT /home/kantundpeterpan/texmf/fonts/tfm/public/stix/stix-mathfrak.tfm
INPUT /home/kantundpeterpan/texmf/fonts/tfm/public/stix/stix-mathbb.tfm
INPUT /home/kantundpeterpan/texmf/fonts/tfm/public/stix/stix-mathbbit.tfm
INPUT /home/kantundpeterpan/texmf/fonts/tfm/public/stix/stix-mathcal.tfm
INPUT /home/kantundpeterpan/texmf/fonts/tfm/public/stix/stix-mathsf.tfm
INPUT /home/kantundpeterpan/texmf/fonts/tfm/public/stix/stix-mathsfit.tfm
INPUT /home/kantundpeterpan/texmf/fonts/tfm/public/stix/stix-mathtt.tfm
INPUT /home/kantundpeterpan/texmf/fonts/tfm/ascender/opensans/OpenSans-Regular-T1-TLF.tfm
INPUT /home/kantundpeterpan/texmf/fonts/tfm/ascender/opensans/OpenSans-Italic-T1-TLF.tfm
INPUT /home/kantundpeterpan/texmf/fonts/tfm/ascender/opensans/OpenSans-Regular-T1-TLF.tfm
INPUT /home/kantundpeterpan/texmf/fonts/tfm/ascender/opensans/OpenSans-Bold-T1-TLF.tfm
INPUT /home/kantundpeterpan/texmf/fonts/tfm/ascender/opensans/OpenSans-BoldItalic-T1-TLF.tfm
INPUT /home/kantundpeterpan/texmf/fonts/tfm/ascender/opensans/OpenSans-Regular-T1-TLF.tfm
INPUT /home/kantundpeterpan/texmf/fonts/vf/ascender/opensans/OpenSans-Bold-T1-TLF.vf
INPUT /home/kantundpeterpan/texmf/fonts/tfm/ascender/opensans/OpenSans-Bold-T1-TLF--base.tfm
INPUT /home/kantundpeterpan/.texlive2019/texmf-var/fonts/map/pdftex/updmap/pdftex.map
INPUT /home/kantundpeterpan/texmf/fonts/vf/ascender/opensans/OpenSans-Bold-T1-TLF.vf
INPUT /home/kantundpeterpan/texmf/fonts/tfm/ascender/opensans/OpenSans-Bold-T1-TLF--base.tfm
INPUT /home/kantundpeterpan/texmf/fonts/vf/ascender/opensans/OpenSans-Regular-T1-TLF.vf
INPUT /home/kantundpeterpan/texmf/fonts/tfm/ascender/opensans/OpenSans-Regular-T1-TLF--base.tfm
INPUT /home/kantundpeterpan/texmf/fonts/vf/ascender/opensans/OpenSans-Bold-T1-TLF.vf
INPUT /home/kantundpeterpan/texmf/fonts/tfm/ascender/opensans/OpenSans-Bold-T1-TLF--base.tfm
INPUT /home/kantundpeterpan/texmf/fonts/vf/ascender/opensans/OpenSans-Regular-T1-TLF.vf
INPUT /home/kantundpeterpan/texmf/fonts/tfm/ascender/opensans/OpenSans-Regular-T1-TLF--base.tfm
INPUT /home/kantundpeterpan/texmf/fonts/vf/ascender/opensans/OpenSans-Regular-T1-TLF.vf
INPUT /home/kantundpeterpan/texmf/fonts/tfm/ascender/opensans/OpenSans-Regular-T1-TLF--base.tfm
INPUT /home/kantundpeterpan/texmf/fonts/vf/ascender/opensans/OpenSans-Regular-T1-TLF.vf
INPUT /home/kantundpeterpan/texmf/fonts/tfm/ascender/opensans/OpenSans-Regular-T1-TLF--base.tfm
INPUT /usr/share/texlive/texmf-dist/fonts/vf/adobe/helvetic/phvrc8t.vf
INPUT /usr/share/texlive/texmf-dist/fonts/tfm/adobe/helvetic/phvr8r.tfm
INPUT /usr/share/texlive/texmf-dist/fonts/tfm/adobe/helvetic/phvr8r.tfm
INPUT /home/kantundpeterpan/texmf/fonts/vf/ascender/opensans/OpenSans-Regular-T1-TLF.vf
INPUT /home/kantundpeterpan/texmf/fonts/tfm/ascender/opensans/OpenSans-Regular-T1-TLF--base.tfm
INPUT /home/kantundpeterpan/texmf/fonts/vf/ascender/opensans/OpenSans-Italic-T1-TLF.vf
INPUT /home/kantundpeterpan/texmf/fonts/tfm/ascender/opensans/OpenSans-Italic-T1-TLF--base.tfm
INPUT /home/kantundpeterpan/texmf/fonts/vf/ascender/opensans/OpenSans-Bold-T1-TLF.vf
INPUT /home/kantundpeterpan/texmf/fonts/tfm/ascender/opensans/OpenSans-Bold-T1-TLF--base.tfm
INPUT /home/kantundpeterpan/texmf/fonts/vf/ascender/opensans/OpenSans-BoldItalic-T1-TLF.vf
INPUT /home/kantundpeterpan/texmf/fonts/tfm/ascender/opensans/OpenSans-BoldItalic-T1-TLF--base.tfm
INPUT /home/kantundpeterpan/texmf/fonts/vf/ascender/opensans/OpenSans-Regular-T1-TLF.vf
INPUT /home/kantundpeterpan/texmf/fonts/tfm/ascender/opensans/OpenSans-Regular-T1-TLF--base.tfm
INPUT ../1_introduction/figures/pg_overview.png
INPUT ../1_introduction/figures/pg_overview.png
INPUT ../1_introduction/figures/pg_overview.png
INPUT /home/kantundpeterpan/texmf/fonts/tfm/ascender/opensans/OpenSans-Bold-T1-TLF.tfm
INPUT /home/kantundpeterpan/texmf/fonts/tfm/ascender/opensans/OpenSans-BoldItalic-T1-TLF.tfm
INPUT /home/kantundpeterpan/texmf/fonts/tfm/public/stix/stix-mathrm.tfm
INPUT /home/kantundpeterpan/texmf/fonts/tfm/public/stix/stix-mathit.tfm
INPUT /home/kantundpeterpan/texmf/fonts/tfm/public/stix/stix-mathscr.tfm
INPUT /home/kantundpeterpan/texmf/fonts/tfm/public/stix/stix-mathex.tfm
INPUT /home/kantundpeterpan/texmf/fonts/tfm/public/stix/stix-mathrm-bold.tfm
INPUT /home/kantundpeterpan/texmf/fonts/tfm/public/stix/stix-mathfrak.tfm
INPUT /home/kantundpeterpan/texmf/fonts/tfm/public/stix/stix-mathbb.tfm
INPUT /home/kantundpeterpan/texmf/fonts/tfm/public/stix/stix-mathbbit.tfm
INPUT /home/kantundpeterpan/texmf/fonts/tfm/public/stix/stix-mathcal.tfm
INPUT /home/kantundpeterpan/texmf/fonts/tfm/public/stix/stix-mathsf.tfm
INPUT /home/kantundpeterpan/texmf/fonts/tfm/public/stix/stix-mathsfit.tfm
INPUT /home/kantundpeterpan/texmf/fonts/tfm/public/stix/stix-mathtt.tfm
INPUT /usr/share/texlive/texmf-dist/fonts/tfm/adobe/helvetic/phvrc8t.tfm
INPUT /home/kantundpeterpan/texmf/fonts/tfm/ascender/opensans/OpenSans-Italic-T1-TLF.tfm
INPUT ../1_introduction/figures/pg_metabolism.png
INPUT ../1_introduction/figures/pg_metabolism.png
INPUT ../1_introduction/figures/pg_metabolism.png
INPUT ../1_introduction/figures/adrr_models/adrr_calcs.png
INPUT ../1_introduction/figures/adrr_models/adrr_calcs.png
INPUT ../1_introduction/figures/adrr_models/adrr_calcs.png
INPUT /home/kantundpeterpan/texmf/fonts/vf/ascender/opensans/OpenSans-Bold-T1-TLF.vf
INPUT /home/kantundpeterpan/texmf/fonts/tfm/ascender/opensans/OpenSans-Bold-T1-TLF--base.tfm
INPUT /home/kantundpeterpan/texmf/fonts/vf/ascender/opensans/OpenSans-BoldItalic-T1-TLF.vf
INPUT /home/kantundpeterpan/texmf/fonts/tfm/ascender/opensans/OpenSans-BoldItalic-T1-TLF--base.tfm
INPUT /usr/share/texlive/texmf-dist/fonts/vf/adobe/helvetic/phvrc8t.vf
INPUT /usr/share/texlive/texmf-dist/fonts/tfm/adobe/helvetic/phvr8r.tfm
INPUT /usr/share/texlive/texmf-dist/fonts/tfm/adobe/helvetic/phvr8r.tfm
INPUT /home/kantundpeterpan/texmf/fonts/vf/ascender/opensans/OpenSans-Italic-T1-TLF.vf
INPUT /home/kantundpeterpan/texmf/fonts/tfm/ascender/opensans/OpenSans-Italic-T1-TLF--base.tfm
INPUT /home/kantundpeterpan/texmf/tex/latex/opensans/TS1opensans-TLF.fd
INPUT /home/kantundpeterpan/texmf/tex/latex/opensans/TS1opensans-TLF.fd
INPUT /home/kantundpeterpan/texmf/fonts/tfm/ascender/opensans/OpenSans-Regular-TS1-TLF.tfm
INPUT /home/kantundpeterpan/texmf/fonts/vf/ascender/opensans/OpenSans-Regular-TS1-TLF.vf
INPUT /home/kantundpeterpan/texmf/fonts/tfm/ascender/opensans/OpenSans-Regular-TS1-TLF--base.tfm
INPUT /home/kantundpeterpan/texmf/fonts/tfm/ascender/opensans/OpenSans-Bold-T1-TLF.tfm
INPUT /home/kantundpeterpan/texmf/fonts/vf/ascender/opensans/OpenSans-Bold-T1-TLF.vf
INPUT /home/kantundpeterpan/texmf/fonts/tfm/ascender/opensans/OpenSans-Bold-T1-TLF--base.tfm
INPUT /home/kantundpeterpan/my_stuff_on_server/thesis/7_pg_labeling/2_matmet/figures/isotopo_calc/isotopo_calc.png
INPUT /home/kantundpeterpan/my_stuff_on_server/thesis/7_pg_labeling/2_matmet/figures/isotopo_calc/isotopo_calc.png
INPUT /home/kantundpeterpan/my_stuff_on_server/thesis/7_pg_labeling/2_matmet/figures/isotopo_calc/isotopo_calc.png
INPUT /home/kantundpeterpan/texmf/fonts/tfm/ascender/opensans/OpenSans-Regular-TS1-TLF.tfm
INPUT /home/kantundpeterpan/texmf/fonts/vf/ascender/opensans/OpenSans-Regular-TS1-TLF.vf
INPUT /home/kantundpeterpan/texmf/fonts/tfm/ascender/opensans/OpenSans-Regular-TS1-TLF--base.tfm
INPUT /home/kantundpeterpan/my_stuff_on_server/thesis/7_pg_labeling/2_matmet/figures/peak_shaping/peak_shaping.png
INPUT /home/kantundpeterpan/my_stuff_on_server/thesis/7_pg_labeling/2_matmet/figures/peak_shaping/peak_shaping.png
INPUT /home/kantundpeterpan/my_stuff_on_server/thesis/7_pg_labeling/2_matmet/figures/peak_shaping/peak_shaping.png
INPUT /home/kantundpeterpan/texmf/fonts/tfm/ascender/opensans/OpenSans-Italic-T1-TLF.tfm
INPUT ../3_results/tables/hplc_profiles/muroptable_compact.tex
INPUT ../3_results/tables/hplc_profiles/muroptable_compact.tex
INPUT /home/kantundpeterpan/texmf/fonts/vf/ascender/opensans/OpenSans-Bold-T1-TLF.vf
INPUT /home/kantundpeterpan/texmf/fonts/tfm/ascender/opensans/OpenSans-Bold-T1-TLF--base.tfm
INPUT /home/kantundpeterpan/texmf/fonts/vf/ascender/opensans/OpenSans-Regular-T1-TLF.vf
INPUT /home/kantundpeterpan/texmf/fonts/tfm/ascender/opensans/OpenSans-Regular-T1-TLF--base.tfm
INPUT /home/kantundpeterpan/texmf/fonts/vf/ascender/opensans/OpenSans-Italic-T1-TLF.vf
INPUT /home/kantundpeterpan/texmf/fonts/tfm/ascender/opensans/OpenSans-Italic-T1-TLF--base.tfm
INPUT ../3_results/figures/tripeptide_mass/Fig2_cluster_names.png
INPUT ../3_results/figures/tripeptide_mass/Fig2_cluster_names.png
INPUT ../3_results/figures/tripeptide_mass/Fig2_cluster_names.png
INPUT ../3_results/figures/tetrapeptide_mass/FigS_tetra_sim.png
INPUT ../3_results/figures/tetrapeptide_mass/FigS_tetra_sim.png
INPUT ../3_results/figures/tetrapeptide_mass/FigS_tetra_sim.png
INPUT ../3_results/figures/tettet_sim_spec/Fig_spec_sim_dimer.png
INPUT ../3_results/figures/tettet_sim_spec/Fig_spec_sim_dimer.png
INPUT ../3_results/figures/tettet_sim_spec/Fig_spec_sim_dimer.png
INPUT ../3_results/figures/exp3_hplc/fig_exp3_hplc.png
INPUT ../3_results/figures/exp3_hplc/fig_exp3_hplc.png
INPUT ../3_results/figures/exp3_hplc/fig_exp3_hplc.png
INPUT ../3_results/figures/monomers_spectra/Fig3_complete_version_frame.png
INPUT ../3_results/figures/monomers_spectra/Fig3_complete_version_frame.png
INPUT ../3_results/figures/monomers_spectra/Fig3_complete_version_frame.png
INPUT ../3_results/figures/monomers_dampg/dampg_monomers.png
INPUT ../3_results/figures/monomers_dampg/dampg_monomers.png
INPUT ../3_results/figures/monomers_dampg/dampg_monomers.png
INPUT ../3_results/figures/monomers_hybrids_sim/archive/figS_hybrids_monomers_sim.png
INPUT ../3_results/figures/monomers_hybrids_sim/archive/figS_hybrids_monomers_sim.png
INPUT ../3_results/figures/monomers_hybrids_sim/archive/figS_hybrids_monomers_sim.png
INPUT ../3_results/figures/monomers_timecourse/total.png
INPUT ../3_results/figures/monomers_timecourse/total.png
INPUT ../3_results/figures/monomers_timecourse/total.png
INPUT ../3_results/figures/all_isotopologues/tritri.png
INPUT ../3_results/figures/all_isotopologues/tritri.png
INPUT ../3_results/figures/all_isotopologues/tritri.png
INPUT ../3_results/figures/all_isotopologues/tettri.png
INPUT ../3_results/figures/all_isotopologues/tettri.png
INPUT ../3_results/figures/all_isotopologues/tettri.png
INPUT ../3_results/figures/all_isotopologues/tritet.png
INPUT ../3_results/figures/all_isotopologues/tritet.png
INPUT ../3_results/figures/all_isotopologues/tritet.png
INPUT ../3_results/figures/all_isotopologues/tettet.png
INPUT ../3_results/figures/all_isotopologues/tettet.png
INPUT ../3_results/figures/all_isotopologues/tettet.png
INPUT ../3_results/figures/dimer_schemes_ms_timecourse/dimer_aggr_tc.png
INPUT ../3_results/figures/dimer_schemes_ms_timecourse/dimer_aggr_tc.png
INPUT ../3_results/figures/dimer_schemes_ms_timecourse/dimer_aggr_tc.png
INPUT ../3_results/figures/pg_interconversions/pg_interconv.png
INPUT ../3_results/figures/pg_interconversions/pg_interconv.png
INPUT ../3_results/figures/pg_interconversions/pg_interconv.png
INPUT /usr/share/texlive/texmf-dist/fonts/tfm/adobe/helvetic/phvrc8t.tfm
INPUT ../3_results/figures/d6_tc/d6ldts_tc.png
INPUT ../3_results/figures/d6_tc/d6ldts_tc.png
INPUT ../3_results/figures/d6_tc/d6ldts_tc.png
INPUT /usr/share/texlive/texmf-dist/fonts/tfm/adobe/helvetic/phvbc8t.tfm
INPUT /usr/share/texlive/texmf-dist/fonts/vf/adobe/helvetic/phvrc8t.vf
INPUT /usr/share/texlive/texmf-dist/fonts/tfm/adobe/helvetic/phvr8r.tfm
INPUT /usr/share/texlive/texmf-dist/fonts/vf/adobe/helvetic/phvbc8t.vf
INPUT /usr/share/texlive/texmf-dist/fonts/tfm/adobe/helvetic/phvb8r.tfm
INPUT /usr/share/texlive/texmf-dist/fonts/tfm/adobe/helvetic/phvb8r.tfm
INPUT ../3_results/figures/m15_amp/m15_amp.png
INPUT ../3_results/figures/m15_amp/m15_amp.png
INPUT ../3_results/figures/m15_amp/m15_amp.png
INPUT ../4_discussion/figures/adrns/adrns_d6.png
INPUT ../4_discussion/figures/adrns/adrns_d6.png
INPUT ../4_discussion/figures/adrns/adrns_d6.png
INPUT ../4_discussion/figures/recycling/decrease_fully_labeled_stems.png
INPUT ../4_discussion/figures/recycling/decrease_fully_labeled_stems.png
INPUT ../4_discussion/figures/recycling/decrease_fully_labeled_stems.png
INPUT ../4_discussion/figures/newonly_vs_hybrids/Tet_radioDAP_vs_allhyb_hAla.png
INPUT ../4_discussion/figures/newonly_vs_hybrids/Tet_radioDAP_vs_allhyb_hAla.png
INPUT ../4_discussion/figures/newonly_vs_hybrids/Tet_radioDAP_vs_allhyb_hAla.png
INPUT pg_label_elife.bbl
INPUT pg_label_elife.bbl
INPUT /usr/share/texmf/fonts/tfm/public/lm/ec-lmss8.tfm
INPUT pg_label_elife.suppinfo
INPUT pg_label_elife.suppinfo
INPUT pg_label_elife.aux
INPUT ./pg_label_elife.out
INPUT ./pg_label_elife.out
INPUT /usr/share/texlive/texmf-dist/fonts/enc/dvips/base/8r.enc
INPUT /home/kantundpeterpan/texmf/fonts/enc/dvips/opensans/a_nvvucy.enc
INPUT /home/kantundpeterpan/texmf/fonts/enc/dvips/opensans/a_jg4h6q.enc
INPUT /usr/share/texmf/fonts/enc/dvips/lm/lm-ec.enc
INPUT /home/kantundpeterpan/texmf/fonts/type1/ascender/opensans/OpenSans-Bold.pfb
INPUT /home/kantundpeterpan/texmf/fonts/type1/ascender/opensans/OpenSans-BoldItalic.pfb
INPUT /home/kantundpeterpan/texmf/fonts/type1/ascender/opensans/OpenSans-Italic.pfb
INPUT /home/kantundpeterpan/texmf/fonts/type1/ascender/opensans/OpenSans-Regular.pfb
INPUT /usr/share/texmf/fonts/type1/public/lm/lmss8.pfb
INPUT /home/kantundpeterpan/texmf/fonts/type1/public/stix/stix-mathit.pfb
INPUT /home/kantundpeterpan/texmf/fonts/type1/public/stix/stix-mathrm-bold.pfb
INPUT /home/kantundpeterpan/texmf/fonts/type1/public/stix/stix-mathrm.pfb
INPUT /home/kantundpeterpan/texmf/fonts/type1/public/stix/stix-mathsf.pfb
INPUT /usr/share/texlive/texmf-dist/fonts/type1/urw/helvetic/uhvb8a.pfb
INPUT /usr/share/texlive/texmf-dist/fonts/type1/urw/helvetic/uhvr8a.pfb
