This is BibTeX, Version 0.99d (TeX Live 2019/Debian)
Capacity: max_strings=100000, hash_size=100000, hash_prime=85009
The top-level auxiliary file: pg_label_elife.aux
The style file: vancouver-elife.bst
Database file #1: ../../bibliography/library.bib
Reallocated wiz_functions (elt_size=4) to 6000 items from 3000.
Warning--missing publisher in Adusumilli2017
`journal' is a missing field, not a string, for entry Arbeloa2004
while executing---line 1927 of file vancouver-elife.bst
`journal' is a missing field, not a string, for entry Barreteau2008
while executing---line 1927 of file vancouver-elife.bst
Warning--there's a number but no volume in Desmarais2014
`journal' is a missing field, not a string, for entry More2019
while executing---line 1927 of file vancouver-elife.bst
You've used 52 entries,
            3492 wiz_defined-function locations,
            1185 strings with 22505 characters,
and the built_in function-call counts, 152911 in all, are:
= -- 19733
> -- 1534
< -- 20
+ -- 802
- -- 494
* -- 13961
:= -- 16707
add.period$ -- 205
call.type$ -- 52
change.case$ -- 460
chr.to.int$ -- 52
cite$ -- 54
duplicate$ -- 13757
empty$ -- 13661
format.name$ -- 621
if$ -- 34938
int.to.chr$ -- 1
int.to.str$ -- 1
missing$ -- 654
newline$ -- 315
num.names$ -- 156
pop$ -- 1233
preamble$ -- 1
purify$ -- 455
quote$ -- 0
skip$ -- 927
stack$ -- 0
substring$ -- 28582
swap$ -- 1585
text.length$ -- 4
text.prefix$ -- 0
top$ -- 0
type$ -- 468
warning$ -- 2
while$ -- 648
width$ -- 0
write$ -- 828
(There were 3 error messages)
