mz,rel_intensity
981.4525772880899,9.037822592117749e-10
981.4545778469889,1.955003639152798e-09
981.4565784058879,4.534389993411346e-09
981.4585789647869,1.0857442322577463e-08
981.460579523686,2.359195641599615e-08
981.462580082585,4.946019874160086e-08
981.464580641484,1.0024023404585836e-07
981.466581200383,1.9585311329425463e-07
981.468581759282,3.6927188055064893e-07
981.470582318181,6.721689064665994e-07
981.47258287708,1.1814054263678277e-06
981.4745834359791,2.0053306480087468e-06
981.4765839948781,3.287940929604068e-06
981.4785845537771,5.2083958205312e-06
981.4805851126761,7.97302949912068e-06
981.4825856715751,1.1797391248476878e-05
981.4845862304741,1.6877250807176894e-05
981.4865867893731,2.3349955247010022e-05
981.4885873482722,3.1250683794728225e-05
981.4905879071712,4.0471260927185856e-05
981.4925884660702,5.0731222282779815e-05
981.4945890249692,6.157077731542289e-05
981.4965895838682,7.23725963536451e-05
981.4985901427672,8.241414230921197e-05
981.5005907016663,9.094560369964353e-05
981.5025912605653,9.728204987666585e-05
981.5045918194643,0.00010089406288074701
981.5065923783633,0.00010148019576890311
981.5085929372623,9.900761643393731e-05
981.5105934961613,9.371354719057007e-05
981.5125940550603,8.606800833051803e-05
981.5145946139594,7.670590351969409e-05
981.5165951728584,6.634182968723178e-05
981.5185957317574,5.568304740324176e-05
981.5205962906564,4.5354658865895036e-05
981.5225968495554,3.58469456866858e-05
981.5245974084544,2.7489322360726373e-05
981.5265979673534,2.044990490432492e-05
981.5285985262525,1.4755458411853057e-05
981.5305990851515,1.0324139793443214e-05
981.5325996440505,7.003082609397724e-06
981.5346002029495,4.604094725654252e-06
981.5366007618485,2.93290133508214e-06
981.5386013207475,1.809767196917565e-06
981.5406018796465,1.0814120086758299e-06
981.5426024385456,6.255661195939895e-07
981.5446029974446,3.5021923777749166e-07
981.5466035563436,1.8969899285529992e-07
981.5486041152426,9.938602735581994e-08
981.5506046741416,5.025905887495656e-08
981.5526052330406,2.4389568483655025e-08
981.5546057919396,1.1568958068360008e-08
981.5566063508387,5.30044379363875e-09
981.5586069097377,2.0000010030919693e-09
981.5606074686367,8.686792593879337e-10
981.5626080275357,3.6369125354238257e-10
981.5646085864347,4.106596927641034e-11
982.4548572964966,5.099251714562673e-09
982.4568578553957,1.7752836538327575e-08
982.4588584142947,4.2019371932044995e-08
982.4608589731937,9.841426180116606e-08
982.4628595320927,2.231366669396189e-07
982.4648600909917,4.7636575460656784e-07
982.4668606498907,9.81437056026953e-07
982.4688612087898,1.952391548859163e-06
982.4708617676888,3.7450906260542504e-06
982.4728623265878,6.933240893147334e-06
982.4748628854868,1.2389436462778223e-05
982.4768634443858,2.1372609827848224e-05
982.4788640032848,3.55980430493521e-05
982.4808645621838,5.7257172842102167e-05
982.4828651210829,8.895035830265211e-05
982.4848656799819,0.00013349490911124237
982.4868662388809,0.0001935853851694876
982.4888667977799,0.00027131229499019206
982.4908673566789,0.0003675869428671018
982.4928679155779,0.0004815654335671585
982.4948684744769,0.0006101998286392582
982.496869033376,0.0007480538424380382
982.498869592275,0.0008874932181698458
982.500870151174,0.0010192958677517053
982.502870710073,0.0011336356638847655
982.504871268972,0.0012212992703912373
982.506871827871,0.001274925106354736
982.50887238677,0.0012900304247012745
982.5108729456691,0.00126562649816981
982.5128735045681,0.001204305832979255
982.5148740634671,0.0011117967920204585
982.5168746223661,0.0009960898735327935
982.5188751812651,0.0008663181687378457
982.5208757401641,0.000731604928668528
982.5228762990631,0.0006000713671993281
982.5248768579622,0.00047813930969432204
982.5268774168612,0.00037018604031225776
982.5288779757602,0.00027853404331679984
982.5308785346592,0.00020370276313658766
982.5328790935582,0.00014482118386345414
982.5348796524572,0.00010009852754621978
982.5368802113563,6.726895586155932e-05
982.5388807702553,4.395523066510618e-05
982.5408813291543,2.7926645407252517e-05
982.5428818880533,1.7251557700578276e-05
982.5448824469523,1.0361281629317765e-05
982.5468830058513,6.049698203842276e-06
982.5488835647503,3.4334736717684144e-06
982.5508841236494,1.893842286632051e-06
982.5528846825484,1.0150335963985569e-06
982.5548852414474,5.249707662480443e-07
982.5568858003464,2.644217208543396e-07
982.5588863592454,1.3015299267296404e-07
982.5608869181444,6.003973697196514e-08
982.5628874770434,2.5960891742770135e-08
982.5648880359425,1.1852569286680098e-08
982.5668885948415,4.937679166574813e-09
982.5688891537405,1.357970785266904e-09
982.5708897126395,5.865120117007687e-10
982.5728902715385,2.4419694247106964e-10
983.4591378638024,1.2379019359655645e-07
983.4611384227014,2.98979905093422e-07
983.4631389816004,6.961556162524422e-07
983.4651395404995,1.6163886616283082e-06
983.4671400993985,3.532748133316018e-06
983.4691406582975,7.409702732341916e-06
983.4711412171965,1.5001269115415671e-05
983.4731417760955,2.9290054542665827e-05
983.4751423349945,5.517383687896731e-05
983.4771428938935,0.00010028791386106058
983.4791434527926,0.0001759176859067126
983.4811440116916,0.0002978272060131187
983.4831445705906,0.0004867064750579672
983.4851451294896,0.0007678496357264358
983.4871456883886,0.0011696479700914672
983.4891462472876,0.0017205731859003392
983.4911468061866,0.0024445828906723734
983.4931473650857,0.00335529221349749
983.4951479239847,0.004449752924522347
983.4971484828837,0.005703126325596292
983.4991490417827,0.007065754819194188
983.5011496006817,0.00846397824792421
983.5031501595807,0.009805445509735475
983.5051507184797,0.010988721897308738
983.5071512773789,0.011915913856016997
983.5091518362779,0.012506136730140192
983.5111523951769,0.01270723157977279
983.5131529540758,0.012503361636876424
983.5151535129748,0.01191695831997897
983.5171540718738,0.011004717013018956
983.519154630773,0.009848619857980755
983.521155189672,0.008543939726263085
983.523155748571,0.007186619873685407
983.52515630747,0.005862267554782643
983.527156866369,0.004638362457567509
983.529157425268,0.0035603935974591943
983.531157984167,0.002651760815834696
983.5331585430661,0.0019166160810490402
983.5351591019651,0.0013444815184386857
983.5371596608641,0.0009154644868252446
983.5391602197631,0.0006051140472801537
983.5411607786621,0.00038831019543509774
983.5431613375611,0.00024193465659316714
983.5451618964601,0.0001463600554892283
983.5471624553592,8.597565544824444e-05
983.5491630142582,4.904288455032781e-05
983.5511635731572,2.7166830664540997e-05
983.5531641320562,1.4614188428770636e-05
983.5551646909552,7.63463697405904e-06
983.5571652498542,3.873285193334759e-06
983.5591658087532,1.8487246645986667e-06
983.5611663676523,8.898883949290134e-07
983.5631669265513,4.155113222580678e-07
983.5651674854503,1.5722482017339343e-07
983.5671680443493,6.591285274395918e-08
983.5691686032483,2.8935604261790115e-08
983.5711691621473,7.121151887094201e-09
983.5731697210463,2.2469210358995044e-09
983.5751702799454,9.51001675186814e-10
983.5771708388444,1.98419908881007e-10
984.4594173133102,3.386712307769356e-10
984.4614178722093,3.194042630969462e-07
984.4634184311083,1.5359969313679735e-06
984.4654189900073,3.6503174766539695e-06
984.4674195489063,8.485618116577685e-06
984.4694201078053,1.906366603895268e-05
984.4714206667043,4.0740599856958274e-05
984.4734212256033,8.398199721180586e-05
984.4754217845024,0.00016700897092843933
984.4774223434014,0.0003203287157205702
984.4794229023004,0.000592705474755022
984.4814234611994,0.0010580231106686586
984.4834240200984,0.0018222220797498162
984.4854245789974,0.0030280892084245405
984.4874251378965,0.00485565586786818
984.4894256967955,0.007514018578856344
984.4914262556945,0.011222317809358314
984.4934268145935,0.01617793543149848
984.4954273734925,0.022513438686041682
984.4974279323915,0.03024757421495397
984.4994284912905,0.039239635127892886
984.5014290501896,0.04915919820736437
984.5034296090886,0.059483132382041455
984.5054301679876,0.06952802885896146
984.5074307268866,0.07851902005412373
984.5094312857856,0.08568688523596082
984.5114318446846,0.09037694851916686
984.5134324035836,0.09214832996774643
984.5154329624827,0.09084255895955985
984.5174335213817,0.08660669771578729
984.5194340802807,0.07986636866681313
984.5214346391797,0.07125546942059909
984.5234351980787,0.0615185966469954
984.5254357569777,0.05140680864381391
984.5274363158767,0.04158647053480433
984.5294368747758,0.032575429912107434
984.5314374336748,0.0247127930601403
984.5334379925738,0.018160615626491794
984.5354385514728,0.012929910669870611
984.5374391103718,0.008920530846654253
984.5394396692708,0.0059646375519968745
984.5414402281698,0.003865776186202858
984.5434407870689,0.002428857694821525
984.5454413459679,0.0015323856378143322
984.5474419048669,0.0008484476887857386
984.5494424637659,0.0004867635648219497
984.5514430226649,0.0002708307810023474
984.5534435815639,0.00014613332203942812
984.555444140463,7.646207033436305e-05
984.557444699362,3.879295237517528e-05
984.559445258261,1.908182693894559e-05
984.56144581716,8.733900096417242e-06
984.563446376059,3.910696651632321e-06
984.565446934958,1.7711551426735356e-06
984.567447493857,6.731123386335922e-07
984.5694480527561,1.9048580352003493e-07
984.5714486116551,8.169798212715078e-08
984.5734491705541,2.928487494241132e-08
985.461697321717,7.526672814938029e-10
985.463697880616,6.665944479699243e-09
985.465698439515,6.05080792362186e-06
985.467698998414,1.456713187484094e-05
985.4696995573131,3.3808705586454815e-05
985.4717001162121,7.646579172724345e-05
985.4737006751111,0.00016548969358996042
985.4757012340101,0.00034482659001879034
985.4777017929091,0.0006929402601132677
985.4797023518081,0.0013429806613075043
985.4817029107071,0.002510353666276369
985.4837034696062,0.004525899689668284
985.4857040285052,0.007870367650169834
985.4877045874042,0.013201462916754997
985.4897051463032,0.02136017144390589
985.4917057052022,0.03333985654792845
985.4937062641012,0.05020210066301815
985.4957068230002,0.07292969903956702
985.4977073818993,0.10222074502826317
985.4997079407983,0.13824714635526067
985.5017084996973,0.18042184438224323
985.5037090585963,0.22723446186615376
985.5057096174953,0.27621731802810795
985.5077101763943,0.32408730068247293
985.5097107352933,0.36707401623630326
985.5117112941924,0.4013980702148666
985.5137118530914,0.4238183286241402
985.5157124119904,0.43213856263887057
985.5177129708894,0.4255632927385368
985.5197135297884,0.4048226918014069
985.5217140886874,0.37203949840121964
985.5237146475865,0.3303714005918291
985.5257152064855,0.28351219824442153
985.5277157653845,0.2351602538418466
985.5297163242835,0.18855811562523947
985.5317168831825,0.14617740233454188
985.5337174420815,0.10957985020699638
985.5357180009805,0.07946253849389733
985.5377185598796,0.05570026124726208
985.5397191187786,0.03778104575010449
985.5417196776776,0.024791473065166998
985.5437202365766,0.015738864999328004
985.5457207954756,0.00966739578785512
985.5477213543746,0.005745444418552377
985.5497219132736,0.003303842792990012
985.5517224721727,0.00183819237835344
985.5537230310717,0.0009895178455615343
985.5557235899707,0.000515340518352191
985.5577241488697,0.0002596404747855346
985.5597247077687,0.0001265380224397112
985.5617252666677,5.9647568751824174e-05
985.5637258255667,2.719083325464951e-05
985.5657263844658,9.074662786666999e-06
985.5677269433648,3.972391510502302e-06
985.5697275022638,1.6762513308246283e-06
985.5717280611628,2.0534334352105564e-07
985.5737286200618,7.366994545097615e-09
985.5757291789608,2.1776404571867115e-09
985.5777297378598,8.519396479116035e-10
985.579730296759,2.2020899734813637e-10
986.4659778890228,2.3738155160360463e-08
986.4679784479218,4.979720054305633e-06
986.4699790068208,2.374983372112338e-05
986.4719795657198,5.626357481579186e-05
986.4739801246188,0.00012843354365479385
986.4759806835178,0.00028269095265320696
986.4779812424168,0.0006000068041355303
986.479981801316,0.0012280311344658647
986.4819823602149,0.002423678797084777
986.4839829191139,0.004612690468851181
986.4859834780129,0.008465394752993217
986.4879840369119,0.014981451193832252
986.4899845958109,0.02556668733205295
986.4919851547099,0.04207354572726506
986.493985713609,0.06676641310594468
986.495986272508,0.10216955299916088
986.497986831407,0.15076472370618763
986.499987390306,0.21453250214439054
986.501987949205,0.2943756987855882
986.503988508104,0.3895172932867944
986.5059890670032,0.4970132492068821
986.5079896259022,0.6115418794050747
986.5099901848012,0.7256081062280331
986.5119907437002,0.8302263353065431
986.5139913025992,0.9160311301133203
986.5159918614982,0.9746402347602284
986.5179924203971,1.0
986.5199929792963,0.9894152378240552
986.5219935381953,0.9440211002290074
986.5239940970943,0.8685826497536314
986.5259946559933,0.7706710696744575
986.5279952148923,0.6594135562674446
986.5299957737913,0.5441021404121564
986.5319963326903,0.4329522876366782
986.5339968915894,0.33223126900499694
986.5359974504884,0.24585908982373994
986.5379980093874,0.17546176173388164
986.5399985682864,0.12076334751991989
986.5419991271854,0.08015879986099352
986.5439996860844,0.05131434339587045
986.5460002449834,0.031681612440057245
986.5480008038825,0.01886547195629885
986.5500013627815,0.01083509510314172
986.5520019216805,0.006002294230439735
986.5540024805795,0.003207292714070685
986.5560030394785,0.0016531670829135218
986.5580035983775,0.0008220061218642734
986.5600041572765,0.0003943125231037068
986.5620047161756,0.0001824923577889808
986.5640052750746,8.149363983344853e-05
986.5660058339736,3.5100692035475446e-05
986.5680063928726,1.0519954433135505e-05
986.5700069517716,3.3875140981343477e-07
986.5720075106706,1.2050513945178494e-07
986.5740080695697,4.9462967431026893e-08
986.5760086284687,1.683029436787856e-08
986.5780091873677,2.2865664661296096e-09
987.4682578974296,3.672044432496783e-08
987.4702584563286,3.24602050219104e-07
987.4722590152276,8.132092558338807e-07
987.4742595741267,2.004305377278429e-06
987.4762601330257,4.613254706675091e-06
987.4782606919247,9.96970848164885e-06
987.4802612508237,2.0795751075079477e-05
987.4822618097227,4.187123163349765e-05
987.4842623686217,8.13827540780429e-05
987.4862629275207,0.00015270458818694566
987.4882634864198,0.0002766325533957154
987.4902640453188,0.00048385498403689893
987.4922646042178,0.0008171801229077307
987.4942651631168,0.0013327277295818198
987.4962657220158,0.002099021541734136
987.4982662809148,0.0031928246432569333
987.5002668398138,0.0046907980458095475
987.5022673987129,0.0066567513983720695
987.5042679576119,0.009125395307773608
987.5062685165109,0.012084917261902082
987.5082690754099,0.015462012065283411
987.5102696343089,0.019113702972979547
987.5122701932079,0.0228299256319502
987.5142707521069,0.02634918673322131
987.516271311006,0.029386833646981855
987.518271869905,0.03167221012106143
987.520272428804,0.032988166233590605
987.522272987703,0.03320498916323076
987.524273546602,0.032301430829350136
987.526274105501,0.030368123510244874
987.5282746644,0.027592627277542175
987.5302752232991,0.02422951740481951
987.5322757821981,0.020562098651865306
987.5342763410971,0.016863673046155686
987.5362768999961,0.013365553781241676
987.5382774588951,0.010236626666460425
987.5402780177941,0.007576075270136659
987.5422785766932,0.005417877289622412
987.5442791355922,0.003743599026187433
987.5462796944912,0.0024991983298938937
987.5482802533902,0.0016118987572858127
987.5502808122892,0.0010043234432014938
987.5522813711882,0.0006044779298278965
987.5542819300872,0.00035142272916481837
987.5562824889863,0.0001973299187908175
987.5582830478853,0.00010701402789413755
987.5602836067843,5.604595006327704e-05
987.5622841656833,2.834489524683418e-05
987.5642847245823,1.384217616494191e-05
987.5662852834813,6.526873374554552e-06
987.5682858423803,2.93460648390933e-06
987.5702864012794,1.1965777316311868e-06
987.5722869601784,4.781130381480534e-07
987.5742875190774,1.351889814148843e-07
987.5762880779764,2.0050966585210247e-10
988.4705379058364,7.496852022488332e-10
988.4725384647354,3.6719603390005574e-07
988.4745390236344,1.266167125277712e-06
988.4765395825334,2.967560171972212e-06
988.4785401414324,6.704172158154608e-06
988.4805407003314,1.4606639846358021e-05
988.4825412592304,3.069075796209358e-05
988.4845418181295,6.219158319643124e-05
988.4865423770285,0.00012154332535182701
988.4885429359275,0.00022909016121204872
988.4905434948265,0.0004164452735446764
988.4925440537255,0.0007301061487088738
988.4945446126245,0.0012344999616228844
988.4965451715235,0.0020131384764975045
988.4985457304226,0.0031661701968425816
988.5005462893216,0.004802567874334509
988.5025468482206,0.007025740375761408
988.5045474071196,0.009912673022660176
988.5065479660186,0.013488710249311437
988.5085485249176,0.01770239407051363
988.5105490838166,0.022406633704834093
988.5125496427157,0.02735303351579829
988.5145502016147,0.032204759388592435
988.5165507605137,0.03656974155087812
988.5185513194127,0.04005094825473922
988.5205518783117,0.042305306900065995
988.5225524372107,0.04309931528552542
988.5245529961098,0.04234888972674687
988.5265535550088,0.040134038357556155
988.5285541139078,0.03668481505334731
988.5305546728068,0.032341965078263576
988.5325552317058,0.027501576741361076
988.5345557906048,0.022556155280426562
988.5365563495038,0.017844104853821787
988.5385569084029,0.013616122171688885
988.5405574673019,0.01002187196617622
988.5425580262009,0.0071152453687983105
988.5445585850999,0.004872891129510238
988.5465591439989,0.0032192224538496535
988.5485597028979,0.0020516159782858825
988.5505602617969,0.0012613547668117171
988.552560820696,0.0007481557746396743
988.554561379595,0.00042813470947671234
988.556561938494,0.00023638796686118358
988.558562497393,0.00012593688988715083
988.560563056292,6.47430364382862e-05
988.562563615191,3.2120303740196254e-05
988.56456417409,1.5379822902129145e-05
988.5665647329891,7.108074406699837e-06
988.5685652918881,3.1712547403421308e-06
988.5705658507871,1.3655461735649227e-06
988.5725664096861,3.138235531867409e-07
988.5745669685851,2.123354542234897e-08
988.5765675274841,8.292375001619907e-09
988.5785680863831,3.0944434893472788e-09
988.5805686452823,7.311385722197817e-10
989.4728179142431,7.885480892534994e-10
989.4748184731421,6.949757820230273e-09
989.4768190320411,1.9327659837867323e-08
989.4788195909401,5.0402203998585577e-08
989.4808201498392,1.1690113401112196e-07
989.4828207087382,2.540351645777714e-07
989.4848212676372,5.330466877622014e-07
989.4868218265362,1.0800714014296104e-06
989.4888223854352,2.1133662386102636e-06
989.4908229443342,3.993475827676216e-06
989.4928235032334,7.287855903469487e-06
989.4948240621324,1.2845136307749593e-05
989.4968246210314,2.186678412818805e-05
989.4988251799303,3.59546042973467e-05
989.5008257388293,5.7103483303186776e-05
989.5028262977283,8.760383207689323e-05
989.5048268566273,0.00012982210537561598
989.5068274155265,0.00018584481193234114
989.5088279744255,0.00025700298768900913
989.5108285333245,0.0003433364486262705
989.5128290922235,0.00044310029316756654
989.5148296511225,0.0005524451704210825
989.5168302100215,0.0006654021186257316
989.5188307689205,0.0007742621977080159
989.5208313278196,0.0008703622012775586
989.5228318867186,0.0009451864644860421
989.5248324456176,0.0009915991195576749
989.5268330045166,0.001004962604516895
989.5288335634156,0.0009839004097681487
989.5308341223146,0.0009305306011084562
989.5328346812136,0.0008501153058702602
989.5348352401127,0.0007502063463321137
989.5368357990117,0.000639478915122823
989.5388363579107,0.0005265021365808471
989.5408369168097,0.0004186849480308258
989.5428374757087,0.00032156735864696773
989.5448380346077,0.00023852692621946695
989.5468385935067,0.0001708703177334935
989.5488391524058,0.00011820670927585391
989.5508397113048,7.896709487170792e-05
989.5528402702038,5.0940220029669706e-05
989.5548408291028,3.172985799055173e-05
989.5568413880018,1.9083154867994154e-05
989.5588419469008,1.1081260529700935e-05
989.5608425057999,6.212516012084454e-06
989.5628430646989,3.3625437287081096e-06
989.5648436235979,1.7570068878153801e-06
989.5668441824969,8.862730013060494e-07
989.5688447413959,4.31552829799288e-07
989.5708453002949,2.0284165226903955e-07
989.5728458591939,9.123984794291605e-08
989.574846418093,3.7951027788690806e-08
989.576846976992,1.4142103977753304e-08
989.578847535891,2.9406515158498023e-09
990.477098481549,1.1513415374680276e-08
990.479099040448,3.198433968615763e-08
990.481099599347,7.41252782120349e-08
990.483100158246,1.6570201606940846e-07
990.485100717145,3.572908448197203e-07
990.487101276044,7.431025448328743e-07
990.4891018349431,1.4907626187580374e-06
990.4911023938421,2.8847038846280383e-06
990.4931029527411,5.384273264805853e-06
990.4951035116401,9.693623759213582e-06
990.4971040705391,1.6833659389836627e-05
990.4991046294381,2.819709151078605e-05
990.5011051883371,4.555788779908147e-05
990.5031057472362,7.099968415055017e-05
990.5051063061352,0.00010672911214252244
990.5071068650342,0.00015475442973122253
990.5091074239332,0.00021643976681181822
990.5111079828322,0.00029198790220149565
990.5131085417312,0.00037995008123444066
990.5151091006302,0.00047689432407050487
990.5171096595293,0.0005773667001623688
990.5191102184283,0.0006742412361581374
990.5211107773273,0.0007594740057663342
990.5231113362263,0.0008251721541534048
990.5251118951253,0.0008647892343242251
990.5271124540243,0.0008741984926488981
990.5291130129233,0.0008524009054997291
990.5311135718224,0.0008016998777964001
990.5331141307214,0.0007273003354002753
990.5351146896204,0.0006364287600897718
990.5371152485194,0.0005371799845053181
990.5391158074184,0.00043734466657435956
990.5411163663174,0.0003434486384282542
990.5431169252165,0.0002601558967679318
990.5451174841155,0.00019008130853210434
990.5471180430145,0.00013396117934098977
990.5491186019135,9.10651615917298e-05
990.5511191608125,5.971167428690223e-05
990.5531197197115,3.7765900939950866e-05
990.5551202786105,2.303954977727069e-05
990.5571208375096,1.3557561444351303e-05
990.5591213964086,7.69524658124327e-06
990.5611219553076,4.213051534101603e-06
990.5631225142066,2.224867611078655e-06
990.5651230731056,1.1332993554598026e-06
990.5671236320046,5.568241518568067e-07
990.5691241909036,2.638908453417178e-07
990.5711247498027,1.206322143480559e-07
990.5731253087017,5.3190596822588476e-08
990.5751258676007,2.2622410662452064e-08
990.5771264264997,2.5824145176571237e-09
992.4816584983625,1.5632843435001688e-10
992.4836590572615,4.3286808484575617e-10
992.4856596161605,9.99806310226718e-10
992.4876601750595,2.227777107296665e-09
992.4896607339585,4.788762354528939e-09
992.4916612928575,9.9304891850885e-09
992.4936618517567,1.9866159912336364e-08
992.4956624106557,3.834010084883907e-08
992.4976629695547,7.138200162315298e-08
992.4996635284537,1.2820956943169053e-07
992.5016640873527,2.2215111980320722e-07
992.5036646462517,3.713410898489174e-07
992.5056652051506,5.988168736758319e-07
992.5076657640498,9.315617576242458e-07
992.5096663229488,1.398060441550205e-06
992.5116668818478,2.0241233957256405e-06
992.5136674407468,2.827123790454875e-06
992.5156679996458,3.809338140642605e-06
992.5176685585448,4.9516636199107466e-06
992.5196691174438,6.209400849168035e-06
992.5216696763429,7.51182134929637e-06
992.5236702352419,8.766733977634156e-06
992.5256707941409,9.870234149947275e-06
992.5276713530399,1.072047805918842e-05
992.5296719119389,1.1233056226891033e-05
992.5316724708379,1.1354782105097698e-05
992.5336730297369,1.1072782515617845e-05
992.535673588636,1.041673999424859e-05
992.537674147535,9.453746598755639e-06
992.539674706434,8.27700376073341e-06
992.541675265333,6.9910013793942325e-06
992.543675824232,5.6964282896599105e-06
992.545676383131,4.4777810934103464e-06
992.54767694203,3.395627315019326e-06
992.5496775009291,2.484128564111323e-06
992.5516780598281,1.7531737380147988e-06
992.5536786187271,1.1936379647676579e-06
992.5556791776261,7.840017021861506e-07
992.5576797365251,4.967730562484837e-07
992.5596802954241,3.0366562259784265e-07
992.5616808543232,1.7907283654321966e-07
992.5636814132222,1.0187325838676701e-07
992.5656819721212,5.5909677701755e-08
992.5676825310202,2.960124579384657e-08
992.5696830899192,1.511920982485204e-08
992.5716836488182,7.449792810646298e-09
992.5736842077172,3.5412384835766242e-09
992.5756847666163,1.6239098487149943e-09
992.5776853255153,7.183966371567281e-10
992.5796858844143,3.06592953648556e-10
992.5816864433133,3.5081987841312295e-11
