\relax 
\providecommand\zref@newlabel[2]{}
\providecommand\hyper@newdestlabel[2]{}
\bibstyle{vancouver-elife}
\providecommand\HyperFirstAtBeginDocument{\AtBeginDocument}
\HyperFirstAtBeginDocument{\ifx\hyper@anchor\@undefined
\global\let\oldcontentsline\contentsline
\gdef\contentsline#1#2#3#4{\oldcontentsline{#1}{#2}{#3}}
\global\let\oldnewlabel\newlabel
\gdef\newlabel#1#2{\newlabelxx{#1}#2}
\gdef\newlabelxx#1#2#3#4#5#6{\oldnewlabel{#1}{{#2}{#3}}}
\AtEndDocument{\ifx\hyper@anchor\@undefined
\let\contentsline\oldcontentsline
\let\newlabel\oldnewlabel
\fi}
\fi}
\global\let\hyper@last\relax 
\gdef\HyperFirstAtBeginDocument#1{#1}
\providecommand\HyField@AuxAddToFields[1]{}
\providecommand\HyField@AuxAddToCoFields[2]{}
\babel@aux{english}{}
\@writefile{toc}{\contentsline {section}{Introduction (Level 1 heading)}{1}{section*.1}\protected@file@percent }
\@writefile{toc}{\contentsline {section}{Results (Level 1 heading)}{1}{section*.2}\protected@file@percent }
\@writefile{toc}{\contentsline {subsection}{Level 2 Heading}{1}{subsection*.6}\protected@file@percent }
\@writefile{lot}{\contentsline {table}{\numberline {1}{\ignorespaces Automobile Land Speed Records (GR 5-10).\relax }}{2}{table.caption.3}\protected@file@percent }
\providecommand*\caption@xref[2]{\@setref\relax\@undefined{#1}}
\newlabel{tab:example}{{1}{2}{Automobile Land Speed Records (GR 5-10).\relax }{table.caption.3}{}}
\@writefile{toc}{\contentsline {subsubsection}{Level 3 Heading}{2}{subsubsection*.7}\protected@file@percent }
\@writefile{toc}{\contentsline {paragraph}{Level 4 Heading}{2}{paragraph*.8}\protected@file@percent }
\@writefile{toc}{\contentsline {section}{Discussion}{2}{section*.9}\protected@file@percent }
\@writefile{toc}{\contentsline {section}{Methods and Materials}{3}{section*.10}\protected@file@percent }
\@writefile{toc}{\contentsline {section}{Some \LaTeX  {} Examples}{3}{section*.11}\protected@file@percent }
\newlabel{sec:examples}{{}{3}{Some \LaTeX {} Examples}{section*.11}{}}
\@writefile{toc}{\contentsline {subsection}{Figures and Tables}{3}{subsection*.12}\protected@file@percent }
\newlabel{video:mv1}{{1}{3}{Figures and Tables}{video.13}{}}
\citation{Aivazian917}
\citation{Aivazian917}
\@writefile{lof}{\contentsline {figure}{\numberline {1}{\ignorespaces A half-columnwidth image using wrapfigure, to be used sparingly. Note that using a wrapfigure before a sectional heading, near other floats or page boundaries is not recommended, as it may cause interesting layout issues. Use the optional argument to wrapfigure to control how many lines of text should be set half-width alongside it.\relax }}{4}{figure.caption.14}\protected@file@percent }
\newlabel{fig:halfwidth}{{1}{4}{A half-columnwidth image using wrapfigure, to be used sparingly. Note that using a wrapfigure before a sectional heading, near other floats or page boundaries is not recommended, as it may cause interesting layout issues. Use the optional argument to wrapfigure to control how many lines of text should be set half-width alongside it.\relax }{figure.caption.14}{}}
\@writefile{lof}{\contentsline {figure}{\numberline {2}{\ignorespaces A very wide figure that takes up the entire page, including the gutter space.\relax }}{5}{figure.caption.15}\protected@file@percent }
\newlabel{fig:fullwidth}{{2}{5}{A very wide figure that takes up the entire page, including the gutter space.\relax }{figure.caption.15}{}}
\@writefile{lofeaturebox}{\contentsline {featurebox}{\numberline {1}{\ignorespaces This is an example feature box\relax }}{6}{featurebox.caption.18}\protected@file@percent }
\newlabel{box:simple}{{1}{6}{This is an example feature box\relax }{featurebox.caption.18}{}}
\@writefile{toc}{\contentsline {subsection}{Citations}{6}{subsection*.17}\protected@file@percent }
\@writefile{toc}{\contentsline {subsection}{Mathematics}{6}{subsection*.20}\protected@file@percent }
\newlabel{eq:CLT}{{1}{6}{Mathematics}{equation.21}{}}
\citation{*}
\bibdata{elife-sample}
\bibcite{Aivazian917}{{1}{2006}{{Aivazian et~al.}}{{Aivazian, Dikran and Serrano, Ramon L. and Pfeffer, Suzanne}}}
\bibcite{Bloss029983}{{2}{2016}{{Bloss et~al.}}{{Bloss, Cinnamon S and Wineinger, Nathan E and Peters, Melissa and Boeldt, Debra L and Ariniello, Lauren and Kim, Ju Young and Sheard, Judy and Komatireddy, Ravi and Barrett, Paddy and Topol, Eric J}}}
\bibcite{SGM:/content/journal/ijsem/10.1099/ijs.0.63255-0}{{3}{2004{a}}{{Brettar et~al.}}{{Brettar, Ingrid and Christen, Richard and H\IeC {\"o}fle, Manfred G.}}}
\bibcite{SGM:/content/journal/ijsem/10.1099/ijs.0.02752-0}{{4}{2004{b}}{{Brettar et~al.}}{{Brettar, Ingrid and Christen, Richard and H\IeC {\"o}fle, Manfred G.}}}
\bibcite{McQuilton01012012}{{5}{2012}{{McQuilton et~al.}}{{McQuilton, Peter and St. Pierre, Susan E. and Thurmond, Jim and the FlyBase Consortium}}}
\@writefile{toc}{\contentsline {subsection}{Other Chemistry Niceties}{7}{subsection*.29}\protected@file@percent }
\@writefile{toc}{\contentsline {subsection}{Lists}{7}{subsection*.30}\protected@file@percent }
\@writefile{toc}{\contentsline {section}{Acknowledgments}{7}{section*.33}\protected@file@percent }
\@writefile{lof}{\contentsline {figure}{\numberline {3}{\ignorespaces A text-width example.\relax }}{8}{figure.caption.22}\protected@file@percent }
\newlabel{fig:view}{{3}{8}{A text-width example.\relax }{figure.caption.22}{}}
\newlabel{figsupp:sf1}{{1}{8}{A text-width example.\relax }{figsupp.23}{}}
\newlabel{videosupp:sv1}{{1}{8}{A text-width example.\relax }{videosupp.25}{}}
\newlabel{figdata:first}{{1}{8}{A text-width example.\relax }{data.26}{}}
\newlabel{figdata:second}{{2}{8}{A text-width example.\relax }{data.27}{}}
\newlabel{figsrccode:first}{{1}{8}{A text-width example.\relax }{srccode.28}{}}
\newlabel{first:app}{{1}{10}{Acknowledgments}{appendix.34}{}}
\@writefile{toc}{\contentsline {section}{Firstly}{10}{section*.35}\protected@file@percent }
\@writefile{lof}{\contentsline {figure}{\numberline {1}{\ignorespaces This is a figure in the appendix\relax }}{10}{figure.36}\protected@file@percent }
\@writefile{toc}{\contentsline {section}{Secondly}{10}{section*.37}\protected@file@percent }
\@writefile{lof}{\contentsline {figure}{\numberline {2}{\ignorespaces This is a figure in the appendix\relax }}{11}{figure.38}\protected@file@percent }
\@writefile{lof}{\contentsline {figure}{\numberline {1}{\ignorespaces This is a figure in the appendix\relax }}{12}{figure.40}\protected@file@percent }
\newlabel{LastPage}{{}{12}{}{page.12}{}}
\xdef\lastpage@lastpage{12}
\xdef\lastpage@lastpageHy{12}
