<?xml version="1.0" encoding="utf-8" standalone="no"?>
<!DOCTYPE svg PUBLIC "-//W3C//DTD SVG 1.1//EN"
  "http://www.w3.org/Graphics/SVG/1.1/DTD/svg11.dtd">
<!-- Created with matplotlib (https://matplotlib.org/) -->
<svg height="432pt" version="1.1" viewBox="0 0 576 432" width="576pt" xmlns="http://www.w3.org/2000/svg" xmlns:xlink="http://www.w3.org/1999/xlink">
 <defs>
  <style type="text/css">
*{stroke-linecap:butt;stroke-linejoin:round;}
  </style>
 </defs>
 <g id="figure_1">
  <g id="patch_1">
   <path d="M 0 432 
L 576 432 
L 576 0 
L 0 0 
z
" style="fill:#ffffff;"/>
  </g>
  <g id="axes_1">
   <g id="patch_2">
    <path d="M 53.026574 177.250051 
L 289.246995 177.250051 
L 289.246995 10.8 
L 53.026574 10.8 
z
" style="fill:#ffffff;"/>
   </g>
   <g id="line2d_1">
    <path clip-path="url(#p76c35cd543)" d="M 63.763866 18.629757 
L 71.31774 19.696573 
L 79.950738 21.158608 
L 88.583736 22.867598 
L 97.216735 24.810973 
L 105.849733 26.976158 
L 115.561857 29.661472 
L 125.27398 32.593702 
L 134.986103 35.754948 
L 145.777351 39.51427 
L 156.568599 43.509672 
L 168.438972 48.14798 
L 181.38847 53.461451 
L 195.417092 59.468333 
L 211.603965 66.654475 
L 232.107336 76.025068 
L 278.509703 97.498688 
L 278.509703 97.498688 
" style="fill:none;stroke:#ff3333;stroke-dasharray:5.55,2.4;stroke-dashoffset:0;stroke-width:1.5;"/>
   </g>
   <g id="line2d_2">
    <path clip-path="url(#p76c35cd543)" d="M 63.763866 168.991103 
L 70.238615 169.333023 
L 76.713364 169.470476 
L 83.188112 169.410764 
L 90.741986 169.10165 
L 98.29586 168.545713 
L 105.849733 167.754548 
L 113.403607 166.739754 
L 120.957481 165.512928 
L 129.590479 163.866088 
L 138.223478 161.974767 
L 146.856476 159.856277 
L 156.568599 157.222994 
L 166.280723 154.34876 
L 177.071971 150.902548 
L 187.863219 147.223108 
L 199.733592 142.946699 
L 213.762214 137.643208 
L 231.028211 130.849296 
L 261.243706 118.647978 
L 278.509703 111.735561 
L 278.509703 111.735561 
" style="fill:none;stroke:#9933ff;stroke-dasharray:5.55,2.4;stroke-dashoffset:0;stroke-width:1.5;"/>
   </g>
   <g id="matplotlib.axis_1">
    <g id="xtick_1">
     <g id="line2d_3">
      <defs>
       <path d="M 0 0 
L 0 3.5 
" id="m7b82416a7c" style="stroke:#000000;stroke-width:0.8;"/>
      </defs>
      <g>
       <use style="stroke:#000000;stroke-width:0.8;" x="63.763866" xlink:href="#m7b82416a7c" y="177.250051"/>
      </g>
     </g>
     <g id="text_1">
      <!-- $0$ -->
      <defs>
       <path d="M 27.5 71 
C 20.90625 71 14.90625 68.09375 11.203125 63.1875 
C 6.59375 57.015625 4.296875 47.546875 4.296875 34.484375 
C 4.296875 10.671875 12.296875 -2 27.5 -2 
C 42.5 -2 50.703125 10.671875 50.703125 33.890625 
C 50.703125 47.640625 48.5 56.8125 43.796875 63.1875 
C 40.09375 68.1875 34.203125 71 27.5 71 
z
M 27.5 63.1875 
C 37 63.1875 41.703125 53.625 41.703125 34.6875 
C 41.703125 14.65625 37.09375 5.296875 27.296875 5.296875 
C 18 5.296875 13.296875 15.0625 13.296875 34.390625 
C 13.296875 53.71875 18 63.1875 27.5 63.1875 
z
" id="Nimbus_Sans_L_Regular-48"/>
      </defs>
      <g transform="translate(60.440369 192.768035)scale(0.12 -0.12)">
       <use transform="scale(0.996264)" xlink:href="#Nimbus_Sans_L_Regular-48"/>
      </g>
     </g>
    </g>
    <g id="xtick_2">
     <g id="line2d_4">
      <g>
       <use style="stroke:#000000;stroke-width:0.8;" x="114.292298" xlink:href="#m7b82416a7c" y="177.250051"/>
      </g>
     </g>
     <g id="text_2">
      <!-- $20$ -->
      <defs>
       <path d="M 50.59375 8.6875 
L 13.296875 8.6875 
C 14.203125 14.5 17.40625 18.203125 26.09375 23.328125 
L 36.09375 28.734375 
C 46 34.140625 51.09375 41.453125 51.09375 50.171875 
C 51.09375 56.078125 48.703125 61.59375 44.5 65.390625 
C 40.296875 69.1875 35.09375 71 28.40625 71 
C 19.40625 71 12.703125 67.796875 8.796875 61.796875 
C 6.296875 57.984375 5.203125 53.578125 5 46.359375 
L 13.796875 46.359375 
C 14.09375 51.171875 14.703125 54.078125 15.90625 56.375 
C 18.203125 60.6875 22.796875 63.296875 28.09375 63.296875 
C 36.09375 63.296875 42.09375 57.578125 42.09375 49.96875 
C 42.09375 44.359375 38.796875 39.546875 32.5 35.9375 
L 23.296875 30.734375 
C 8.5 22.3125 4.203125 15.609375 3.40625 0 
L 50.59375 0 
z
" id="Nimbus_Sans_L_Regular-50"/>
      </defs>
      <g transform="translate(107.645304 192.768035)scale(0.12 -0.12)">
       <use transform="scale(0.996264)" xlink:href="#Nimbus_Sans_L_Regular-50"/>
       <use transform="translate(55.391677 0)scale(0.996264)" xlink:href="#Nimbus_Sans_L_Regular-48"/>
      </g>
     </g>
    </g>
    <g id="xtick_3">
     <g id="line2d_5">
      <g>
       <use style="stroke:#000000;stroke-width:0.8;" x="164.82073" xlink:href="#m7b82416a7c" y="177.250051"/>
      </g>
     </g>
     <g id="text_3">
      <!-- $40$ -->
      <defs>
       <path d="M 32.703125 17 
L 32.703125 0 
L 41.5 0 
L 41.5 17 
L 52 17 
L 52 24.890625 
L 41.5 24.890625 
L 41.5 70.890625 
L 35 70.890625 
L 2.796875 26.296875 
L 2.796875 17 
z
M 32.703125 24.890625 
L 10.5 24.890625 
L 32.703125 55.890625 
z
" id="Nimbus_Sans_L_Regular-52"/>
      </defs>
      <g transform="translate(158.173736 192.768035)scale(0.12 -0.12)">
       <use transform="scale(0.996264)" xlink:href="#Nimbus_Sans_L_Regular-52"/>
       <use transform="translate(55.391677 0)scale(0.996264)" xlink:href="#Nimbus_Sans_L_Regular-48"/>
      </g>
     </g>
    </g>
    <g id="xtick_4">
     <g id="line2d_6">
      <g>
       <use style="stroke:#000000;stroke-width:0.8;" x="215.349162" xlink:href="#m7b82416a7c" y="177.250051"/>
      </g>
     </g>
     <g id="text_4">
      <!-- $60$ -->
      <defs>
       <path d="M 49.796875 52.375 
C 48.09375 64.09375 40.5 71 29.703125 71 
C 21.90625 71 14.90625 67.1875 10.703125 60.859375 
C 6.296875 53.890625 4.296875 45.109375 4.296875 32.25 
C 4.296875 20.5 6.09375 13 10.296875 6.78125 
C 14.09375 1.09375 20.296875 -2 28.09375 -2 
C 41.59375 -2 51.296875 7.96875 51.296875 21.6875 
C 51.296875 34.703125 42.296875 44 29.59375 44 
C 22.59375 44 17.09375 41.296875 13.296875 36.09375 
C 13.40625 53.484375 19 63.1875 29.09375 63.1875 
C 35.296875 63.1875 39.59375 59.25 41 52.375 
z
M 28.5 36.1875 
C 37 36.1875 42.296875 30.375 42.296875 20.984375 
C 42.296875 12.203125 36.296875 5.796875 28.203125 5.796875 
C 20 5.796875 13.796875 12.5 13.796875 21.484375 
C 13.796875 30.171875 19.796875 36.1875 28.5 36.1875 
z
" id="Nimbus_Sans_L_Regular-54"/>
      </defs>
      <g transform="translate(208.702168 192.768035)scale(0.12 -0.12)">
       <use transform="scale(0.996264)" xlink:href="#Nimbus_Sans_L_Regular-54"/>
       <use transform="translate(55.391677 0)scale(0.996264)" xlink:href="#Nimbus_Sans_L_Regular-48"/>
      </g>
     </g>
    </g>
    <g id="xtick_5">
     <g id="line2d_7">
      <g>
       <use style="stroke:#000000;stroke-width:0.8;" x="265.877595" xlink:href="#m7b82416a7c" y="177.250051"/>
      </g>
     </g>
     <g id="text_5">
      <!-- $80$ -->
      <defs>
       <path d="M 39.09375 37.484375 
C 46.40625 41.890625 48.796875 45.46875 48.796875 52.140625 
C 48.796875 63.1875 40.09375 71 27.5 71 
C 15 71 6.203125 63.1875 6.203125 52.140625 
C 6.203125 45.578125 8.59375 41.984375 15.796875 37.484375 
C 7.703125 33.59375 3.703125 27.71875 3.703125 19.9375 
C 3.703125 6.984375 13.5 -2 27.5 -2 
C 41.5 -2 51.296875 6.984375 51.296875 19.84375 
C 51.296875 27.71875 47.296875 33.59375 39.09375 37.484375 
z
M 27.5 63.1875 
C 35 63.1875 39.796875 58.8125 39.796875 51.9375 
C 39.796875 45.375 34.90625 41 27.5 41 
C 20.09375 41 15.203125 45.375 15.203125 52.046875 
C 15.203125 58.8125 20.09375 63.1875 27.5 63.1875 
z
M 27.5 33.59375 
C 36.296875 33.59375 42.296875 28.015625 42.296875 19.75 
C 42.296875 11.375 36.296875 5.796875 27.296875 5.796875 
C 18.703125 5.796875 12.703125 11.46875 12.703125 19.75 
C 12.703125 28.015625 18.703125 33.59375 27.5 33.59375 
z
" id="Nimbus_Sans_L_Regular-56"/>
      </defs>
      <g transform="translate(259.2306 192.768035)scale(0.12 -0.12)">
       <use transform="scale(0.996264)" xlink:href="#Nimbus_Sans_L_Regular-56"/>
       <use transform="translate(55.391677 0)scale(0.996264)" xlink:href="#Nimbus_Sans_L_Regular-48"/>
      </g>
     </g>
    </g>
    <g id="xtick_6">
     <g id="line2d_8">
      <defs>
       <path d="M 0 0 
L 0 2 
" id="mbf6583a704" style="stroke:#000000;stroke-width:0.6;"/>
      </defs>
      <g>
       <use style="stroke:#000000;stroke-width:0.6;" x="76.395974" xlink:href="#mbf6583a704" y="177.250051"/>
      </g>
     </g>
    </g>
    <g id="xtick_7">
     <g id="line2d_9">
      <g>
       <use style="stroke:#000000;stroke-width:0.6;" x="89.028082" xlink:href="#mbf6583a704" y="177.250051"/>
      </g>
     </g>
    </g>
    <g id="xtick_8">
     <g id="line2d_10">
      <g>
       <use style="stroke:#000000;stroke-width:0.6;" x="101.66019" xlink:href="#mbf6583a704" y="177.250051"/>
      </g>
     </g>
    </g>
    <g id="xtick_9">
     <g id="line2d_11">
      <g>
       <use style="stroke:#000000;stroke-width:0.6;" x="126.924406" xlink:href="#mbf6583a704" y="177.250051"/>
      </g>
     </g>
    </g>
    <g id="xtick_10">
     <g id="line2d_12">
      <g>
       <use style="stroke:#000000;stroke-width:0.6;" x="139.556514" xlink:href="#mbf6583a704" y="177.250051"/>
      </g>
     </g>
    </g>
    <g id="xtick_11">
     <g id="line2d_13">
      <g>
       <use style="stroke:#000000;stroke-width:0.6;" x="152.188622" xlink:href="#mbf6583a704" y="177.250051"/>
      </g>
     </g>
    </g>
    <g id="xtick_12">
     <g id="line2d_14">
      <g>
       <use style="stroke:#000000;stroke-width:0.6;" x="177.452838" xlink:href="#mbf6583a704" y="177.250051"/>
      </g>
     </g>
    </g>
    <g id="xtick_13">
     <g id="line2d_15">
      <g>
       <use style="stroke:#000000;stroke-width:0.6;" x="190.084946" xlink:href="#mbf6583a704" y="177.250051"/>
      </g>
     </g>
    </g>
    <g id="xtick_14">
     <g id="line2d_16">
      <g>
       <use style="stroke:#000000;stroke-width:0.6;" x="202.717054" xlink:href="#mbf6583a704" y="177.250051"/>
      </g>
     </g>
    </g>
    <g id="xtick_15">
     <g id="line2d_17">
      <g>
       <use style="stroke:#000000;stroke-width:0.6;" x="227.981271" xlink:href="#mbf6583a704" y="177.250051"/>
      </g>
     </g>
    </g>
    <g id="xtick_16">
     <g id="line2d_18">
      <g>
       <use style="stroke:#000000;stroke-width:0.6;" x="240.613379" xlink:href="#mbf6583a704" y="177.250051"/>
      </g>
     </g>
    </g>
    <g id="xtick_17">
     <g id="line2d_19">
      <g>
       <use style="stroke:#000000;stroke-width:0.6;" x="253.245487" xlink:href="#mbf6583a704" y="177.250051"/>
      </g>
     </g>
    </g>
    <g id="xtick_18">
     <g id="line2d_20">
      <g>
       <use style="stroke:#000000;stroke-width:0.6;" x="278.509703" xlink:href="#mbf6583a704" y="177.250051"/>
      </g>
     </g>
    </g>
    <g id="text_6">
     <!-- Time (min) -->
     <defs>
      <path d="M 35.40625 64.796875 
L 59.296875 64.796875 
L 59.296875 73 
L 2.09375 73 
L 2.09375 64.796875 
L 26.09375 64.796875 
L 26.09375 0 
L 35.40625 0 
z
" id="Nimbus_Sans_L_Regular-84"/>
      <path d="M 15 52.46875 
L 6.703125 52.46875 
L 6.703125 0 
L 15 0 
z
M 15 73 
L 6.59375 73 
L 6.59375 62.484375 
L 15 62.484375 
z
" id="Nimbus_Sans_L_Regular-105"/>
      <path d="M 7 52 
L 7 0 
L 15.40625 0 
L 15.40625 32.640625 
C 15.40625 40.578125 20.90625 46.6875 27.703125 46.6875 
C 33.90625 46.6875 37.40625 42.875 37.40625 36.171875 
L 37.40625 0 
L 45.796875 0 
L 45.796875 32.953125 
C 45.796875 40.578125 51.296875 46.6875 58.09375 46.6875 
C 64.203125 46.6875 67.796875 42.78125 67.796875 36.171875 
L 67.796875 0 
L 76.203125 0 
L 76.203125 39.375 
C 76.203125 48.796875 70.796875 54 61 54 
C 54 54 49.796875 51.890625 44.90625 45.984375 
C 41.796875 51.59375 37.59375 54 30.796875 54 
C 23.796875 54 19.203125 51.390625 14.703125 45.09375 
L 14.703125 52 
z
" id="Nimbus_Sans_L_Regular-109"/>
      <path d="M 51.296875 23.1875 
C 51.296875 31.21875 50.703125 36.109375 49.203125 40.078125 
C 45.796875 48.796875 37.796875 54 28 54 
C 13.40625 54 4 42.71875 4 25.296875 
C 4 8.515625 13.09375 -2 27.796875 -2 
C 39.796875 -2 48.09375 4.796875 50.203125 15.90625 
L 41.796875 15.90625 
C 39.5 9.1875 34.796875 5.6875 28.09375 5.6875 
C 22.796875 5.6875 18.296875 8.03125 15.5 12.296875 
C 13.5 15.21875 12.796875 18.140625 12.703125 23.1875 
z
M 12.90625 30 
C 13.59375 39.875 19.5 46.296875 27.90625 46.296875 
C 36.09375 46.296875 42.40625 39.359375 42.40625 30.609375 
C 42.40625 30.40625 42.40625 30.203125 42.296875 30 
z
" id="Nimbus_Sans_L_Regular-101"/>
      <path d="M 23.59375 73 
C 13.59375 59.890625 7.296875 41.6875 7.296875 25.984375 
C 7.296875 10.1875 13.59375 -8.015625 23.59375 -21.109375 
L 29.09375 -21.109375 
C 20.296875 -6.8125 15.40625 9.984375 15.40625 25.984375 
C 15.40625 41.890625 20.296875 58.796875 29.09375 73 
z
" id="Nimbus_Sans_L_Regular-40"/>
      <path d="M 7 52 
L 7 0 
L 15.40625 0 
L 15.40625 28.671875 
C 15.40625 39.671875 21 46.6875 29.59375 46.6875 
C 36.203125 46.6875 40.40625 42.6875 40.40625 36.375 
L 40.40625 0 
L 48.703125 0 
L 48.703125 39.671875 
C 48.703125 48.390625 42.203125 54 32.09375 54 
C 24.296875 54 19.296875 50.984375 14.703125 43.6875 
L 14.703125 52 
z
" id="Nimbus_Sans_L_Regular-110"/>
      <path d="M 9.296875 -21.109375 
C 19.296875 -8.015625 25.59375 10.1875 25.59375 25.890625 
C 25.59375 41.6875 19.296875 59.890625 9.296875 73 
L 3.796875 73 
C 12.59375 58.6875 17.5 41.890625 17.5 25.890625 
C 17.5 9.984375 12.59375 -6.90625 3.796875 -21.109375 
z
" id="Nimbus_Sans_L_Regular-41"/>
     </defs>
     <g transform="translate(142.582144 208.053625)scale(0.12 -0.12)">
      <use transform="scale(0.996264)" xlink:href="#Nimbus_Sans_L_Regular-84"/>
      <use transform="translate(60.871631 0)scale(0.996264)" xlink:href="#Nimbus_Sans_L_Regular-105"/>
      <use transform="translate(82.988415 0)scale(0.996264)" xlink:href="#Nimbus_Sans_L_Regular-109"/>
      <use transform="translate(165.976845 0)scale(0.996264)" xlink:href="#Nimbus_Sans_L_Regular-101"/>
      <use transform="translate(249.063692 0)scale(0.996264)" xlink:href="#Nimbus_Sans_L_Regular-40"/>
      <use transform="translate(282.238922 0)scale(0.996264)" xlink:href="#Nimbus_Sans_L_Regular-109"/>
      <use transform="translate(365.227352 0)scale(0.996264)" xlink:href="#Nimbus_Sans_L_Regular-105"/>
      <use transform="translate(387.344136 0)scale(0.996264)" xlink:href="#Nimbus_Sans_L_Regular-110"/>
      <use transform="translate(442.735813 0)scale(0.996264)" xlink:href="#Nimbus_Sans_L_Regular-41"/>
     </g>
    </g>
   </g>
   <g id="matplotlib.axis_2">
    <g id="ytick_1">
     <g id="line2d_21">
      <defs>
       <path d="M 0 0 
L -3.5 0 
" id="m722226ea7a" style="stroke:#000000;stroke-width:0.8;"/>
      </defs>
      <g>
       <use style="stroke:#000000;stroke-width:0.8;" x="53.026574" xlink:href="#m722226ea7a" y="169.684139"/>
      </g>
     </g>
     <g id="text_7">
      <!-- $0$ -->
      <g transform="translate(39.37958 173.943131)scale(0.12 -0.12)">
       <use transform="scale(0.996264)" xlink:href="#Nimbus_Sans_L_Regular-48"/>
      </g>
     </g>
    </g>
    <g id="ytick_2">
     <g id="line2d_22">
      <g>
       <use style="stroke:#000000;stroke-width:0.8;" x="53.026574" xlink:href="#m722226ea7a" y="139.420494"/>
      </g>
     </g>
     <g id="text_8">
      <!-- $20$ -->
      <g transform="translate(32.732585 143.679486)scale(0.12 -0.12)">
       <use transform="scale(0.996264)" xlink:href="#Nimbus_Sans_L_Regular-50"/>
       <use transform="translate(55.391677 0)scale(0.996264)" xlink:href="#Nimbus_Sans_L_Regular-48"/>
      </g>
     </g>
    </g>
    <g id="ytick_3">
     <g id="line2d_23">
      <g>
       <use style="stroke:#000000;stroke-width:0.8;" x="53.026574" xlink:href="#m722226ea7a" y="109.156848"/>
      </g>
     </g>
     <g id="text_9">
      <!-- $40$ -->
      <g transform="translate(32.732585 113.41584)scale(0.12 -0.12)">
       <use transform="scale(0.996264)" xlink:href="#Nimbus_Sans_L_Regular-52"/>
       <use transform="translate(55.391677 0)scale(0.996264)" xlink:href="#Nimbus_Sans_L_Regular-48"/>
      </g>
     </g>
    </g>
    <g id="ytick_4">
     <g id="line2d_24">
      <g>
       <use style="stroke:#000000;stroke-width:0.8;" x="53.026574" xlink:href="#m722226ea7a" y="78.893203"/>
      </g>
     </g>
     <g id="text_10">
      <!-- $60$ -->
      <g transform="translate(32.732585 83.152195)scale(0.12 -0.12)">
       <use transform="scale(0.996264)" xlink:href="#Nimbus_Sans_L_Regular-54"/>
       <use transform="translate(55.391677 0)scale(0.996264)" xlink:href="#Nimbus_Sans_L_Regular-48"/>
      </g>
     </g>
    </g>
    <g id="ytick_5">
     <g id="line2d_25">
      <g>
       <use style="stroke:#000000;stroke-width:0.8;" x="53.026574" xlink:href="#m722226ea7a" y="48.629557"/>
      </g>
     </g>
     <g id="text_11">
      <!-- $80$ -->
      <g transform="translate(32.732585 52.888549)scale(0.12 -0.12)">
       <use transform="scale(0.996264)" xlink:href="#Nimbus_Sans_L_Regular-56"/>
       <use transform="translate(55.391677 0)scale(0.996264)" xlink:href="#Nimbus_Sans_L_Regular-48"/>
      </g>
     </g>
    </g>
    <g id="ytick_6">
     <g id="line2d_26">
      <g>
       <use style="stroke:#000000;stroke-width:0.8;" x="53.026574" xlink:href="#m722226ea7a" y="18.365911"/>
      </g>
     </g>
     <g id="text_12">
      <!-- $100$ -->
      <defs>
       <path d="M 25.90625 50.5 
L 25.90625 0 
L 34.703125 0 
L 34.703125 70.890625 
L 28.90625 70.890625 
C 25.796875 60 23.796875 58.5 10.203125 56.796875 
L 10.203125 50.5 
z
" id="Nimbus_Sans_L_Regular-49"/>
      </defs>
      <g transform="translate(26.08559 22.624904)scale(0.12 -0.12)">
       <use transform="scale(0.996264)" xlink:href="#Nimbus_Sans_L_Regular-49"/>
       <use transform="translate(55.391677 0)scale(0.996264)" xlink:href="#Nimbus_Sans_L_Regular-48"/>
       <use transform="translate(110.783354 0)scale(0.996264)" xlink:href="#Nimbus_Sans_L_Regular-48"/>
      </g>
     </g>
    </g>
    <g id="ytick_7">
     <g id="line2d_27">
      <defs>
       <path d="M 0 0 
L -2 0 
" id="mdff006b41f" style="stroke:#000000;stroke-width:0.6;"/>
      </defs>
      <g>
       <use style="stroke:#000000;stroke-width:0.6;" x="53.026574" xlink:href="#mdff006b41f" y="162.118228"/>
      </g>
     </g>
    </g>
    <g id="ytick_8">
     <g id="line2d_28">
      <g>
       <use style="stroke:#000000;stroke-width:0.6;" x="53.026574" xlink:href="#mdff006b41f" y="154.552317"/>
      </g>
     </g>
    </g>
    <g id="ytick_9">
     <g id="line2d_29">
      <g>
       <use style="stroke:#000000;stroke-width:0.6;" x="53.026574" xlink:href="#mdff006b41f" y="146.986405"/>
      </g>
     </g>
    </g>
    <g id="ytick_10">
     <g id="line2d_30">
      <g>
       <use style="stroke:#000000;stroke-width:0.6;" x="53.026574" xlink:href="#mdff006b41f" y="131.854582"/>
      </g>
     </g>
    </g>
    <g id="ytick_11">
     <g id="line2d_31">
      <g>
       <use style="stroke:#000000;stroke-width:0.6;" x="53.026574" xlink:href="#mdff006b41f" y="124.288671"/>
      </g>
     </g>
    </g>
    <g id="ytick_12">
     <g id="line2d_32">
      <g>
       <use style="stroke:#000000;stroke-width:0.6;" x="53.026574" xlink:href="#mdff006b41f" y="116.72276"/>
      </g>
     </g>
    </g>
    <g id="ytick_13">
     <g id="line2d_33">
      <g>
       <use style="stroke:#000000;stroke-width:0.6;" x="53.026574" xlink:href="#mdff006b41f" y="101.590937"/>
      </g>
     </g>
    </g>
    <g id="ytick_14">
     <g id="line2d_34">
      <g>
       <use style="stroke:#000000;stroke-width:0.6;" x="53.026574" xlink:href="#mdff006b41f" y="94.025025"/>
      </g>
     </g>
    </g>
    <g id="ytick_15">
     <g id="line2d_35">
      <g>
       <use style="stroke:#000000;stroke-width:0.6;" x="53.026574" xlink:href="#mdff006b41f" y="86.459114"/>
      </g>
     </g>
    </g>
    <g id="ytick_16">
     <g id="line2d_36">
      <g>
       <use style="stroke:#000000;stroke-width:0.6;" x="53.026574" xlink:href="#mdff006b41f" y="71.327291"/>
      </g>
     </g>
    </g>
    <g id="ytick_17">
     <g id="line2d_37">
      <g>
       <use style="stroke:#000000;stroke-width:0.6;" x="53.026574" xlink:href="#mdff006b41f" y="63.76138"/>
      </g>
     </g>
    </g>
    <g id="ytick_18">
     <g id="line2d_38">
      <g>
       <use style="stroke:#000000;stroke-width:0.6;" x="53.026574" xlink:href="#mdff006b41f" y="56.195468"/>
      </g>
     </g>
    </g>
    <g id="ytick_19">
     <g id="line2d_39">
      <g>
       <use style="stroke:#000000;stroke-width:0.6;" x="53.026574" xlink:href="#mdff006b41f" y="41.063646"/>
      </g>
     </g>
    </g>
    <g id="ytick_20">
     <g id="line2d_40">
      <g>
       <use style="stroke:#000000;stroke-width:0.6;" x="53.026574" xlink:href="#mdff006b41f" y="33.497734"/>
      </g>
     </g>
    </g>
    <g id="ytick_21">
     <g id="line2d_41">
      <g>
       <use style="stroke:#000000;stroke-width:0.6;" x="53.026574" xlink:href="#mdff006b41f" y="25.931823"/>
      </g>
     </g>
    </g>
    <g id="ytick_22">
     <g id="line2d_42">
      <g>
       <use style="stroke:#000000;stroke-width:0.6;" x="53.026574" xlink:href="#mdff006b41f" y="10.8"/>
      </g>
     </g>
    </g>
    <g id="text_13">
     <!-- rel. abundance $(\%)$ -->
     <defs>
      <path d="M 6.90625 52 
L 6.90625 0 
L 15.296875 0 
L 15.296875 26.984375 
C 15.296875 34.421875 17.203125 39.28125 21.203125 42.15625 
C 23.796875 44.046875 26.296875 44.640625 32.09375 44.734375 
L 32.09375 53.1875 
C 30.703125 53.890625 30 54 28.90625 54 
C 23.5 54 19.40625 50.796875 14.59375 42.96875 
L 14.59375 52 
z
" id="Nimbus_Sans_L_Regular-114"/>
      <path d="M 15.203125 73 
L 6.796875 73 
L 6.796875 0 
L 15.203125 0 
z
" id="Nimbus_Sans_L_Regular-108"/>
      <path d="M 19.09375 10.390625 
L 8.703125 10.390625 
L 8.703125 0 
L 19.09375 0 
z
" id="Nimbus_Sans_L_Regular-46"/>
      <path d="M 53.5 5.1875 
C 52.59375 5 52.203125 5 51.703125 5 
C 48.796875 5 47.203125 6.484375 47.203125 9.078125 
L 47.203125 39.71875 
C 47.203125 48.984375 40.40625 54 27.5 54 
C 19.90625 54 13.59375 51.796875 10.09375 47.890625 
C 7.703125 45.203125 6.703125 42.21875 6.5 37.03125 
L 14.90625 37.03125 
C 15.59375 43.40625 19.40625 46.296875 27.203125 46.296875 
C 34.703125 46.296875 38.90625 43.5 38.90625 38.53125 
L 38.90625 36.34375 
C 38.90625 32.859375 36.796875 31.359375 30.203125 30.5625 
C 18.40625 29.078125 16.59375 28.671875 13.40625 27.390625 
C 7.296875 24.890625 4.203125 20.21875 4.203125 13.453125 
C 4.203125 4 10.796875 -2 21.40625 -2 
C 28 -2 33.296875 0.296875 39.203125 5.6875 
C 39.796875 0.390625 42.40625 -2 47.796875 -2 
C 49.5 -2 50.796875 -1.8125 53.5 -1.109375 
z
M 38.90625 16.734375 
C 38.90625 13.953125 38.09375 12.265625 35.59375 9.96875 
C 32.203125 6.890625 28.09375 5.296875 23.203125 5.296875 
C 16.703125 5.296875 12.90625 8.375 12.90625 13.65625 
C 12.90625 19.125 16.59375 21.90625 25.5 23.203125 
C 34.296875 24.40625 36.09375 24.796875 38.90625 26.09375 
z
" id="Nimbus_Sans_L_Regular-97"/>
      <path d="M 5.40625 73 
L 5.40625 0.296875 
L 12.90625 0.296875 
L 12.90625 6.984375 
C 16.90625 0.890625 22.203125 -2 29.5 -2 
C 43.296875 -2 52.296875 9.28125 52.296875 26.59375 
C 52.296875 43.5 43.703125 54 29.90625 54 
C 22.703125 54 17.59375 51.296875 13.703125 45.390625 
L 13.703125 73 
z
M 28.296875 46.1875 
C 37.59375 46.1875 43.59375 38.125 43.59375 25.6875 
C 43.59375 13.859375 37.40625 5.796875 28.296875 5.796875 
C 19.5 5.796875 13.703125 13.75 13.703125 25.984375 
C 13.703125 38.234375 19.5 46.1875 28.296875 46.1875 
z
" id="Nimbus_Sans_L_Regular-98"/>
      <path d="M 48.203125 0.296875 
L 48.203125 52 
L 39.90625 52 
L 39.90625 22.71875 
C 39.90625 12.1875 34.296875 5.296875 25.59375 5.296875 
C 19 5.296875 14.796875 9.234375 14.796875 15.4375 
L 14.796875 52 
L 6.5 52 
L 6.5 12.1875 
C 6.5 3.59375 13 -2 23.203125 -2 
C 30.90625 -2 35.796875 0.6875 40.703125 7.5625 
L 40.703125 0.296875 
z
" id="Nimbus_Sans_L_Regular-117"/>
      <path d="M 49.5 73 
L 41.203125 73 
L 41.203125 45.890625 
C 37.703125 51.1875 32.09375 54 25.09375 54 
C 11.5 54 2.59375 43.109375 2.59375 26.484375 
C 2.59375 8.875 11.296875 -2 25.40625 -2 
C 32.59375 -2 37.59375 0.6875 42.09375 7.1875 
L 42.09375 0.296875 
L 49.5 0.296875 
z
M 26.5 46.1875 
C 35.5 46.1875 41.203125 38.234375 41.203125 25.796875 
C 41.203125 13.75 35.40625 5.796875 26.59375 5.796875 
C 17.40625 5.796875 11.296875 13.859375 11.296875 25.984375 
C 11.296875 38.125 17.40625 46.1875 26.5 46.1875 
z
" id="Nimbus_Sans_L_Regular-100"/>
      <path d="M 47.09375 34.953125 
C 46.703125 40.015625 45.59375 43.296875 43.59375 46.1875 
C 40 51.09375 33.703125 54 26.40625 54 
C 12.296875 54 3.09375 42.8125 3.09375 25.5 
C 3.09375 8.671875 12.09375 -2 26.296875 -2 
C 38.796875 -2 46.703125 5.5 47.703125 18.234375 
L 39.296875 18.234375 
C 37.90625 9.875 33.59375 5.6875 26.5 5.6875 
C 17.296875 5.6875 11.796875 13.15625 11.796875 25.5 
C 11.796875 38.53125 17.203125 46.296875 26.296875 46.296875 
C 33.296875 46.296875 37.703125 42.203125 38.703125 34.953125 
z
" id="Nimbus_Sans_L_Regular-99"/>
      <path d="M 19.90625 69 
C 10.59375 69 2.90625 61.296875 2.90625 52 
C 2.90625 42.6875 10.59375 34.984375 20 34.984375 
C 29.296875 34.984375 37 42.6875 37 51.796875 
C 37 61.40625 29.5 69 19.90625 69 
z
M 19.90625 61.984375 
C 25.59375 61.984375 30.09375 57.53125 30.09375 51.890625 
C 30.09375 46.453125 25.5 42 20 42 
C 14.40625 42 9.796875 46.546875 9.796875 52 
C 9.796875 57.53125 14.40625 61.984375 19.90625 61.984375 
z
M 60.90625 71.390625 
L 21.40625 -2.109375 
L 28 -2.109375 
L 67.5 71.390625 
z
M 68.796875 32 
C 59.5 32 51.796875 24.296875 51.796875 15.046875 
C 51.796875 5.6875 59.5 -2 68.90625 -2 
C 78.09375 -2 85.90625 5.6875 85.90625 14.84375 
C 85.90625 24.390625 78.40625 32 68.796875 32 
z
M 68.796875 25 
C 74.5 25 79 20.515625 79 14.84375 
C 79 9.46875 74.40625 5 68.90625 5 
C 63.296875 5 58.703125 9.46875 58.703125 15.046875 
C 58.703125 20.515625 63.296875 25 68.796875 25 
z
" id="Nimbus_Sans_L_Regular-37"/>
     </defs>
     <g transform="translate(19.539216 144.797907)rotate(-90)scale(0.12 -0.12)">
      <use transform="scale(0.996264)" xlink:href="#Nimbus_Sans_L_Regular-114"/>
      <use transform="translate(33.17523 0)scale(0.996264)" xlink:href="#Nimbus_Sans_L_Regular-101"/>
      <use transform="translate(88.566907 0)scale(0.996264)" xlink:href="#Nimbus_Sans_L_Regular-108"/>
      <use transform="translate(110.683691 0)scale(0.996264)" xlink:href="#Nimbus_Sans_L_Regular-46"/>
      <use transform="translate(172.648512 0)scale(0.996264)" xlink:href="#Nimbus_Sans_L_Regular-97"/>
      <use transform="translate(228.040189 0)scale(0.996264)" xlink:href="#Nimbus_Sans_L_Regular-98"/>
      <use transform="translate(281.439855 0)scale(0.996264)" xlink:href="#Nimbus_Sans_L_Regular-117"/>
      <use transform="translate(336.831532 0)scale(0.996264)" xlink:href="#Nimbus_Sans_L_Regular-110"/>
      <use transform="translate(392.223209 0)scale(0.996264)" xlink:href="#Nimbus_Sans_L_Regular-100"/>
      <use transform="translate(447.614886 0)scale(0.996264)" xlink:href="#Nimbus_Sans_L_Regular-97"/>
      <use transform="translate(503.006563 0)scale(0.996264)" xlink:href="#Nimbus_Sans_L_Regular-110"/>
      <use transform="translate(558.39824 0)scale(0.996264)" xlink:href="#Nimbus_Sans_L_Regular-99"/>
      <use transform="translate(608.21144 0)scale(0.996264)" xlink:href="#Nimbus_Sans_L_Regular-101"/>
      <use transform="translate(691.298287 0)scale(0.996264)" xlink:href="#Nimbus_Sans_L_Regular-40"/>
      <use transform="translate(724.473517 0)scale(0.996264)" xlink:href="#Nimbus_Sans_L_Regular-37"/>
      <use transform="translate(813.040423 0)scale(0.996264)" xlink:href="#Nimbus_Sans_L_Regular-41"/>
     </g>
    </g>
   </g>
   <g id="patch_3">
    <path d="M 53.026574 177.250051 
L 53.026574 10.8 
" style="fill:none;stroke:#000000;stroke-linecap:square;stroke-linejoin:miter;stroke-width:0.8;"/>
   </g>
   <g id="patch_4">
    <path d="M 53.026574 177.250051 
L 289.246995 177.250051 
" style="fill:none;stroke:#000000;stroke-linecap:square;stroke-linejoin:miter;stroke-width:0.8;"/>
   </g>
   <g id="line2d_43">
    <path clip-path="url(#p76c35cd543)" d="M 76.395974 20.914144 
L 89.028082 23.001997 
L 101.66019 26.373637 
L 114.292298 27.925362 
L 126.924406 32.241631 
L 139.556514 36.281729 
L 152.188622 40.177335 
L 63.763866 18.365911 
" style="fill:none;"/>
    <defs>
     <path d="M -2.5 2.5 
L 2.5 2.5 
L 2.5 -2.5 
L -2.5 -2.5 
z
" id="m8fbd5d5542" style="stroke:#000000;stroke-linejoin:miter;"/>
    </defs>
    <g clip-path="url(#p76c35cd543)">
     <use style="fill:#ff3333;stroke:#000000;stroke-linejoin:miter;" x="76.395974" xlink:href="#m8fbd5d5542" y="20.914144"/>
     <use style="fill:#ff3333;stroke:#000000;stroke-linejoin:miter;" x="89.028082" xlink:href="#m8fbd5d5542" y="23.001997"/>
     <use style="fill:#ff3333;stroke:#000000;stroke-linejoin:miter;" x="101.66019" xlink:href="#m8fbd5d5542" y="26.373637"/>
     <use style="fill:#ff3333;stroke:#000000;stroke-linejoin:miter;" x="114.292298" xlink:href="#m8fbd5d5542" y="27.925362"/>
     <use style="fill:#ff3333;stroke:#000000;stroke-linejoin:miter;" x="126.924406" xlink:href="#m8fbd5d5542" y="32.241631"/>
     <use style="fill:#ff3333;stroke:#000000;stroke-linejoin:miter;" x="139.556514" xlink:href="#m8fbd5d5542" y="36.281729"/>
     <use style="fill:#ff3333;stroke:#000000;stroke-linejoin:miter;" x="152.188622" xlink:href="#m8fbd5d5542" y="40.177335"/>
     <use style="fill:#ff3333;stroke:#000000;stroke-linejoin:miter;" x="63.763866" xlink:href="#m8fbd5d5542" y="18.365911"/>
    </g>
   </g>
   <g id="line2d_44">
    <path clip-path="url(#p76c35cd543)" d="M 76.395974 20.981175 
L 139.556514 45.028271 
L 177.452838 51.58491 
L 227.981271 74.321038 
L 278.509703 97.45301 
" style="fill:none;"/>
    <defs>
     <path d="M -2.5 2.5 
L 2.5 2.5 
L 2.5 -2.5 
L -2.5 -2.5 
z
" id="m3434ab303d" style="stroke:#ff3333;stroke-linejoin:miter;"/>
    </defs>
    <g clip-path="url(#p76c35cd543)">
     <use style="fill:#ffffff;stroke:#ff3333;stroke-linejoin:miter;" x="76.395974" xlink:href="#m3434ab303d" y="20.981175"/>
     <use style="fill:#ffffff;stroke:#ff3333;stroke-linejoin:miter;" x="139.556514" xlink:href="#m3434ab303d" y="45.028271"/>
     <use style="fill:#ffffff;stroke:#ff3333;stroke-linejoin:miter;" x="177.452838" xlink:href="#m3434ab303d" y="51.58491"/>
     <use style="fill:#ffffff;stroke:#ff3333;stroke-linejoin:miter;" x="227.981271" xlink:href="#m3434ab303d" y="74.321038"/>
     <use style="fill:#ffffff;stroke:#ff3333;stroke-linejoin:miter;" x="278.509703" xlink:href="#m3434ab303d" y="97.45301"/>
    </g>
   </g>
   <g id="line2d_45">
    <path clip-path="url(#p76c35cd543)" d="M 76.395974 169.414364 
L 89.028082 169.032081 
L 101.66019 167.059398 
L 114.292298 167.199223 
L 126.924406 164.850067 
L 139.556514 162.966637 
L 152.188622 160.869388 
L 63.763866 169.684139 
" style="fill:none;"/>
    <defs>
     <path d="M -2.5 2.5 
L 2.5 2.5 
L 2.5 -2.5 
L -2.5 -2.5 
z
" id="m3bf43c95cc" style="stroke:#000000;stroke-linejoin:miter;"/>
    </defs>
    <g clip-path="url(#p76c35cd543)">
     <use style="fill:#9933ff;stroke:#000000;stroke-linejoin:miter;" x="76.395974" xlink:href="#m3bf43c95cc" y="169.414364"/>
     <use style="fill:#9933ff;stroke:#000000;stroke-linejoin:miter;" x="89.028082" xlink:href="#m3bf43c95cc" y="169.032081"/>
     <use style="fill:#9933ff;stroke:#000000;stroke-linejoin:miter;" x="101.66019" xlink:href="#m3bf43c95cc" y="167.059398"/>
     <use style="fill:#9933ff;stroke:#000000;stroke-linejoin:miter;" x="114.292298" xlink:href="#m3bf43c95cc" y="167.199223"/>
     <use style="fill:#9933ff;stroke:#000000;stroke-linejoin:miter;" x="126.924406" xlink:href="#m3bf43c95cc" y="164.850067"/>
     <use style="fill:#9933ff;stroke:#000000;stroke-linejoin:miter;" x="139.556514" xlink:href="#m3bf43c95cc" y="162.966637"/>
     <use style="fill:#9933ff;stroke:#000000;stroke-linejoin:miter;" x="152.188622" xlink:href="#m3bf43c95cc" y="160.869388"/>
     <use style="fill:#9933ff;stroke:#000000;stroke-linejoin:miter;" x="63.763866" xlink:href="#m3bf43c95cc" y="169.684139"/>
    </g>
   </g>
   <g id="line2d_46">
    <path clip-path="url(#p76c35cd543)" d="M 76.395974 168.614367 
L 139.556514 157.514801 
L 177.452838 149.988275 
L 227.981271 131.752894 
L 278.509703 111.872299 
" style="fill:none;"/>
    <defs>
     <path d="M -2.5 2.5 
L 2.5 2.5 
L 2.5 -2.5 
L -2.5 -2.5 
z
" id="md6cc147fa2" style="stroke:#9933ff;stroke-linejoin:miter;"/>
    </defs>
    <g clip-path="url(#p76c35cd543)">
     <use style="fill:#ffffff;stroke:#9933ff;stroke-linejoin:miter;" x="76.395974" xlink:href="#md6cc147fa2" y="168.614367"/>
     <use style="fill:#ffffff;stroke:#9933ff;stroke-linejoin:miter;" x="139.556514" xlink:href="#md6cc147fa2" y="157.514801"/>
     <use style="fill:#ffffff;stroke:#9933ff;stroke-linejoin:miter;" x="177.452838" xlink:href="#md6cc147fa2" y="149.988275"/>
     <use style="fill:#ffffff;stroke:#9933ff;stroke-linejoin:miter;" x="227.981271" xlink:href="#md6cc147fa2" y="131.752894"/>
     <use style="fill:#ffffff;stroke:#9933ff;stroke-linejoin:miter;" x="278.509703" xlink:href="#md6cc147fa2" y="111.872299"/>
    </g>
   </g>
   <g id="legend_1">
    <g id="patch_5">
     <path d="M 60.026574 123.965639 
L 138.282162 123.965639 
Q 140.282162 123.965639 140.282162 121.965639 
L 140.282162 66.084412 
Q 140.282162 64.084412 138.282162 64.084412 
L 60.026574 64.084412 
Q 58.026574 64.084412 58.026574 66.084412 
L 58.026574 121.965639 
Q 58.026574 123.965639 60.026574 123.965639 
z
" style="fill:#ffffff;opacity:0.8;stroke:#cccccc;stroke-linejoin:miter;"/>
    </g>
    <g id="line2d_47">
     <path d="M 62.026574 71.682732 
L 82.026574 71.682732 
" style="fill:none;"/>
    </g>
    <g id="line2d_48">
     <g>
      <use style="fill:#ff3333;stroke:#000000;stroke-linejoin:miter;" x="72.026574" xlink:href="#m8fbd5d5542" y="71.682732"/>
     </g>
    </g>
    <g id="text_14">
     <!-- $labeled$ -->
     <defs>
      <path d="M 30.703125 73 
L 22.296875 73 
L 6.796875 0 
L 15.203125 0 
z
" id="Nimbus_Sans_L_Regular_Italic-108"/>
      <path d="M 55.203125 5.390625 
C 54.296875 5.1875 53.90625 5.1875 53.5 5.1875 
C 50.90625 5.1875 49.703125 6.09375 49.703125 8.078125 
C 49.703125 8.484375 49.703125 8.78125 49.796875 9.078125 
L 56.203125 39.03125 
C 56.796875 41.71875 56.796875 41.71875 56.796875 42.703125 
C 56.796875 49.484375 49.90625 54 39.40625 54 
C 25.5 54 17 48.09375 15.09375 37.03125 
L 23.5 37.03125 
C 24.40625 39.828125 25.09375 41.21875 26.5 42.609375 
C 28.703125 44.796875 32.90625 46.296875 37.203125 46.296875 
C 43.203125 46.296875 47.796875 43.609375 47.796875 39.921875 
C 47.796875 39.53125 47.703125 38.828125 47.59375 38.03125 
L 47.296875 36.25 
C 46.40625 32.15625 44.5 31.0625 37.203125 30.375 
C 23.796875 29.171875 19.59375 28.1875 14.703125 25.09375 
C 9.5 21.8125 6.5 16.53125 6.5 10.765625 
C 6.5 2.796875 11.90625 -2 20.90625 -2 
C 24.40625 -2 28.59375 -1.3125 32.203125 0 
C 35.40625 1.09375 36.90625 2.09375 41 5.6875 
L 41 5 
L 41 4.59375 
C 41 0.5 43.796875 -2 48.59375 -2 
C 49.703125 -2 50 -2 52.5 -1.40625 
C 52.703125 -1.3125 53.296875 -1.203125 53.90625 -1.109375 
z
M 43.09375 16.640625 
C 41.796875 10.46875 33 5.1875 24.203125 5.1875 
C 18.5 5.1875 15.296875 7.578125 15.296875 11.765625 
C 15.296875 15.046875 17.203125 18.328125 20.203125 20.125 
C 22.59375 21.609375 25.59375 22.40625 30.5 23.109375 
C 39.90625 24.40625 40.703125 24.5 45.09375 25.984375 
z
" id="Nimbus_Sans_L_Regular_Italic-97"/>
      <path d="M 20.90625 73 
L 5.40625 0.296875 
L 12.90625 0.296875 
L 14.59375 8.078125 
C 15.90625 5 16.796875 3.59375 18.296875 2.09375 
C 20.90625 -0.5 25 -2 29.40625 -2 
C 36.09375 -2 43.203125 1.09375 47.703125 5.796875 
C 54.40625 12.859375 58.796875 24.203125 58.796875 34.453125 
C 58.796875 45.59375 51.203125 54 41.09375 54 
C 37.09375 54 32.59375 52.796875 29.59375 50.984375 
C 27.90625 49.890625 26.59375 48.796875 23.5 45.5 
L 29.296875 73 
z
M 38.296875 46.296875 
C 45.59375 46.296875 50 41.109375 50 32.5625 
C 50 26.890625 48.296875 20.515625 45.40625 15.75 
C 41.296875 8.96875 36.09375 5.6875 29.59375 5.6875 
C 22.796875 5.6875 18.5 10.671875 18.5 18.53125 
C 18.5 24.703125 20.296875 31.46875 23.09375 36.234375 
C 27 42.8125 32.296875 46.296875 38.296875 46.296875 
z
" id="Nimbus_Sans_L_Regular_Italic-98"/>
      <path d="M 56.296875 23.796875 
L 56.59375 25.484375 
C 57.5 30.296875 58 34.421875 58 37.078125 
C 58 46.484375 49.703125 54 38.90625 54 
C 30.203125 54 21.796875 49.890625 16.796875 43.25 
C 12.09375 37.078125 8.40625 25.796875 8.40625 17.65625 
C 8.40625 12.234375 10.703125 6.703125 14.59375 3 
C 18.09375 -0.40625 22.5 -2 28.203125 -2 
C 40.203125 -2 50.5 5.390625 53.59375 16.25 
L 45.203125 16.25 
C 41.59375 9.3125 36.296875 5.6875 29.59375 5.6875 
C 21.703125 5.6875 17.203125 10.625 17.203125 19.171875 
C 17.203125 21.28125 17.296875 22.28125 17.703125 23.796875 
z
M 19.5 31 
C 22.09375 40.015625 29.5 46.296875 37.59375 46.296875 
C 44.703125 46.296875 49.203125 41.578125 49.203125 34.234375 
C 49.203125 33.25 49.09375 32.5625 48.90625 31 
z
" id="Nimbus_Sans_L_Regular_Italic-101"/>
      <path d="M 65 73 
L 56.59375 73 
L 50.59375 44.890625 
C 47.40625 51.390625 43.40625 54 36.296875 54 
C 19.703125 54 7.296875 38.234375 7.296875 17.234375 
C 7.296875 5.59375 14 -2 24.40625 -2 
C 28.703125 -2 33.296875 -0.609375 37.296875 1.796875 
C 40.296875 3.59375 41.59375 5.09375 43 7.875 
L 41.40625 0.296875 
L 49.5 0.296875 
z
M 35.5 46.296875 
C 42.90625 46.296875 47.296875 41.3125 47.296875 32.859375 
C 47.296875 26.984375 45.703125 20.921875 42.703125 15.75 
C 38.796875 9.078125 33.90625 5.6875 27.796875 5.6875 
C 20.40625 5.6875 16.09375 10.671875 16.09375 19.21875 
C 16.09375 24.796875 17.796875 31.171875 20.5 36.234375 
C 24.296875 43.109375 29.09375 46.296875 35.5 46.296875 
z
" id="Nimbus_Sans_L_Regular_Italic-100"/>
     </defs>
     <g transform="translate(90.026574 75.182732)scale(0.1 -0.1)">
      <use transform="scale(0.996264)" xlink:href="#Nimbus_Sans_L_Regular_Italic-108"/>
      <use transform="translate(30.6846 0)scale(0.996264)" xlink:href="#Nimbus_Sans_L_Regular_Italic-97"/>
      <use transform="translate(86.374141 0)scale(0.996264)" xlink:href="#Nimbus_Sans_L_Regular_Italic-98"/>
      <use transform="translate(144.554402 0)scale(0.996264)" xlink:href="#Nimbus_Sans_L_Regular_Italic-101"/>
      <use transform="translate(202.087737 0)scale(0.996264)" xlink:href="#Nimbus_Sans_L_Regular_Italic-108"/>
      <use transform="translate(232.772337 0)scale(0.996264)" xlink:href="#Nimbus_Sans_L_Regular_Italic-101"/>
      <use transform="translate(290.305671 0)scale(0.996264)" xlink:href="#Nimbus_Sans_L_Regular_Italic-100"/>
     </g>
    </g>
    <g id="line2d_49">
     <path d="M 62.026574 85.903039 
L 82.026574 85.903039 
" style="fill:none;"/>
    </g>
    <g id="line2d_50">
     <g>
      <use style="fill:#ffffff;stroke:#ff3333;stroke-linejoin:miter;" x="72.026574" xlink:href="#m3434ab303d" y="85.903039"/>
     </g>
    </g>
    <g id="text_15">
     <!-- $labeled$ -->
     <g transform="translate(90.026574 89.403039)scale(0.1 -0.1)">
      <use transform="scale(0.996264)" xlink:href="#Nimbus_Sans_L_Regular_Italic-108"/>
      <use transform="translate(30.6846 0)scale(0.996264)" xlink:href="#Nimbus_Sans_L_Regular_Italic-97"/>
      <use transform="translate(86.374141 0)scale(0.996264)" xlink:href="#Nimbus_Sans_L_Regular_Italic-98"/>
      <use transform="translate(144.554402 0)scale(0.996264)" xlink:href="#Nimbus_Sans_L_Regular_Italic-101"/>
      <use transform="translate(202.087737 0)scale(0.996264)" xlink:href="#Nimbus_Sans_L_Regular_Italic-108"/>
      <use transform="translate(232.772337 0)scale(0.996264)" xlink:href="#Nimbus_Sans_L_Regular_Italic-101"/>
      <use transform="translate(290.305671 0)scale(0.996264)" xlink:href="#Nimbus_Sans_L_Regular_Italic-100"/>
     </g>
    </g>
    <g id="line2d_51">
     <path d="M 62.026574 100.123346 
L 82.026574 100.123346 
" style="fill:none;"/>
    </g>
    <g id="line2d_52">
     <g>
      <use style="fill:#9933ff;stroke:#000000;stroke-linejoin:miter;" x="72.026574" xlink:href="#m3bf43c95cc" y="100.123346"/>
     </g>
    </g>
    <g id="text_16">
     <!-- $unlabeled$ -->
     <defs>
      <path d="M 48.296875 0.296875 
L 59.40625 52 
L 51 52 
L 44.703125 22.71875 
C 42.40625 12.078125 35.296875 5.1875 26.796875 5.1875 
C 21.40625 5.1875 17.90625 8.140625 17.90625 12.78125 
C 17.90625 13.5625 18 14.453125 18.203125 15.4375 
L 26.09375 52 
L 17.703125 52 
L 9.09375 12.1875 
C 8.90625 11.203125 8.796875 10.109375 8.796875 8.828125 
C 8.796875 2.09375 14 -2 22.59375 -2 
C 30.40625 -2 36.09375 0.390625 41.90625 5.984375 
L 40.703125 0.296875 
z
" id="Nimbus_Sans_L_Regular_Italic-117"/>
      <path d="M 18.09375 52 
L 7 0 
L 15.40625 0 
L 21.5 28.671875 
C 23.90625 39.96875 30.90625 46.796875 39.90625 46.796875 
C 44.90625 46.796875 48.59375 43.28125 48.59375 38.671875 
C 48.59375 38.078125 48.40625 36.5625 48 34.96875 
L 40.59375 0 
L 49 0 
L 57 37.671875 
C 57.296875 38.96875 57.40625 40.171875 57.40625 41.484375 
C 57.40625 49.09375 52.09375 54 43.796875 54 
C 36.203125 54 29.59375 51.296875 24.40625 45.984375 
L 25.703125 52 
z
" id="Nimbus_Sans_L_Regular_Italic-110"/>
     </defs>
     <g transform="translate(90.026574 103.623346)scale(0.1 -0.1)">
      <use transform="scale(0.996264)" xlink:href="#Nimbus_Sans_L_Regular_Italic-117"/>
      <use transform="translate(59.824532 0)scale(0.996264)" xlink:href="#Nimbus_Sans_L_Regular_Italic-110"/>
      <use transform="translate(116.859248 0)scale(0.996264)" xlink:href="#Nimbus_Sans_L_Regular_Italic-108"/>
      <use transform="translate(147.543848 0)scale(0.996264)" xlink:href="#Nimbus_Sans_L_Regular_Italic-97"/>
      <use transform="translate(203.233389 0)scale(0.996264)" xlink:href="#Nimbus_Sans_L_Regular_Italic-98"/>
      <use transform="translate(261.41365 0)scale(0.996264)" xlink:href="#Nimbus_Sans_L_Regular_Italic-101"/>
      <use transform="translate(318.946985 0)scale(0.996264)" xlink:href="#Nimbus_Sans_L_Regular_Italic-108"/>
      <use transform="translate(349.631585 0)scale(0.996264)" xlink:href="#Nimbus_Sans_L_Regular_Italic-101"/>
      <use transform="translate(407.164919 0)scale(0.996264)" xlink:href="#Nimbus_Sans_L_Regular_Italic-100"/>
     </g>
    </g>
    <g id="line2d_53">
     <path d="M 62.026574 114.343652 
L 82.026574 114.343652 
" style="fill:none;"/>
    </g>
    <g id="line2d_54">
     <g>
      <use style="fill:#ffffff;stroke:#9933ff;stroke-linejoin:miter;" x="72.026574" xlink:href="#md6cc147fa2" y="114.343652"/>
     </g>
    </g>
    <g id="text_17">
     <!-- $unlabeled$ -->
     <g transform="translate(90.026574 117.843652)scale(0.1 -0.1)">
      <use transform="scale(0.996264)" xlink:href="#Nimbus_Sans_L_Regular_Italic-117"/>
      <use transform="translate(59.824532 0)scale(0.996264)" xlink:href="#Nimbus_Sans_L_Regular_Italic-110"/>
      <use transform="translate(116.859248 0)scale(0.996264)" xlink:href="#Nimbus_Sans_L_Regular_Italic-108"/>
      <use transform="translate(147.543848 0)scale(0.996264)" xlink:href="#Nimbus_Sans_L_Regular_Italic-97"/>
      <use transform="translate(203.233389 0)scale(0.996264)" xlink:href="#Nimbus_Sans_L_Regular_Italic-98"/>
      <use transform="translate(261.41365 0)scale(0.996264)" xlink:href="#Nimbus_Sans_L_Regular_Italic-101"/>
      <use transform="translate(318.946985 0)scale(0.996264)" xlink:href="#Nimbus_Sans_L_Regular_Italic-108"/>
      <use transform="translate(349.631585 0)scale(0.996264)" xlink:href="#Nimbus_Sans_L_Regular_Italic-101"/>
      <use transform="translate(407.164919 0)scale(0.996264)" xlink:href="#Nimbus_Sans_L_Regular_Italic-100"/>
     </g>
    </g>
   </g>
  </g>
  <g id="axes_2">
   <g id="patch_6">
    <path d="M 328.97958 177.250051 
L 565.2 177.250051 
L 565.2 10.8 
L 328.97958 10.8 
z
" style="fill:#ffffff;"/>
   </g>
   <g id="line2d_55">
    <path clip-path="url(#p54af8e869a)" d="M 339.716871 167.579508 
L 346.19162 166.324021 
L 352.666369 164.859963 
L 360.220243 162.905447 
L 367.774116 160.704983 
L 375.32799 158.278998 
L 383.960988 155.256505 
L 392.593987 151.996632 
L 402.30611 148.083503 
L 413.097358 143.481298 
L 424.967731 138.178508 
L 441.154603 130.680993 
L 480.003096 112.562619 
L 491.873469 107.309626 
L 502.664717 102.768024 
L 512.376841 98.921923 
L 521.009839 95.731561 
L 529.642838 92.787924 
L 537.196711 90.438606 
L 544.750585 88.321963 
L 552.304459 86.458424 
L 554.462708 85.975332 
L 554.462708 85.975332 
" style="fill:none;stroke:#000000;stroke-dasharray:5.55,2.4;stroke-dashoffset:0;stroke-width:1.5;"/>
   </g>
   <g id="matplotlib.axis_3">
    <g id="xtick_19">
     <g id="line2d_56">
      <g>
       <use style="stroke:#000000;stroke-width:0.8;" x="339.716871" xlink:href="#m7b82416a7c" y="177.250051"/>
      </g>
     </g>
     <g id="text_18">
      <!-- $0$ -->
      <g transform="translate(336.393374 192.768035)scale(0.12 -0.12)">
       <use transform="scale(0.996264)" xlink:href="#Nimbus_Sans_L_Regular-48"/>
      </g>
     </g>
    </g>
    <g id="xtick_20">
     <g id="line2d_57">
      <g>
       <use style="stroke:#000000;stroke-width:0.8;" x="390.245304" xlink:href="#m7b82416a7c" y="177.250051"/>
      </g>
     </g>
     <g id="text_19">
      <!-- $20$ -->
      <g transform="translate(383.598309 192.768035)scale(0.12 -0.12)">
       <use transform="scale(0.996264)" xlink:href="#Nimbus_Sans_L_Regular-50"/>
       <use transform="translate(55.391677 0)scale(0.996264)" xlink:href="#Nimbus_Sans_L_Regular-48"/>
      </g>
     </g>
    </g>
    <g id="xtick_21">
     <g id="line2d_58">
      <g>
       <use style="stroke:#000000;stroke-width:0.8;" x="440.773736" xlink:href="#m7b82416a7c" y="177.250051"/>
      </g>
     </g>
     <g id="text_20">
      <!-- $40$ -->
      <g transform="translate(434.126741 192.768035)scale(0.12 -0.12)">
       <use transform="scale(0.996264)" xlink:href="#Nimbus_Sans_L_Regular-52"/>
       <use transform="translate(55.391677 0)scale(0.996264)" xlink:href="#Nimbus_Sans_L_Regular-48"/>
      </g>
     </g>
    </g>
    <g id="xtick_22">
     <g id="line2d_59">
      <g>
       <use style="stroke:#000000;stroke-width:0.8;" x="491.302168" xlink:href="#m7b82416a7c" y="177.250051"/>
      </g>
     </g>
     <g id="text_21">
      <!-- $60$ -->
      <g transform="translate(484.655173 192.768035)scale(0.12 -0.12)">
       <use transform="scale(0.996264)" xlink:href="#Nimbus_Sans_L_Regular-54"/>
       <use transform="translate(55.391677 0)scale(0.996264)" xlink:href="#Nimbus_Sans_L_Regular-48"/>
      </g>
     </g>
    </g>
    <g id="xtick_23">
     <g id="line2d_60">
      <g>
       <use style="stroke:#000000;stroke-width:0.8;" x="541.8306" xlink:href="#m7b82416a7c" y="177.250051"/>
      </g>
     </g>
     <g id="text_22">
      <!-- $80$ -->
      <g transform="translate(535.183606 192.768035)scale(0.12 -0.12)">
       <use transform="scale(0.996264)" xlink:href="#Nimbus_Sans_L_Regular-56"/>
       <use transform="translate(55.391677 0)scale(0.996264)" xlink:href="#Nimbus_Sans_L_Regular-48"/>
      </g>
     </g>
    </g>
    <g id="xtick_24">
     <g id="line2d_61">
      <g>
       <use style="stroke:#000000;stroke-width:0.6;" x="352.348979" xlink:href="#mbf6583a704" y="177.250051"/>
      </g>
     </g>
    </g>
    <g id="xtick_25">
     <g id="line2d_62">
      <g>
       <use style="stroke:#000000;stroke-width:0.6;" x="364.981087" xlink:href="#mbf6583a704" y="177.250051"/>
      </g>
     </g>
    </g>
    <g id="xtick_26">
     <g id="line2d_63">
      <g>
       <use style="stroke:#000000;stroke-width:0.6;" x="377.613195" xlink:href="#mbf6583a704" y="177.250051"/>
      </g>
     </g>
    </g>
    <g id="xtick_27">
     <g id="line2d_64">
      <g>
       <use style="stroke:#000000;stroke-width:0.6;" x="402.877412" xlink:href="#mbf6583a704" y="177.250051"/>
      </g>
     </g>
    </g>
    <g id="xtick_28">
     <g id="line2d_65">
      <g>
       <use style="stroke:#000000;stroke-width:0.6;" x="415.50952" xlink:href="#mbf6583a704" y="177.250051"/>
      </g>
     </g>
    </g>
    <g id="xtick_29">
     <g id="line2d_66">
      <g>
       <use style="stroke:#000000;stroke-width:0.6;" x="428.141628" xlink:href="#mbf6583a704" y="177.250051"/>
      </g>
     </g>
    </g>
    <g id="xtick_30">
     <g id="line2d_67">
      <g>
       <use style="stroke:#000000;stroke-width:0.6;" x="453.405844" xlink:href="#mbf6583a704" y="177.250051"/>
      </g>
     </g>
    </g>
    <g id="xtick_31">
     <g id="line2d_68">
      <g>
       <use style="stroke:#000000;stroke-width:0.6;" x="466.037952" xlink:href="#mbf6583a704" y="177.250051"/>
      </g>
     </g>
    </g>
    <g id="xtick_32">
     <g id="line2d_69">
      <g>
       <use style="stroke:#000000;stroke-width:0.6;" x="478.67006" xlink:href="#mbf6583a704" y="177.250051"/>
      </g>
     </g>
    </g>
    <g id="xtick_33">
     <g id="line2d_70">
      <g>
       <use style="stroke:#000000;stroke-width:0.6;" x="503.934276" xlink:href="#mbf6583a704" y="177.250051"/>
      </g>
     </g>
    </g>
    <g id="xtick_34">
     <g id="line2d_71">
      <g>
       <use style="stroke:#000000;stroke-width:0.6;" x="516.566384" xlink:href="#mbf6583a704" y="177.250051"/>
      </g>
     </g>
    </g>
    <g id="xtick_35">
     <g id="line2d_72">
      <g>
       <use style="stroke:#000000;stroke-width:0.6;" x="529.198492" xlink:href="#mbf6583a704" y="177.250051"/>
      </g>
     </g>
    </g>
    <g id="xtick_36">
     <g id="line2d_73">
      <g>
       <use style="stroke:#000000;stroke-width:0.6;" x="554.462708" xlink:href="#mbf6583a704" y="177.250051"/>
      </g>
     </g>
    </g>
    <g id="text_23">
     <!-- Time (min) -->
     <g transform="translate(418.535149 208.053625)scale(0.12 -0.12)">
      <use transform="scale(0.996264)" xlink:href="#Nimbus_Sans_L_Regular-84"/>
      <use transform="translate(60.871631 0)scale(0.996264)" xlink:href="#Nimbus_Sans_L_Regular-105"/>
      <use transform="translate(82.988415 0)scale(0.996264)" xlink:href="#Nimbus_Sans_L_Regular-109"/>
      <use transform="translate(165.976845 0)scale(0.996264)" xlink:href="#Nimbus_Sans_L_Regular-101"/>
      <use transform="translate(249.063692 0)scale(0.996264)" xlink:href="#Nimbus_Sans_L_Regular-40"/>
      <use transform="translate(282.238922 0)scale(0.996264)" xlink:href="#Nimbus_Sans_L_Regular-109"/>
      <use transform="translate(365.227352 0)scale(0.996264)" xlink:href="#Nimbus_Sans_L_Regular-105"/>
      <use transform="translate(387.344136 0)scale(0.996264)" xlink:href="#Nimbus_Sans_L_Regular-110"/>
      <use transform="translate(442.735813 0)scale(0.996264)" xlink:href="#Nimbus_Sans_L_Regular-41"/>
     </g>
    </g>
   </g>
   <g id="matplotlib.axis_4">
    <g id="ytick_23">
     <g id="line2d_74">
      <g>
       <use style="stroke:#000000;stroke-width:0.8;" x="328.97958" xlink:href="#m722226ea7a" y="166.153381"/>
      </g>
     </g>
     <g id="text_24">
      <!-- $0$ -->
      <g transform="translate(315.332585 170.412373)scale(0.12 -0.12)">
       <use transform="scale(0.996264)" xlink:href="#Nimbus_Sans_L_Regular-48"/>
      </g>
     </g>
    </g>
    <g id="ytick_24">
     <g id="line2d_75">
      <g>
       <use style="stroke:#000000;stroke-width:0.8;" x="328.97958" xlink:href="#m722226ea7a" y="121.7667"/>
      </g>
     </g>
     <g id="text_25">
      <!-- $2$ -->
      <g transform="translate(315.332585 126.025693)scale(0.12 -0.12)">
       <use transform="scale(0.996264)" xlink:href="#Nimbus_Sans_L_Regular-50"/>
      </g>
     </g>
    </g>
    <g id="ytick_25">
     <g id="line2d_76">
      <g>
       <use style="stroke:#000000;stroke-width:0.8;" x="328.97958" xlink:href="#m722226ea7a" y="77.38002"/>
      </g>
     </g>
     <g id="text_26">
      <!-- $4$ -->
      <g transform="translate(315.332585 81.639012)scale(0.12 -0.12)">
       <use transform="scale(0.996264)" xlink:href="#Nimbus_Sans_L_Regular-52"/>
      </g>
     </g>
    </g>
    <g id="ytick_26">
     <g id="line2d_77">
      <g>
       <use style="stroke:#000000;stroke-width:0.8;" x="328.97958" xlink:href="#m722226ea7a" y="32.99334"/>
      </g>
     </g>
     <g id="text_27">
      <!-- $6$ -->
      <g transform="translate(315.332585 37.252332)scale(0.12 -0.12)">
       <use transform="scale(0.996264)" xlink:href="#Nimbus_Sans_L_Regular-54"/>
      </g>
     </g>
    </g>
    <g id="ytick_27">
     <g id="line2d_78">
      <g>
       <use style="stroke:#000000;stroke-width:0.6;" x="328.97958" xlink:href="#mdff006b41f" y="155.056711"/>
      </g>
     </g>
    </g>
    <g id="ytick_28">
     <g id="line2d_79">
      <g>
       <use style="stroke:#000000;stroke-width:0.6;" x="328.97958" xlink:href="#mdff006b41f" y="143.960041"/>
      </g>
     </g>
    </g>
    <g id="ytick_29">
     <g id="line2d_80">
      <g>
       <use style="stroke:#000000;stroke-width:0.6;" x="328.97958" xlink:href="#mdff006b41f" y="132.863371"/>
      </g>
     </g>
    </g>
    <g id="ytick_30">
     <g id="line2d_81">
      <g>
       <use style="stroke:#000000;stroke-width:0.6;" x="328.97958" xlink:href="#mdff006b41f" y="110.67003"/>
      </g>
     </g>
    </g>
    <g id="ytick_31">
     <g id="line2d_82">
      <g>
       <use style="stroke:#000000;stroke-width:0.6;" x="328.97958" xlink:href="#mdff006b41f" y="99.57336"/>
      </g>
     </g>
    </g>
    <g id="ytick_32">
     <g id="line2d_83">
      <g>
       <use style="stroke:#000000;stroke-width:0.6;" x="328.97958" xlink:href="#mdff006b41f" y="88.47669"/>
      </g>
     </g>
    </g>
    <g id="ytick_33">
     <g id="line2d_84">
      <g>
       <use style="stroke:#000000;stroke-width:0.6;" x="328.97958" xlink:href="#mdff006b41f" y="66.28335"/>
      </g>
     </g>
    </g>
    <g id="ytick_34">
     <g id="line2d_85">
      <g>
       <use style="stroke:#000000;stroke-width:0.6;" x="328.97958" xlink:href="#mdff006b41f" y="55.18668"/>
      </g>
     </g>
    </g>
    <g id="ytick_35">
     <g id="line2d_86">
      <g>
       <use style="stroke:#000000;stroke-width:0.6;" x="328.97958" xlink:href="#mdff006b41f" y="44.09001"/>
      </g>
     </g>
    </g>
    <g id="ytick_36">
     <g id="line2d_87">
      <g>
       <use style="stroke:#000000;stroke-width:0.6;" x="328.97958" xlink:href="#mdff006b41f" y="21.89667"/>
      </g>
     </g>
    </g>
    <g id="ytick_37">
     <g id="line2d_88">
      <g>
       <use style="stroke:#000000;stroke-width:0.6;" x="328.97958" xlink:href="#mdff006b41f" y="10.8"/>
      </g>
     </g>
    </g>
    <g id="text_28">
     <!-- rel. abundance $(\%)$ -->
     <g transform="translate(308.78621 144.797907)rotate(-90)scale(0.12 -0.12)">
      <use transform="scale(0.996264)" xlink:href="#Nimbus_Sans_L_Regular-114"/>
      <use transform="translate(33.17523 0)scale(0.996264)" xlink:href="#Nimbus_Sans_L_Regular-101"/>
      <use transform="translate(88.566907 0)scale(0.996264)" xlink:href="#Nimbus_Sans_L_Regular-108"/>
      <use transform="translate(110.683691 0)scale(0.996264)" xlink:href="#Nimbus_Sans_L_Regular-46"/>
      <use transform="translate(172.648512 0)scale(0.996264)" xlink:href="#Nimbus_Sans_L_Regular-97"/>
      <use transform="translate(228.040189 0)scale(0.996264)" xlink:href="#Nimbus_Sans_L_Regular-98"/>
      <use transform="translate(281.439855 0)scale(0.996264)" xlink:href="#Nimbus_Sans_L_Regular-117"/>
      <use transform="translate(336.831532 0)scale(0.996264)" xlink:href="#Nimbus_Sans_L_Regular-110"/>
      <use transform="translate(392.223209 0)scale(0.996264)" xlink:href="#Nimbus_Sans_L_Regular-100"/>
      <use transform="translate(447.614886 0)scale(0.996264)" xlink:href="#Nimbus_Sans_L_Regular-97"/>
      <use transform="translate(503.006563 0)scale(0.996264)" xlink:href="#Nimbus_Sans_L_Regular-110"/>
      <use transform="translate(558.39824 0)scale(0.996264)" xlink:href="#Nimbus_Sans_L_Regular-99"/>
      <use transform="translate(608.21144 0)scale(0.996264)" xlink:href="#Nimbus_Sans_L_Regular-101"/>
      <use transform="translate(691.298287 0)scale(0.996264)" xlink:href="#Nimbus_Sans_L_Regular-40"/>
      <use transform="translate(724.473517 0)scale(0.996264)" xlink:href="#Nimbus_Sans_L_Regular-37"/>
      <use transform="translate(813.040423 0)scale(0.996264)" xlink:href="#Nimbus_Sans_L_Regular-41"/>
     </g>
    </g>
   </g>
   <g id="patch_7">
    <path d="M 328.97958 177.250051 
L 328.97958 10.8 
" style="fill:none;stroke:#000000;stroke-linecap:square;stroke-linejoin:miter;stroke-width:0.8;"/>
   </g>
   <g id="patch_8">
    <path d="M 328.97958 177.250051 
L 565.2 177.250051 
" style="fill:none;stroke:#000000;stroke-linecap:square;stroke-linejoin:miter;stroke-width:0.8;"/>
   </g>
   <g id="line2d_89">
    <path clip-path="url(#p54af8e869a)" d="M 352.348979 164.495956 
L 364.981087 162.477582 
L 377.613195 158.409795 
L 390.245304 156.463313 
L 402.877412 148.919265 
L 415.50952 144.896295 
L 428.141628 137.610144 
L 339.716871 166.153381 
" style="fill:none;"/>
    <defs>
     <path d="M -2.5 2.5 
L 2.5 2.5 
L 2.5 -2.5 
L -2.5 -2.5 
z
" id="mcffe99fe1c" style="stroke:#000000;stroke-linejoin:miter;"/>
    </defs>
    <g clip-path="url(#p54af8e869a)">
     <use style="stroke:#000000;stroke-linejoin:miter;" x="352.348979" xlink:href="#mcffe99fe1c" y="164.495956"/>
     <use style="stroke:#000000;stroke-linejoin:miter;" x="364.981087" xlink:href="#mcffe99fe1c" y="162.477582"/>
     <use style="stroke:#000000;stroke-linejoin:miter;" x="377.613195" xlink:href="#mcffe99fe1c" y="158.409795"/>
     <use style="stroke:#000000;stroke-linejoin:miter;" x="390.245304" xlink:href="#mcffe99fe1c" y="156.463313"/>
     <use style="stroke:#000000;stroke-linejoin:miter;" x="402.877412" xlink:href="#mcffe99fe1c" y="148.919265"/>
     <use style="stroke:#000000;stroke-linejoin:miter;" x="415.50952" xlink:href="#mcffe99fe1c" y="144.896295"/>
     <use style="stroke:#000000;stroke-linejoin:miter;" x="428.141628" xlink:href="#mcffe99fe1c" y="137.610144"/>
     <use style="stroke:#000000;stroke-linejoin:miter;" x="339.716871" xlink:href="#mcffe99fe1c" y="166.153381"/>
    </g>
   </g>
   <g id="line2d_90">
    <path clip-path="url(#p54af8e869a)" d="M 352.348979 165.116977 
L 415.50952 127.822481 
L 453.405844 123.478484 
L 503.934276 104.718459 
L 554.462708 85.209694 
" style="fill:none;"/>
    <defs>
     <path d="M -2.5 2.5 
L 2.5 2.5 
L 2.5 -2.5 
L -2.5 -2.5 
z
" id="mf022b7e143" style="stroke:#000000;stroke-linejoin:miter;"/>
    </defs>
    <g clip-path="url(#p54af8e869a)">
     <use style="fill:#ffffff;stroke:#000000;stroke-linejoin:miter;" x="352.348979" xlink:href="#mf022b7e143" y="165.116977"/>
     <use style="fill:#ffffff;stroke:#000000;stroke-linejoin:miter;" x="415.50952" xlink:href="#mf022b7e143" y="127.822481"/>
     <use style="fill:#ffffff;stroke:#000000;stroke-linejoin:miter;" x="453.405844" xlink:href="#mf022b7e143" y="123.478484"/>
     <use style="fill:#ffffff;stroke:#000000;stroke-linejoin:miter;" x="503.934276" xlink:href="#mf022b7e143" y="104.718459"/>
     <use style="fill:#ffffff;stroke:#000000;stroke-linejoin:miter;" x="554.462708" xlink:href="#mf022b7e143" y="85.209694"/>
    </g>
   </g>
   <g id="legend_2">
    <g id="patch_9">
     <path d="M 514.95737 47.240613 
L 558.2 47.240613 
Q 560.2 47.240613 560.2 45.240613 
L 560.2 17.8 
Q 560.2 15.8 558.2 15.8 
L 514.95737 15.8 
Q 512.95737 15.8 512.95737 17.8 
L 512.95737 45.240613 
Q 512.95737 47.240613 514.95737 47.240613 
z
" style="fill:#ffffff;opacity:0.8;stroke:#cccccc;stroke-linejoin:miter;"/>
    </g>
    <g id="line2d_91">
     <path d="M 516.95737 23.39832 
L 536.95737 23.39832 
" style="fill:none;"/>
    </g>
    <g id="line2d_92">
     <g>
      <use style="stroke:#000000;stroke-linejoin:miter;" x="526.95737" xlink:href="#mcffe99fe1c" y="23.39832"/>
     </g>
    </g>
    <g id="text_29">
     <!-- $h$1 -->
     <defs>
      <path d="M 22.5 73 
L 7 0 
L 15.40625 0 
L 21.5 28.953125 
C 23.90625 39.96875 30.90625 46.796875 40 46.796875 
C 45.09375 46.796875 48.5 43.390625 48.5 38.265625 
C 48.5 37.0625 48.5 37.0625 47.90625 34.359375 
L 40.59375 0 
L 49 0 
L 57 37.671875 
C 57.296875 38.96875 57.40625 40.171875 57.40625 41.375 
C 57.40625 49.296875 52.296875 54 43.90625 54 
C 36.40625 54 31.5 51.890625 25.203125 45.984375 
L 30.90625 73 
z
" id="Nimbus_Sans_L_Regular_Italic-104"/>
     </defs>
     <g transform="translate(544.95737 26.89832)scale(0.1 -0.1)">
      <use transform="scale(0.996264)" xlink:href="#Nimbus_Sans_L_Regular_Italic-104"/>
      <use transform="translate(57.034716 0)scale(0.996264)" xlink:href="#Nimbus_Sans_L_Regular-49"/>
     </g>
    </g>
    <g id="line2d_93">
     <path d="M 516.95737 37.618627 
L 536.95737 37.618627 
" style="fill:none;"/>
    </g>
    <g id="line2d_94">
     <g>
      <use style="fill:#ffffff;stroke:#000000;stroke-linejoin:miter;" x="526.95737" xlink:href="#mf022b7e143" y="37.618627"/>
     </g>
    </g>
    <g id="text_30">
     <!-- $h$1 -->
     <g transform="translate(544.95737 41.118627)scale(0.1 -0.1)">
      <use transform="scale(0.996264)" xlink:href="#Nimbus_Sans_L_Regular_Italic-104"/>
      <use transform="translate(57.034716 0)scale(0.996264)" xlink:href="#Nimbus_Sans_L_Regular-49"/>
     </g>
    </g>
   </g>
  </g>
  <g id="axes_3">
   <g id="patch_10">
    <path d="M 53.026574 387.850051 
L 289.246995 387.850051 
L 289.246995 221.4 
L 53.026574 221.4 
z
" style="fill:#ffffff;"/>
   </g>
   <g id="line2d_95">
    <path clip-path="url(#p18766e7e98)" d="M 63.763866 378.150406 
L 69.15949 376.676161 
L 74.555114 374.930612 
L 79.950738 372.92649 
L 85.346362 370.676527 
L 90.741986 368.193455 
L 96.13761 365.490006 
L 102.612359 361.972896 
L 109.087108 358.178776 
L 115.561857 354.129648 
L 123.11573 349.112716 
L 130.669604 343.81357 
L 139.302602 337.456652 
L 147.935601 330.828911 
L 158.726849 322.242834 
L 171.676347 311.631938 
L 213.762214 276.888661 
L 223.474337 269.254988 
L 232.107336 262.719679 
L 240.740334 256.474155 
L 248.294208 251.288032 
L 255.848082 246.398638 
L 262.322831 242.470384 
L 268.797579 238.807803 
L 275.272328 235.432897 
L 278.509703 233.860197 
L 278.509703 233.860197 
" style="fill:none;stroke:#000000;stroke-dasharray:5.55,2.4;stroke-dashoffset:0;stroke-width:1.5;"/>
   </g>
   <g id="matplotlib.axis_5">
    <g id="xtick_37">
     <g id="line2d_96">
      <g>
       <use style="stroke:#000000;stroke-width:0.8;" x="63.763866" xlink:href="#m7b82416a7c" y="387.850051"/>
      </g>
     </g>
     <g id="text_31">
      <!-- $0$ -->
      <g transform="translate(60.440369 403.368035)scale(0.12 -0.12)">
       <use transform="scale(0.996264)" xlink:href="#Nimbus_Sans_L_Regular-48"/>
      </g>
     </g>
    </g>
    <g id="xtick_38">
     <g id="line2d_97">
      <g>
       <use style="stroke:#000000;stroke-width:0.8;" x="114.292298" xlink:href="#m7b82416a7c" y="387.850051"/>
      </g>
     </g>
     <g id="text_32">
      <!-- $20$ -->
      <g transform="translate(107.645304 403.368035)scale(0.12 -0.12)">
       <use transform="scale(0.996264)" xlink:href="#Nimbus_Sans_L_Regular-50"/>
       <use transform="translate(55.391677 0)scale(0.996264)" xlink:href="#Nimbus_Sans_L_Regular-48"/>
      </g>
     </g>
    </g>
    <g id="xtick_39">
     <g id="line2d_98">
      <g>
       <use style="stroke:#000000;stroke-width:0.8;" x="164.82073" xlink:href="#m7b82416a7c" y="387.850051"/>
      </g>
     </g>
     <g id="text_33">
      <!-- $40$ -->
      <g transform="translate(158.173736 403.368035)scale(0.12 -0.12)">
       <use transform="scale(0.996264)" xlink:href="#Nimbus_Sans_L_Regular-52"/>
       <use transform="translate(55.391677 0)scale(0.996264)" xlink:href="#Nimbus_Sans_L_Regular-48"/>
      </g>
     </g>
    </g>
    <g id="xtick_40">
     <g id="line2d_99">
      <g>
       <use style="stroke:#000000;stroke-width:0.8;" x="215.349162" xlink:href="#m7b82416a7c" y="387.850051"/>
      </g>
     </g>
     <g id="text_34">
      <!-- $60$ -->
      <g transform="translate(208.702168 403.368035)scale(0.12 -0.12)">
       <use transform="scale(0.996264)" xlink:href="#Nimbus_Sans_L_Regular-54"/>
       <use transform="translate(55.391677 0)scale(0.996264)" xlink:href="#Nimbus_Sans_L_Regular-48"/>
      </g>
     </g>
    </g>
    <g id="xtick_41">
     <g id="line2d_100">
      <g>
       <use style="stroke:#000000;stroke-width:0.8;" x="265.877595" xlink:href="#m7b82416a7c" y="387.850051"/>
      </g>
     </g>
     <g id="text_35">
      <!-- $80$ -->
      <g transform="translate(259.2306 403.368035)scale(0.12 -0.12)">
       <use transform="scale(0.996264)" xlink:href="#Nimbus_Sans_L_Regular-56"/>
       <use transform="translate(55.391677 0)scale(0.996264)" xlink:href="#Nimbus_Sans_L_Regular-48"/>
      </g>
     </g>
    </g>
    <g id="xtick_42">
     <g id="line2d_101">
      <g>
       <use style="stroke:#000000;stroke-width:0.6;" x="76.395974" xlink:href="#mbf6583a704" y="387.850051"/>
      </g>
     </g>
    </g>
    <g id="xtick_43">
     <g id="line2d_102">
      <g>
       <use style="stroke:#000000;stroke-width:0.6;" x="89.028082" xlink:href="#mbf6583a704" y="387.850051"/>
      </g>
     </g>
    </g>
    <g id="xtick_44">
     <g id="line2d_103">
      <g>
       <use style="stroke:#000000;stroke-width:0.6;" x="101.66019" xlink:href="#mbf6583a704" y="387.850051"/>
      </g>
     </g>
    </g>
    <g id="xtick_45">
     <g id="line2d_104">
      <g>
       <use style="stroke:#000000;stroke-width:0.6;" x="126.924406" xlink:href="#mbf6583a704" y="387.850051"/>
      </g>
     </g>
    </g>
    <g id="xtick_46">
     <g id="line2d_105">
      <g>
       <use style="stroke:#000000;stroke-width:0.6;" x="139.556514" xlink:href="#mbf6583a704" y="387.850051"/>
      </g>
     </g>
    </g>
    <g id="xtick_47">
     <g id="line2d_106">
      <g>
       <use style="stroke:#000000;stroke-width:0.6;" x="152.188622" xlink:href="#mbf6583a704" y="387.850051"/>
      </g>
     </g>
    </g>
    <g id="xtick_48">
     <g id="line2d_107">
      <g>
       <use style="stroke:#000000;stroke-width:0.6;" x="177.452838" xlink:href="#mbf6583a704" y="387.850051"/>
      </g>
     </g>
    </g>
    <g id="xtick_49">
     <g id="line2d_108">
      <g>
       <use style="stroke:#000000;stroke-width:0.6;" x="190.084946" xlink:href="#mbf6583a704" y="387.850051"/>
      </g>
     </g>
    </g>
    <g id="xtick_50">
     <g id="line2d_109">
      <g>
       <use style="stroke:#000000;stroke-width:0.6;" x="202.717054" xlink:href="#mbf6583a704" y="387.850051"/>
      </g>
     </g>
    </g>
    <g id="xtick_51">
     <g id="line2d_110">
      <g>
       <use style="stroke:#000000;stroke-width:0.6;" x="227.981271" xlink:href="#mbf6583a704" y="387.850051"/>
      </g>
     </g>
    </g>
    <g id="xtick_52">
     <g id="line2d_111">
      <g>
       <use style="stroke:#000000;stroke-width:0.6;" x="240.613379" xlink:href="#mbf6583a704" y="387.850051"/>
      </g>
     </g>
    </g>
    <g id="xtick_53">
     <g id="line2d_112">
      <g>
       <use style="stroke:#000000;stroke-width:0.6;" x="253.245487" xlink:href="#mbf6583a704" y="387.850051"/>
      </g>
     </g>
    </g>
    <g id="xtick_54">
     <g id="line2d_113">
      <g>
       <use style="stroke:#000000;stroke-width:0.6;" x="278.509703" xlink:href="#mbf6583a704" y="387.850051"/>
      </g>
     </g>
    </g>
    <g id="text_36">
     <!-- Time (min) -->
     <g transform="translate(142.582144 418.653625)scale(0.12 -0.12)">
      <use transform="scale(0.996264)" xlink:href="#Nimbus_Sans_L_Regular-84"/>
      <use transform="translate(60.871631 0)scale(0.996264)" xlink:href="#Nimbus_Sans_L_Regular-105"/>
      <use transform="translate(82.988415 0)scale(0.996264)" xlink:href="#Nimbus_Sans_L_Regular-109"/>
      <use transform="translate(165.976845 0)scale(0.996264)" xlink:href="#Nimbus_Sans_L_Regular-101"/>
      <use transform="translate(249.063692 0)scale(0.996264)" xlink:href="#Nimbus_Sans_L_Regular-40"/>
      <use transform="translate(282.238922 0)scale(0.996264)" xlink:href="#Nimbus_Sans_L_Regular-109"/>
      <use transform="translate(365.227352 0)scale(0.996264)" xlink:href="#Nimbus_Sans_L_Regular-105"/>
      <use transform="translate(387.344136 0)scale(0.996264)" xlink:href="#Nimbus_Sans_L_Regular-110"/>
      <use transform="translate(442.735813 0)scale(0.996264)" xlink:href="#Nimbus_Sans_L_Regular-41"/>
     </g>
    </g>
   </g>
   <g id="matplotlib.axis_6">
    <g id="ytick_38">
     <g id="line2d_114">
      <g>
       <use style="stroke:#000000;stroke-width:0.8;" x="53.026574" xlink:href="#m722226ea7a" y="376.753381"/>
      </g>
     </g>
     <g id="text_37">
      <!-- $0$ -->
      <g transform="translate(39.37958 381.012373)scale(0.12 -0.12)">
       <use transform="scale(0.996264)" xlink:href="#Nimbus_Sans_L_Regular-48"/>
      </g>
     </g>
    </g>
    <g id="ytick_39">
     <g id="line2d_115">
      <g>
       <use style="stroke:#000000;stroke-width:0.8;" x="53.026574" xlink:href="#m722226ea7a" y="332.3667"/>
      </g>
     </g>
     <g id="text_38">
      <!-- $2$ -->
      <g transform="translate(39.37958 336.625693)scale(0.12 -0.12)">
       <use transform="scale(0.996264)" xlink:href="#Nimbus_Sans_L_Regular-50"/>
      </g>
     </g>
    </g>
    <g id="ytick_40">
     <g id="line2d_116">
      <g>
       <use style="stroke:#000000;stroke-width:0.8;" x="53.026574" xlink:href="#m722226ea7a" y="287.98002"/>
      </g>
     </g>
     <g id="text_39">
      <!-- $4$ -->
      <g transform="translate(39.37958 292.239012)scale(0.12 -0.12)">
       <use transform="scale(0.996264)" xlink:href="#Nimbus_Sans_L_Regular-52"/>
      </g>
     </g>
    </g>
    <g id="ytick_41">
     <g id="line2d_117">
      <g>
       <use style="stroke:#000000;stroke-width:0.8;" x="53.026574" xlink:href="#m722226ea7a" y="243.59334"/>
      </g>
     </g>
     <g id="text_40">
      <!-- $6$ -->
      <g transform="translate(39.37958 247.852332)scale(0.12 -0.12)">
       <use transform="scale(0.996264)" xlink:href="#Nimbus_Sans_L_Regular-54"/>
      </g>
     </g>
    </g>
    <g id="ytick_42">
     <g id="line2d_118">
      <g>
       <use style="stroke:#000000;stroke-width:0.6;" x="53.026574" xlink:href="#mdff006b41f" y="365.656711"/>
      </g>
     </g>
    </g>
    <g id="ytick_43">
     <g id="line2d_119">
      <g>
       <use style="stroke:#000000;stroke-width:0.6;" x="53.026574" xlink:href="#mdff006b41f" y="354.560041"/>
      </g>
     </g>
    </g>
    <g id="ytick_44">
     <g id="line2d_120">
      <g>
       <use style="stroke:#000000;stroke-width:0.6;" x="53.026574" xlink:href="#mdff006b41f" y="343.463371"/>
      </g>
     </g>
    </g>
    <g id="ytick_45">
     <g id="line2d_121">
      <g>
       <use style="stroke:#000000;stroke-width:0.6;" x="53.026574" xlink:href="#mdff006b41f" y="321.27003"/>
      </g>
     </g>
    </g>
    <g id="ytick_46">
     <g id="line2d_122">
      <g>
       <use style="stroke:#000000;stroke-width:0.6;" x="53.026574" xlink:href="#mdff006b41f" y="310.17336"/>
      </g>
     </g>
    </g>
    <g id="ytick_47">
     <g id="line2d_123">
      <g>
       <use style="stroke:#000000;stroke-width:0.6;" x="53.026574" xlink:href="#mdff006b41f" y="299.07669"/>
      </g>
     </g>
    </g>
    <g id="ytick_48">
     <g id="line2d_124">
      <g>
       <use style="stroke:#000000;stroke-width:0.6;" x="53.026574" xlink:href="#mdff006b41f" y="276.88335"/>
      </g>
     </g>
    </g>
    <g id="ytick_49">
     <g id="line2d_125">
      <g>
       <use style="stroke:#000000;stroke-width:0.6;" x="53.026574" xlink:href="#mdff006b41f" y="265.78668"/>
      </g>
     </g>
    </g>
    <g id="ytick_50">
     <g id="line2d_126">
      <g>
       <use style="stroke:#000000;stroke-width:0.6;" x="53.026574" xlink:href="#mdff006b41f" y="254.69001"/>
      </g>
     </g>
    </g>
    <g id="ytick_51">
     <g id="line2d_127">
      <g>
       <use style="stroke:#000000;stroke-width:0.6;" x="53.026574" xlink:href="#mdff006b41f" y="232.49667"/>
      </g>
     </g>
    </g>
    <g id="ytick_52">
     <g id="line2d_128">
      <g>
       <use style="stroke:#000000;stroke-width:0.6;" x="53.026574" xlink:href="#mdff006b41f" y="221.4"/>
      </g>
     </g>
    </g>
    <g id="text_41">
     <!-- rel. abundance $(\%)$ -->
     <g transform="translate(32.833205 355.397907)rotate(-90)scale(0.12 -0.12)">
      <use transform="scale(0.996264)" xlink:href="#Nimbus_Sans_L_Regular-114"/>
      <use transform="translate(33.17523 0)scale(0.996264)" xlink:href="#Nimbus_Sans_L_Regular-101"/>
      <use transform="translate(88.566907 0)scale(0.996264)" xlink:href="#Nimbus_Sans_L_Regular-108"/>
      <use transform="translate(110.683691 0)scale(0.996264)" xlink:href="#Nimbus_Sans_L_Regular-46"/>
      <use transform="translate(172.648512 0)scale(0.996264)" xlink:href="#Nimbus_Sans_L_Regular-97"/>
      <use transform="translate(228.040189 0)scale(0.996264)" xlink:href="#Nimbus_Sans_L_Regular-98"/>
      <use transform="translate(281.439855 0)scale(0.996264)" xlink:href="#Nimbus_Sans_L_Regular-117"/>
      <use transform="translate(336.831532 0)scale(0.996264)" xlink:href="#Nimbus_Sans_L_Regular-110"/>
      <use transform="translate(392.223209 0)scale(0.996264)" xlink:href="#Nimbus_Sans_L_Regular-100"/>
      <use transform="translate(447.614886 0)scale(0.996264)" xlink:href="#Nimbus_Sans_L_Regular-97"/>
      <use transform="translate(503.006563 0)scale(0.996264)" xlink:href="#Nimbus_Sans_L_Regular-110"/>
      <use transform="translate(558.39824 0)scale(0.996264)" xlink:href="#Nimbus_Sans_L_Regular-99"/>
      <use transform="translate(608.21144 0)scale(0.996264)" xlink:href="#Nimbus_Sans_L_Regular-101"/>
      <use transform="translate(691.298287 0)scale(0.996264)" xlink:href="#Nimbus_Sans_L_Regular-40"/>
      <use transform="translate(724.473517 0)scale(0.996264)" xlink:href="#Nimbus_Sans_L_Regular-37"/>
      <use transform="translate(813.040423 0)scale(0.996264)" xlink:href="#Nimbus_Sans_L_Regular-41"/>
     </g>
    </g>
   </g>
   <g id="patch_11">
    <path d="M 53.026574 387.850051 
L 53.026574 221.4 
" style="fill:none;stroke:#000000;stroke-linecap:square;stroke-linejoin:miter;stroke-width:0.8;"/>
   </g>
   <g id="patch_12">
    <path d="M 53.026574 387.850051 
L 289.246995 387.850051 
" style="fill:none;stroke:#000000;stroke-linecap:square;stroke-linejoin:miter;stroke-width:0.8;"/>
   </g>
   <g id="line2d_129">
    <path clip-path="url(#p18766e7e98)" d="M 76.395974 373.748596 
L 89.028082 369.943303 
L 101.66019 364.337399 
L 114.292298 358.250167 
L 126.924406 347.90462 
L 139.556514 337.440299 
L 152.188622 328.501006 
L 63.763866 376.753381 
" style="fill:none;"/>
    <defs>
     <path d="M -0 3.535534 
L 2.12132 0 
L -0 -3.535534 
L -2.12132 -0 
z
" id="m5c494e40c4" style="stroke:#000000;stroke-linejoin:miter;"/>
    </defs>
    <g clip-path="url(#p18766e7e98)">
     <use style="stroke:#000000;stroke-linejoin:miter;" x="76.395974" xlink:href="#m5c494e40c4" y="373.748596"/>
     <use style="stroke:#000000;stroke-linejoin:miter;" x="89.028082" xlink:href="#m5c494e40c4" y="369.943303"/>
     <use style="stroke:#000000;stroke-linejoin:miter;" x="101.66019" xlink:href="#m5c494e40c4" y="364.337399"/>
     <use style="stroke:#000000;stroke-linejoin:miter;" x="114.292298" xlink:href="#m5c494e40c4" y="358.250167"/>
     <use style="stroke:#000000;stroke-linejoin:miter;" x="126.924406" xlink:href="#m5c494e40c4" y="347.90462"/>
     <use style="stroke:#000000;stroke-linejoin:miter;" x="139.556514" xlink:href="#m5c494e40c4" y="337.440299"/>
     <use style="stroke:#000000;stroke-linejoin:miter;" x="152.188622" xlink:href="#m5c494e40c4" y="328.501006"/>
     <use style="stroke:#000000;stroke-linejoin:miter;" x="63.763866" xlink:href="#m5c494e40c4" y="376.753381"/>
    </g>
   </g>
   <g id="line2d_130">
    <path clip-path="url(#p18766e7e98)" d="M 76.395974 374.407079 
L 139.556514 318.53362 
L 177.452838 308.860244 
L 227.981271 266.490704 
L 278.509703 233.500801 
" style="fill:none;"/>
    <defs>
     <path d="M -0 3.535534 
L 2.12132 0 
L -0 -3.535534 
L -2.12132 -0 
z
" id="m775fbd7687" style="stroke:#000000;stroke-linejoin:miter;"/>
    </defs>
    <g clip-path="url(#p18766e7e98)">
     <use style="fill:#ffffff;stroke:#000000;stroke-linejoin:miter;" x="76.395974" xlink:href="#m775fbd7687" y="374.407079"/>
     <use style="fill:#ffffff;stroke:#000000;stroke-linejoin:miter;" x="139.556514" xlink:href="#m775fbd7687" y="318.53362"/>
     <use style="fill:#ffffff;stroke:#000000;stroke-linejoin:miter;" x="177.452838" xlink:href="#m775fbd7687" y="308.860244"/>
     <use style="fill:#ffffff;stroke:#000000;stroke-linejoin:miter;" x="227.981271" xlink:href="#m775fbd7687" y="266.490704"/>
     <use style="fill:#ffffff;stroke:#000000;stroke-linejoin:miter;" x="278.509703" xlink:href="#m775fbd7687" y="233.500801"/>
    </g>
   </g>
   <g id="legend_3">
    <g id="patch_13">
     <path d="M 60.026574 257.840613 
L 103.269204 257.840613 
Q 105.269204 257.840613 105.269204 255.840613 
L 105.269204 228.4 
Q 105.269204 226.4 103.269204 226.4 
L 60.026574 226.4 
Q 58.026574 226.4 58.026574 228.4 
L 58.026574 255.840613 
Q 58.026574 257.840613 60.026574 257.840613 
z
" style="fill:#ffffff;opacity:0.8;stroke:#cccccc;stroke-linejoin:miter;"/>
    </g>
    <g id="line2d_131">
     <path d="M 62.026574 233.99832 
L 82.026574 233.99832 
" style="fill:none;"/>
    </g>
    <g id="line2d_132">
     <g>
      <use style="stroke:#000000;stroke-linejoin:miter;" x="72.026574" xlink:href="#m5c494e40c4" y="233.99832"/>
     </g>
    </g>
    <g id="text_42">
     <!-- $h$2 -->
     <g transform="translate(90.026574 237.49832)scale(0.1 -0.1)">
      <use transform="scale(0.996264)" xlink:href="#Nimbus_Sans_L_Regular_Italic-104"/>
      <use transform="translate(57.034716 0)scale(0.996264)" xlink:href="#Nimbus_Sans_L_Regular-50"/>
     </g>
    </g>
    <g id="line2d_133">
     <path d="M 62.026574 248.218627 
L 82.026574 248.218627 
" style="fill:none;"/>
    </g>
    <g id="line2d_134">
     <g>
      <use style="fill:#ffffff;stroke:#000000;stroke-linejoin:miter;" x="72.026574" xlink:href="#m775fbd7687" y="248.218627"/>
     </g>
    </g>
    <g id="text_43">
     <!-- $h$2 -->
     <g transform="translate(90.026574 251.718627)scale(0.1 -0.1)">
      <use transform="scale(0.996264)" xlink:href="#Nimbus_Sans_L_Regular_Italic-104"/>
      <use transform="translate(57.034716 0)scale(0.996264)" xlink:href="#Nimbus_Sans_L_Regular-50"/>
     </g>
    </g>
   </g>
  </g>
  <g id="axes_4">
   <g id="patch_14">
    <path d="M 328.97958 387.850051 
L 565.2 387.850051 
L 565.2 221.4 
L 328.97958 221.4 
z
" style="fill:#ffffff;"/>
   </g>
   <g id="matplotlib.axis_7">
    <g id="xtick_55">
     <g id="line2d_135">
      <g>
       <use style="stroke:#000000;stroke-width:0.8;" x="339.716871" xlink:href="#m7b82416a7c" y="387.850051"/>
      </g>
     </g>
     <g id="text_44">
      <!-- $0$ -->
      <g transform="translate(336.393374 403.368035)scale(0.12 -0.12)">
       <use transform="scale(0.996264)" xlink:href="#Nimbus_Sans_L_Regular-48"/>
      </g>
     </g>
    </g>
    <g id="xtick_56">
     <g id="line2d_136">
      <g>
       <use style="stroke:#000000;stroke-width:0.8;" x="390.245304" xlink:href="#m7b82416a7c" y="387.850051"/>
      </g>
     </g>
     <g id="text_45">
      <!-- $20$ -->
      <g transform="translate(383.598309 403.368035)scale(0.12 -0.12)">
       <use transform="scale(0.996264)" xlink:href="#Nimbus_Sans_L_Regular-50"/>
       <use transform="translate(55.391677 0)scale(0.996264)" xlink:href="#Nimbus_Sans_L_Regular-48"/>
      </g>
     </g>
    </g>
    <g id="xtick_57">
     <g id="line2d_137">
      <g>
       <use style="stroke:#000000;stroke-width:0.8;" x="440.773736" xlink:href="#m7b82416a7c" y="387.850051"/>
      </g>
     </g>
     <g id="text_46">
      <!-- $40$ -->
      <g transform="translate(434.126741 403.368035)scale(0.12 -0.12)">
       <use transform="scale(0.996264)" xlink:href="#Nimbus_Sans_L_Regular-52"/>
       <use transform="translate(55.391677 0)scale(0.996264)" xlink:href="#Nimbus_Sans_L_Regular-48"/>
      </g>
     </g>
    </g>
    <g id="xtick_58">
     <g id="line2d_138">
      <g>
       <use style="stroke:#000000;stroke-width:0.8;" x="491.302168" xlink:href="#m7b82416a7c" y="387.850051"/>
      </g>
     </g>
     <g id="text_47">
      <!-- $60$ -->
      <g transform="translate(484.655173 403.368035)scale(0.12 -0.12)">
       <use transform="scale(0.996264)" xlink:href="#Nimbus_Sans_L_Regular-54"/>
       <use transform="translate(55.391677 0)scale(0.996264)" xlink:href="#Nimbus_Sans_L_Regular-48"/>
      </g>
     </g>
    </g>
    <g id="xtick_59">
     <g id="line2d_139">
      <g>
       <use style="stroke:#000000;stroke-width:0.8;" x="541.8306" xlink:href="#m7b82416a7c" y="387.850051"/>
      </g>
     </g>
     <g id="text_48">
      <!-- $80$ -->
      <g transform="translate(535.183606 403.368035)scale(0.12 -0.12)">
       <use transform="scale(0.996264)" xlink:href="#Nimbus_Sans_L_Regular-56"/>
       <use transform="translate(55.391677 0)scale(0.996264)" xlink:href="#Nimbus_Sans_L_Regular-48"/>
      </g>
     </g>
    </g>
    <g id="xtick_60">
     <g id="line2d_140">
      <g>
       <use style="stroke:#000000;stroke-width:0.6;" x="352.348979" xlink:href="#mbf6583a704" y="387.850051"/>
      </g>
     </g>
    </g>
    <g id="xtick_61">
     <g id="line2d_141">
      <g>
       <use style="stroke:#000000;stroke-width:0.6;" x="364.981087" xlink:href="#mbf6583a704" y="387.850051"/>
      </g>
     </g>
    </g>
    <g id="xtick_62">
     <g id="line2d_142">
      <g>
       <use style="stroke:#000000;stroke-width:0.6;" x="377.613195" xlink:href="#mbf6583a704" y="387.850051"/>
      </g>
     </g>
    </g>
    <g id="xtick_63">
     <g id="line2d_143">
      <g>
       <use style="stroke:#000000;stroke-width:0.6;" x="402.877412" xlink:href="#mbf6583a704" y="387.850051"/>
      </g>
     </g>
    </g>
    <g id="xtick_64">
     <g id="line2d_144">
      <g>
       <use style="stroke:#000000;stroke-width:0.6;" x="415.50952" xlink:href="#mbf6583a704" y="387.850051"/>
      </g>
     </g>
    </g>
    <g id="xtick_65">
     <g id="line2d_145">
      <g>
       <use style="stroke:#000000;stroke-width:0.6;" x="428.141628" xlink:href="#mbf6583a704" y="387.850051"/>
      </g>
     </g>
    </g>
    <g id="xtick_66">
     <g id="line2d_146">
      <g>
       <use style="stroke:#000000;stroke-width:0.6;" x="453.405844" xlink:href="#mbf6583a704" y="387.850051"/>
      </g>
     </g>
    </g>
    <g id="xtick_67">
     <g id="line2d_147">
      <g>
       <use style="stroke:#000000;stroke-width:0.6;" x="466.037952" xlink:href="#mbf6583a704" y="387.850051"/>
      </g>
     </g>
    </g>
    <g id="xtick_68">
     <g id="line2d_148">
      <g>
       <use style="stroke:#000000;stroke-width:0.6;" x="478.67006" xlink:href="#mbf6583a704" y="387.850051"/>
      </g>
     </g>
    </g>
    <g id="xtick_69">
     <g id="line2d_149">
      <g>
       <use style="stroke:#000000;stroke-width:0.6;" x="503.934276" xlink:href="#mbf6583a704" y="387.850051"/>
      </g>
     </g>
    </g>
    <g id="xtick_70">
     <g id="line2d_150">
      <g>
       <use style="stroke:#000000;stroke-width:0.6;" x="516.566384" xlink:href="#mbf6583a704" y="387.850051"/>
      </g>
     </g>
    </g>
    <g id="xtick_71">
     <g id="line2d_151">
      <g>
       <use style="stroke:#000000;stroke-width:0.6;" x="529.198492" xlink:href="#mbf6583a704" y="387.850051"/>
      </g>
     </g>
    </g>
    <g id="xtick_72">
     <g id="line2d_152">
      <g>
       <use style="stroke:#000000;stroke-width:0.6;" x="554.462708" xlink:href="#mbf6583a704" y="387.850051"/>
      </g>
     </g>
    </g>
    <g id="text_49">
     <!-- Time (min) -->
     <g transform="translate(418.535149 418.653625)scale(0.12 -0.12)">
      <use transform="scale(0.996264)" xlink:href="#Nimbus_Sans_L_Regular-84"/>
      <use transform="translate(60.871631 0)scale(0.996264)" xlink:href="#Nimbus_Sans_L_Regular-105"/>
      <use transform="translate(82.988415 0)scale(0.996264)" xlink:href="#Nimbus_Sans_L_Regular-109"/>
      <use transform="translate(165.976845 0)scale(0.996264)" xlink:href="#Nimbus_Sans_L_Regular-101"/>
      <use transform="translate(249.063692 0)scale(0.996264)" xlink:href="#Nimbus_Sans_L_Regular-40"/>
      <use transform="translate(282.238922 0)scale(0.996264)" xlink:href="#Nimbus_Sans_L_Regular-109"/>
      <use transform="translate(365.227352 0)scale(0.996264)" xlink:href="#Nimbus_Sans_L_Regular-105"/>
      <use transform="translate(387.344136 0)scale(0.996264)" xlink:href="#Nimbus_Sans_L_Regular-110"/>
      <use transform="translate(442.735813 0)scale(0.996264)" xlink:href="#Nimbus_Sans_L_Regular-41"/>
     </g>
    </g>
   </g>
   <g id="matplotlib.axis_8">
    <g id="ytick_53">
     <g id="line2d_153">
      <g>
       <use style="stroke:#000000;stroke-width:0.8;" x="328.97958" xlink:href="#m722226ea7a" y="376.753381"/>
      </g>
     </g>
     <g id="text_50">
      <!-- $0$ -->
      <g transform="translate(315.332585 381.012373)scale(0.12 -0.12)">
       <use transform="scale(0.996264)" xlink:href="#Nimbus_Sans_L_Regular-48"/>
      </g>
     </g>
    </g>
    <g id="ytick_54">
     <g id="line2d_154">
      <g>
       <use style="stroke:#000000;stroke-width:0.8;" x="328.97958" xlink:href="#m722226ea7a" y="332.3667"/>
      </g>
     </g>
     <g id="text_51">
      <!-- $2$ -->
      <g transform="translate(315.332585 336.625693)scale(0.12 -0.12)">
       <use transform="scale(0.996264)" xlink:href="#Nimbus_Sans_L_Regular-50"/>
      </g>
     </g>
    </g>
    <g id="ytick_55">
     <g id="line2d_155">
      <g>
       <use style="stroke:#000000;stroke-width:0.8;" x="328.97958" xlink:href="#m722226ea7a" y="287.98002"/>
      </g>
     </g>
     <g id="text_52">
      <!-- $4$ -->
      <g transform="translate(315.332585 292.239012)scale(0.12 -0.12)">
       <use transform="scale(0.996264)" xlink:href="#Nimbus_Sans_L_Regular-52"/>
      </g>
     </g>
    </g>
    <g id="ytick_56">
     <g id="line2d_156">
      <g>
       <use style="stroke:#000000;stroke-width:0.8;" x="328.97958" xlink:href="#m722226ea7a" y="243.59334"/>
      </g>
     </g>
     <g id="text_53">
      <!-- $6$ -->
      <g transform="translate(315.332585 247.852332)scale(0.12 -0.12)">
       <use transform="scale(0.996264)" xlink:href="#Nimbus_Sans_L_Regular-54"/>
      </g>
     </g>
    </g>
    <g id="ytick_57">
     <g id="line2d_157">
      <g>
       <use style="stroke:#000000;stroke-width:0.6;" x="328.97958" xlink:href="#mdff006b41f" y="365.656711"/>
      </g>
     </g>
    </g>
    <g id="ytick_58">
     <g id="line2d_158">
      <g>
       <use style="stroke:#000000;stroke-width:0.6;" x="328.97958" xlink:href="#mdff006b41f" y="354.560041"/>
      </g>
     </g>
    </g>
    <g id="ytick_59">
     <g id="line2d_159">
      <g>
       <use style="stroke:#000000;stroke-width:0.6;" x="328.97958" xlink:href="#mdff006b41f" y="343.463371"/>
      </g>
     </g>
    </g>
    <g id="ytick_60">
     <g id="line2d_160">
      <g>
       <use style="stroke:#000000;stroke-width:0.6;" x="328.97958" xlink:href="#mdff006b41f" y="321.27003"/>
      </g>
     </g>
    </g>
    <g id="ytick_61">
     <g id="line2d_161">
      <g>
       <use style="stroke:#000000;stroke-width:0.6;" x="328.97958" xlink:href="#mdff006b41f" y="310.17336"/>
      </g>
     </g>
    </g>
    <g id="ytick_62">
     <g id="line2d_162">
      <g>
       <use style="stroke:#000000;stroke-width:0.6;" x="328.97958" xlink:href="#mdff006b41f" y="299.07669"/>
      </g>
     </g>
    </g>
    <g id="ytick_63">
     <g id="line2d_163">
      <g>
       <use style="stroke:#000000;stroke-width:0.6;" x="328.97958" xlink:href="#mdff006b41f" y="276.88335"/>
      </g>
     </g>
    </g>
    <g id="ytick_64">
     <g id="line2d_164">
      <g>
       <use style="stroke:#000000;stroke-width:0.6;" x="328.97958" xlink:href="#mdff006b41f" y="265.78668"/>
      </g>
     </g>
    </g>
    <g id="ytick_65">
     <g id="line2d_165">
      <g>
       <use style="stroke:#000000;stroke-width:0.6;" x="328.97958" xlink:href="#mdff006b41f" y="254.69001"/>
      </g>
     </g>
    </g>
    <g id="ytick_66">
     <g id="line2d_166">
      <g>
       <use style="stroke:#000000;stroke-width:0.6;" x="328.97958" xlink:href="#mdff006b41f" y="232.49667"/>
      </g>
     </g>
    </g>
    <g id="ytick_67">
     <g id="line2d_167">
      <g>
       <use style="stroke:#000000;stroke-width:0.6;" x="328.97958" xlink:href="#mdff006b41f" y="221.4"/>
      </g>
     </g>
    </g>
    <g id="text_54">
     <!-- rel. abundance $(\%)$ -->
     <g transform="translate(308.78621 355.397907)rotate(-90)scale(0.12 -0.12)">
      <use transform="scale(0.996264)" xlink:href="#Nimbus_Sans_L_Regular-114"/>
      <use transform="translate(33.17523 0)scale(0.996264)" xlink:href="#Nimbus_Sans_L_Regular-101"/>
      <use transform="translate(88.566907 0)scale(0.996264)" xlink:href="#Nimbus_Sans_L_Regular-108"/>
      <use transform="translate(110.683691 0)scale(0.996264)" xlink:href="#Nimbus_Sans_L_Regular-46"/>
      <use transform="translate(172.648512 0)scale(0.996264)" xlink:href="#Nimbus_Sans_L_Regular-97"/>
      <use transform="translate(228.040189 0)scale(0.996264)" xlink:href="#Nimbus_Sans_L_Regular-98"/>
      <use transform="translate(281.439855 0)scale(0.996264)" xlink:href="#Nimbus_Sans_L_Regular-117"/>
      <use transform="translate(336.831532 0)scale(0.996264)" xlink:href="#Nimbus_Sans_L_Regular-110"/>
      <use transform="translate(392.223209 0)scale(0.996264)" xlink:href="#Nimbus_Sans_L_Regular-100"/>
      <use transform="translate(447.614886 0)scale(0.996264)" xlink:href="#Nimbus_Sans_L_Regular-97"/>
      <use transform="translate(503.006563 0)scale(0.996264)" xlink:href="#Nimbus_Sans_L_Regular-110"/>
      <use transform="translate(558.39824 0)scale(0.996264)" xlink:href="#Nimbus_Sans_L_Regular-99"/>
      <use transform="translate(608.21144 0)scale(0.996264)" xlink:href="#Nimbus_Sans_L_Regular-101"/>
      <use transform="translate(691.298287 0)scale(0.996264)" xlink:href="#Nimbus_Sans_L_Regular-40"/>
      <use transform="translate(724.473517 0)scale(0.996264)" xlink:href="#Nimbus_Sans_L_Regular-37"/>
      <use transform="translate(813.040423 0)scale(0.996264)" xlink:href="#Nimbus_Sans_L_Regular-41"/>
     </g>
    </g>
   </g>
   <g id="line2d_168">
    <path clip-path="url(#pb67d50be9e)" d="M 339.716871 376.753381 
L 342.954246 369.670893 
L 346.19162 363.010573 
L 349.428995 356.753549 
L 352.666369 350.881697 
L 355.903743 345.377615 
L 359.141118 340.224598 
L 362.378492 335.406608 
L 365.615867 330.908253 
L 368.853241 326.71476 
L 372.090616 322.811952 
L 375.32799 319.186228 
L 378.565364 315.824537 
L 381.802739 312.714363 
L 385.040113 309.843698 
L 388.277488 307.20103 
L 391.514862 304.775317 
L 395.831361 301.860288 
L 400.147861 299.288306 
L 404.46436 297.036799 
L 408.780859 295.084447 
L 413.097358 293.411111 
L 417.413858 291.99778 
L 421.730357 290.82651 
L 426.046856 289.880367 
L 430.363355 289.143379 
L 434.679854 288.600488 
L 440.075479 288.17327 
L 445.471103 288.001264 
L 450.866727 288.060402 
L 456.262351 288.328366 
L 462.737099 288.896559 
L 469.211848 289.702909 
L 475.686597 290.717487 
L 483.240471 292.128145 
L 491.873469 293.99226 
L 501.585593 296.349432 
L 512.376841 299.217121 
L 525.326338 302.903158 
L 543.67146 308.390077 
L 554.462708 311.678548 
L 554.462708 311.678548 
" style="fill:none;stroke:#000000;stroke-dasharray:5.55,2.4;stroke-dashoffset:0;stroke-width:1.5;"/>
   </g>
   <g id="patch_15">
    <path d="M 328.97958 387.850051 
L 328.97958 221.4 
" style="fill:none;stroke:#000000;stroke-linecap:square;stroke-linejoin:miter;stroke-width:0.8;"/>
   </g>
   <g id="patch_16">
    <path d="M 328.97958 387.850051 
L 565.2 387.850051 
" style="fill:none;stroke:#000000;stroke-linecap:square;stroke-linejoin:miter;stroke-width:0.8;"/>
   </g>
   <g id="line2d_169">
    <path clip-path="url(#pb67d50be9e)" d="M 352.348979 349.999411 
L 364.981087 332.3542 
L 377.613195 323.073829 
L 390.245304 307.545383 
L 402.877412 299.047516 
L 415.50952 283.986755 
L 428.141628 275.988065 
L 339.716871 376.753381 
" style="fill:none;"/>
    <defs>
     <path d="M -0 2.5 
L 2.5 -2.5 
L -2.5 -2.5 
z
" id="mde6d88199a" style="stroke:#000000;stroke-linejoin:miter;"/>
    </defs>
    <g clip-path="url(#pb67d50be9e)">
     <use style="stroke:#000000;stroke-linejoin:miter;" x="352.348979" xlink:href="#mde6d88199a" y="349.999411"/>
     <use style="stroke:#000000;stroke-linejoin:miter;" x="364.981087" xlink:href="#mde6d88199a" y="332.3542"/>
     <use style="stroke:#000000;stroke-linejoin:miter;" x="377.613195" xlink:href="#mde6d88199a" y="323.073829"/>
     <use style="stroke:#000000;stroke-linejoin:miter;" x="390.245304" xlink:href="#mde6d88199a" y="307.545383"/>
     <use style="stroke:#000000;stroke-linejoin:miter;" x="402.877412" xlink:href="#mde6d88199a" y="299.047516"/>
     <use style="stroke:#000000;stroke-linejoin:miter;" x="415.50952" xlink:href="#mde6d88199a" y="283.986755"/>
     <use style="stroke:#000000;stroke-linejoin:miter;" x="428.141628" xlink:href="#mde6d88199a" y="275.988065"/>
     <use style="stroke:#000000;stroke-linejoin:miter;" x="339.716871" xlink:href="#mde6d88199a" y="376.753381"/>
    </g>
   </g>
   <g id="line2d_170">
    <path clip-path="url(#pb67d50be9e)" d="M 352.348979 359.625996 
L 415.50952 280.154775 
L 453.405844 303.253122 
L 503.934276 299.871997 
L 554.462708 308.26956 
" style="fill:none;"/>
    <defs>
     <path d="M -0 2.5 
L 2.5 -2.5 
L -2.5 -2.5 
z
" id="m27fd979dbb" style="stroke:#000000;stroke-linejoin:miter;"/>
    </defs>
    <g clip-path="url(#pb67d50be9e)">
     <use style="fill:#ffffff;stroke:#000000;stroke-linejoin:miter;" x="352.348979" xlink:href="#m27fd979dbb" y="359.625996"/>
     <use style="fill:#ffffff;stroke:#000000;stroke-linejoin:miter;" x="415.50952" xlink:href="#m27fd979dbb" y="280.154775"/>
     <use style="fill:#ffffff;stroke:#000000;stroke-linejoin:miter;" x="453.405844" xlink:href="#m27fd979dbb" y="303.253122"/>
     <use style="fill:#ffffff;stroke:#000000;stroke-linejoin:miter;" x="503.934276" xlink:href="#m27fd979dbb" y="299.871997"/>
     <use style="fill:#ffffff;stroke:#000000;stroke-linejoin:miter;" x="554.462708" xlink:href="#m27fd979dbb" y="308.26956"/>
    </g>
   </g>
   <g id="legend_4">
    <g id="patch_17">
     <path d="M 514.95737 257.840613 
L 558.2 257.840613 
Q 560.2 257.840613 560.2 255.840613 
L 560.2 228.4 
Q 560.2 226.4 558.2 226.4 
L 514.95737 226.4 
Q 512.95737 226.4 512.95737 228.4 
L 512.95737 255.840613 
Q 512.95737 257.840613 514.95737 257.840613 
z
" style="fill:#ffffff;opacity:0.8;stroke:#cccccc;stroke-linejoin:miter;"/>
    </g>
    <g id="line2d_171">
     <path d="M 516.95737 233.99832 
L 536.95737 233.99832 
" style="fill:none;"/>
    </g>
    <g id="line2d_172">
     <g>
      <use style="stroke:#000000;stroke-linejoin:miter;" x="526.95737" xlink:href="#mde6d88199a" y="233.99832"/>
     </g>
    </g>
    <g id="text_55">
     <!-- $h$3 -->
     <defs>
      <path d="M 22.09375 32.703125 
L 23.203125 32.703125 
L 26.90625 32.796875 
C 36.59375 32.796875 41.59375 28.421875 41.59375 19.9375 
C 41.59375 11.078125 36.09375 5.796875 26.90625 5.796875 
C 17.296875 5.796875 12.59375 10.578125 12 20.84375 
L 3.203125 20.84375 
C 3.59375 15.15625 4.59375 11.46875 6.296875 8.28125 
C 9.90625 1.5 16.90625 -2 26.59375 -2 
C 41.203125 -2 50.59375 6.6875 50.59375 20.046875 
C 50.59375 29.015625 47.09375 34 38.59375 36.890625 
C 45.203125 39.46875 48.5 44.453125 48.5 51.53125 
C 48.5 63.6875 40.40625 71 26.90625 71 
C 12.59375 71 5 63.1875 4.703125 48.140625 
L 13.5 48.140625 
C 13.59375 52.4375 14 54.828125 15.09375 57.015625 
C 17.09375 60.90625 21.5 63.296875 27 63.296875 
C 34.796875 63.296875 39.5 58.703125 39.5 51.234375 
C 39.5 46.25 37.703125 43.265625 33.796875 41.671875 
C 31.40625 40.671875 28.296875 40.265625 22.09375 40.171875 
z
" id="Nimbus_Sans_L_Regular-51"/>
     </defs>
     <g transform="translate(544.95737 237.49832)scale(0.1 -0.1)">
      <use transform="scale(0.996264)" xlink:href="#Nimbus_Sans_L_Regular_Italic-104"/>
      <use transform="translate(57.034716 0)scale(0.996264)" xlink:href="#Nimbus_Sans_L_Regular-51"/>
     </g>
    </g>
    <g id="line2d_173">
     <path d="M 516.95737 248.218627 
L 536.95737 248.218627 
" style="fill:none;"/>
    </g>
    <g id="line2d_174">
     <g>
      <use style="fill:#ffffff;stroke:#000000;stroke-linejoin:miter;" x="526.95737" xlink:href="#m27fd979dbb" y="248.218627"/>
     </g>
    </g>
    <g id="text_56">
     <!-- $h$3 -->
     <g transform="translate(544.95737 251.718627)scale(0.1 -0.1)">
      <use transform="scale(0.996264)" xlink:href="#Nimbus_Sans_L_Regular_Italic-104"/>
      <use transform="translate(57.034716 0)scale(0.996264)" xlink:href="#Nimbus_Sans_L_Regular-51"/>
     </g>
    </g>
   </g>
  </g>
 </g>
 <defs>
  <clipPath id="p76c35cd543">
   <rect height="166.450051" width="236.22042" x="53.026574" y="10.8"/>
  </clipPath>
  <clipPath id="p54af8e869a">
   <rect height="166.450051" width="236.22042" x="328.97958" y="10.8"/>
  </clipPath>
  <clipPath id="p18766e7e98">
   <rect height="166.450051" width="236.22042" x="53.026574" y="221.4"/>
  </clipPath>
  <clipPath id="pb67d50be9e">
   <rect height="166.450051" width="236.22042" x="328.97958" y="221.4"/>
  </clipPath>
 </defs>
</svg>
