norm_t,old
0,1
0.057142857,0.939307199
0.114285714,0.942425124
0.171428571,0.900296215
0.228571429,0.91011162
0.285714286,0.875985243
0.342857143,0.800385636
0.4,0.811319903
0.514285714,0.679920147
0.742857143,0.606483484
0.971428571,0.452216772
